 { "$schema":
        "http://json-schema.org/draft-07/schema#", "$id": "urn:moda-ml:repository:schema:SRVinformationrequest", "title":
            "SRVinformationrequest", "description": "SRVinformationrequest", "definitions": { 
         "SRVinformationrequest_Type": { 
             "description": "SRVinformationrequest", 
             "type": "object",
            "properties": { 
            
                "@version": { "$ref": "#/definitions/version_Type" },
                "@useProfile": { "$ref": "#/definitions/useProfile_Type" }, 
                "SRVheader": { 
             "$ref": "#/definitions/SRVheader_Type"  } 
            ,
                "furtherRequestedInformation": { 
             "items": {  "$ref": "#/definitions/furtherRequestedInformation_Type"  }, "type": "array" 
                , "maxItems": 9 } 
             }, 
            
            
             "additionalProperties": false 
            , "required": ["SRVheader" ]
             } 
            , "SRVheader_Type": { 
             "description": "SRVheader", 
             "type": "object",
            "properties": { 
            
                "msgID": { 
             "$ref": "#/definitions/msgID_Type"  } 
            ,
                "msgDate": { 
             "$ref": "#/definitions/msgDate_Type"  } 
            ,
                "senderParty": { 
             "$ref": "#/definitions/senderParty_Type"  } 
            ,
                "receiverParty": { 
             "$ref": "#/definitions/receiverParty_Type"  } 
            ,
                "platformServiceRef": { 
             "$ref": "#/definitions/platformServiceRef_Type"  } 
             }, 
            
            
             "additionalProperties": false 
            , "required": ["senderParty" ,"receiverParty" ,"platformServiceRef" ]
             } 
            , "senderParty_Type": { 
             "description": "senderParty", 
             "type": "object",
            "properties": { 
            
                "@role": { "$ref": "#/definitions/role_Type" },
                "@sender": { "$ref": "#/definitions/sender_Type" }, 
                "id": { 
             "$ref": "#/definitions/id_Type"  } 
            ,
                "legalName": { 
             "$ref": "#/definitions/legalName_Type"  } 
            ,
                "dept": { 
             "$ref": "#/definitions/dept_Type"  } 
            ,
                "subDept": { 
             "$ref": "#/definitions/subDept_Type"  } 
            ,
                "person": { 
             "$ref": "#/definitions/person_Type"  } 
            ,
                "street": { 
             "$ref": "#/definitions/street_Type"  } 
            ,
                "city": { 
             "$ref": "#/definitions/city_Type"  } 
            ,
                "subCountry": { 
             "$ref": "#/definitions/subCountry_Type"  } 
            ,
                "country": { 
             "$ref": "#/definitions/country_Type"  } 
            ,
                "postCode": { 
             "$ref": "#/definitions/postCode_Type"  } 
            ,
                "geoCoordinates": { 
             "$ref": "#/definitions/geoCoordinates_Type"  } 
             }, 
            
            
             "additionalProperties": false 
            , "required": ["id" ]
             } 
            , "receiverParty_Type": { 
             "description": "receiverParty", 
             "type": "object",
            "properties": { 
            
                "@role": { "$ref": "#/definitions/role_Type" },
                "@sender": { "$ref": "#/definitions/sender_Type" }, 
                "id": { 
             "$ref": "#/definitions/id_Type"  } 
            ,
                "legalName": { 
             "$ref": "#/definitions/legalName_Type"  } 
            ,
                "dept": { 
             "$ref": "#/definitions/dept_Type"  } 
            ,
                "subDept": { 
             "$ref": "#/definitions/subDept_Type"  } 
            ,
                "person": { 
             "$ref": "#/definitions/person_Type"  } 
            ,
                "street": { 
             "$ref": "#/definitions/street_Type"  } 
            ,
                "city": { 
             "$ref": "#/definitions/city_Type"  } 
            ,
                "subCountry": { 
             "$ref": "#/definitions/subCountry_Type"  } 
            ,
                "country": { 
             "$ref": "#/definitions/country_Type"  } 
            ,
                "postCode": { 
             "$ref": "#/definitions/postCode_Type"  } 
            ,
                "geoCoordinates": { 
             "$ref": "#/definitions/geoCoordinates_Type"  } 
             }, 
            
            
             "additionalProperties": false 
            , "required": ["id" ]
             } 
            , "platformServiceRef_Type": { 
             "description": "platformServiceRef", 
             "type": "object",
            "properties": { 
            
                "platformService": { 
             "$ref": "#/definitions/platformService_Type"  } 
            ,
                "serviceTicketIdentifierID": { 
             "$ref": "#/definitions/serviceTicketIdentifierID_Type"  } 
            ,
                "serviceRequestedAction": { 
             "$ref": "#/definitions/serviceRequestedAction_Type"  } 
             }, 
            
            
             "additionalProperties": false 
            , "required": ["platformService" ,"serviceRequestedAction" ]
             } 
            , "geoCoordinates_Type": { 
             "description": "geoCoordinates", 
             "type": "object",
            "properties": { 
            
                "@um": { "$ref": "#/definitions/um_Type" },
                "@geoReferenceSystem": { "$ref": "#/definitions/geoReferenceSystem_Type" }, 
                "xGeoCoord": { 
             "$ref": "#/definitions/xGeoCoord_Type"  } 
            ,
                "yGeoCoord": { 
             "$ref": "#/definitions/yGeoCoord_Type"  } 
            ,
                "zGeoCoord": { 
             "$ref": "#/definitions/zGeoCoord_Type"  } 
             }, 
            
            
             "additionalProperties": false 
            , "required": ["xGeoCoord" ,"yGeoCoord" ]
             } 
            , "furtherRequestedInformation_Type": { "type": "object", "properties": {  "$": {  "$ref": "#/definitions/sub_furtherRequestedInformation_Type"  } ,
                "@ln": { "$ref": "#/definitions/ln_Type" } },  "additionalProperties": false 
             } 
            , "msgDate_Type": { "type": "object", "properties": {  "$": {  "$ref": "#/definitions/sub_msgDate_Type"  } ,
                "@dateForm": { "$ref": "#/definitions/dateForm_Type" } },  "additionalProperties": false 
             } 
            , "id_Type": { "type": "object", "properties": {  "$": {  "$ref": "#/definitions/sub_id_Type"  } ,
                "@numberingOrg": { "$ref": "#/definitions/numberingOrg_Type" } },  "additionalProperties": false 
             } 
            , "person_Type": { "type": "object", "properties": {  "$": {  "$ref": "#/definitions/sub_person_Type"  } ,
                "@email": { "$ref": "#/definitions/email_Type" },
                "@phone": { "$ref": "#/definitions/phone_Type" },
                "@fax": { "$ref": "#/definitions/fax_Type" } },  "additionalProperties": false 
             } 
            , "platformService_Type": { "type": "object", "properties": {  "$": {  "$ref": "#/definitions/sub_platformService_Type"  } ,
                "@schemeID": { "$ref": "#/definitions/schemeID_Type" } },  "additionalProperties": false 
             } 
            , "serviceRequestedAction_Type": { "type": "object", "properties": {  "$": {  "$ref": "#/definitions/sub_serviceRequestedAction_Type"  }  },  "additionalProperties": false 
             } 
            , "xGeoCoord_Type": { "type": "object", "properties": {  "$": {  "$ref": "#/definitions/sub_xGeoCoord_Type"  }  },  "additionalProperties": false 
             } 
            , "yGeoCoord_Type": { "type": "object", "properties": {  "$": {  "$ref": "#/definitions/sub_yGeoCoord_Type"  }  },  "additionalProperties": false 
             } 
            , "zGeoCoord_Type": { "type": "object", "properties": {  "$": {  "$ref": "#/definitions/sub_zGeoCoord_Type"  }  },  "additionalProperties": false 
             } 
            , "sub_furtherRequestedInformation_Type": {  "type": "string"  } 
            , "version_Type": {  "enum": [ "2013-1","2018-1","draft"],  "type": "string"  } 
            , "useProfile_Type": {  "type": "string"  } 
            , "msgID_Type": {  "maxLength": 35,  "type": "string"  } 
            , "sub_msgDate_Type": {  "pattern": "^(((19|20)[0-9][0-9])-(0[1-9]|1[012])-(0[1-9]|1[0-9]|2[0-9]|3[01])(:([0,1][0-9]|2[0-4])-([0-5][0-9])){0,1})|(((19|20)[0-9][0-9])-([0-4][0-9]|[5][0-2]))$",  "type": "string"  } 
            , "ln_Type": {  "enum": [ "af","ar","be","bg","bn","bo","bs","ca","cs","da","de","el","en","eo","es","et","eu","F","fa","fi","fr","ga","gd","gn","he","hr","ht","hu","hy","ia","id","is","it","ja","jv","ka","km","ko","ku","lb","lo","lt","lv","mg","mk","mn","mt","nl","no","pl","pt","ro","ru","se","sk","sl","sm","so","sq","sr","sv","sw","ta","th","tr","uk","ur","uz","vi","zh"],  "type": "string"  } 
            , "dateForm_Type": {  "enum": [ "D","M","S","W"],  "type": "string"  } 
            , "sub_id_Type": {  "maxLength": 15,  "type": "string"  } 
            , "legalName_Type": {  "maxLength": 250,  "type": "string"  } 
            , "dept_Type": {  "maxLength": 40,  "type": "string"  } 
            , "subDept_Type": {  "maxLength": 40,  "type": "string"  } 
            , "sub_person_Type": {  "maxLength": 40,  "type": "string"  } 
            , "street_Type": {  "maxLength": 80,  "type": "string"  } 
            , "city_Type": {  "maxLength": 40,  "type": "string"  } 
            , "subCountry_Type": {  "maxLength": 9,  "type": "string"  } 
            , "country_Type": {  "type": "string"  } 
            , "postCode_Type": {  "maxLength": 10,  "type": "string"  } 
            , "role_Type": {  "enum": [ "AG","AU","BU","CE","CM","CO","CU","DC","DF","DI","DM","DP","EX","IM","OR","SC","SM","SP","SU","TL","TX"],  "type": "string"  } 
            , "sender_Type": {  "type": "boolean"  } 
            , "sub_platformService_Type": {  "enum": [ "0","1","2","3","4","5"],  "type": "string"  } 
            , "serviceTicketIdentifierID_Type": {  "type": "string"  } 
            , "sub_serviceRequestedAction_Type": {  "enum": [ "activate","execution","getinfo","proposedreport","reportapproval","reportrejected","setinfo"],  "type": "string"  } 
            , "numberingOrg_Type": {  "enum": [ "CL","CO","EB","EN","ES","FO","GS","MF","ML","PL","SP"],  "type": "string"  } 
            , "email_Type": {  "maxLength": 250,  "type": "string"  } 
            , "phone_Type": {  "maxLength": 35,  "type": "string"  } 
            , "fax_Type": {  "maxLength": 35,  "type": "string"  } 
            , "sub_xGeoCoord_Type": {  "type": "number"  } 
            , "sub_yGeoCoord_Type": {  "type": "number"  } 
            , "sub_zGeoCoord_Type": {  "type": "number"  } 
            , "um_Type": {  "enum": [ "CMK","CMQ","CMT","CNE","CO2TON","COUPLES","DAY","DEGD","DEGMS","DMQ","E37","GRM","HUR","INH","KGM","KMT","KWH","LBR","MCG","MG","MIN","MMK","MONTH","MSEC","MTK","MTQ","MTR","NMB","ONZ","P1","PPM","PZ","RPM","SEC","YEAR","YRD"],  "type": "string"  } 
            , "geoReferenceSystem_Type": {  "type": "string"  } 
            , "schemeID_Type": {  "type": "string"  } 
            
         },  "type":
        "object", "properties": { "SRVinformationrequest":
            {"$ref":"#/definitions/SRVinformationrequest_Type"}}, "required": [
            "SRVinformationrequest" ] } 