 { "$schema":
        "http://json-schema.org/draft-07/schema#", "$id": "urn:moda-ml:repository:schema:GARStockOffer", "title":
            "GARStockOffer", "description": "GARStockOffer", "definitions": { 
         "GARStockOffer_Type": { 
             "description": "GARStockOffer", 
             "type": "object",
            "properties": { 
            
                "@msgfunction": { "$ref": "#/definitions/msgfunction_Type" },
                "@version": { "$ref": "#/definitions/version_Type" },
                "@useProfile": { "$ref": "#/definitions/useProfile_Type" }, 
                "GSOheader": { 
             "$ref": "#/definitions/GSOheader_Type"  } 
            ,
                "GSObody": { 
             "$ref": "#/definitions/GSObody_Type"  } 
             }, 
            
            
             "additionalProperties": false 
            , "required": ["GSOheader" ,"GSObody" ]
             } 
            , "GSOheader_Type": { 
             "description": "GSOheader", 
             "type": "object",
            "properties": { 
            
                "msgN": { 
             "$ref": "#/definitions/msgN_Type"  } 
            ,
                "msgID": { 
             "$ref": "#/definitions/msgID_Type"  } 
            ,
                "msgDate": { 
             "$ref": "#/definitions/msgDate_Type"  } 
            ,
                "refDoc": { 
             "items": {  "$ref": "#/definitions/refDoc_Type"  }, "type": "array" 
                , "maxItems": 9 } 
            ,
                "supplier": { 
             "$ref": "#/definitions/supplier_Type"  } 
            ,
                "buyer": { 
             "$ref": "#/definitions/buyer_Type"  } 
            ,
                "thirdParty": { 
             "items": {  "$ref": "#/definitions/thirdParty_Type"  }, "type": "array" 
                , "maxItems": 5 } 
            ,
                "note": { 
             "items": {  "$ref": "#/definitions/note_Type"  }, "type": "array" 
                , "maxItems": 99 } 
             }, 
            
            
             "additionalProperties": false 
            , "required": ["msgN" ,"msgDate" ,"supplier" ]
             } 
            , "GSObody_Type": { 
             "description": "GSObody", 
             "type": "object",
            "properties": { 
            
                "GSOitem": { 
             "items": {  "$ref": "#/definitions/GSOitem_Type"  }, "type": "array" 
                 } 
             }, 
            
            
             "additionalProperties": false 
            , "required": ["GSOitem" ]
             } 
            , "refDoc_Type": { 
             "description": "refDoc", 
             "type": "object",
            "properties": { 
            
                "@docType": { "$ref": "#/definitions/docType_Type" }, 
                "docID": { 
             "items": {  "$ref": "#/definitions/docID_Type"  }, "type": "array" 
                , "maxItems": 2 } 
            ,
                "docDate": { 
             "$ref": "#/definitions/docDate_Type"  } 
            ,
                "season": { 
             "$ref": "#/definitions/season_Type"  } 
            ,
                "itemID": { 
             "$ref": "#/definitions/itemID_Type"  } 
            ,
                "attachment": { 
             "$ref": "#/definitions/attachment_Type"  } 
             }, 
            
            
             "additionalProperties": false 
            , "required": ["docID" ,"@docType"]
             } 
            , "supplier_Type": { 
             "description": "supplier", 
             "type": "object",
            "properties": { 
            
                "@logo": { "$ref": "#/definitions/logo_Type" },
                "@sender": { "$ref": "#/definitions/sender_Type" }, 
                "id": { 
             "$ref": "#/definitions/id_Type"  } 
            ,
                "additionalIdentifier": { 
             "items": {  "$ref": "#/definitions/additionalIdentifier_Type"  }, "type": "array" 
                , "maxItems": 9 } 
            ,
                "legalName": { 
             "$ref": "#/definitions/legalName_Type"  } 
            ,
                "dept": { 
             "$ref": "#/definitions/dept_Type"  } 
            ,
                "subDept": { 
             "$ref": "#/definitions/subDept_Type"  } 
            ,
                "person": { 
             "$ref": "#/definitions/person_Type"  } 
            ,
                "street": { 
             "$ref": "#/definitions/street_Type"  } 
            ,
                "city": { 
             "$ref": "#/definitions/city_Type"  } 
            ,
                "subCountry": { 
             "$ref": "#/definitions/subCountry_Type"  } 
            ,
                "country": { 
             "$ref": "#/definitions/country_Type"  } 
            ,
                "postCode": { 
             "$ref": "#/definitions/postCode_Type"  } 
             }, 
            
            
             "additionalProperties": false 
            , "required": ["id" ]
             } 
            , "buyer_Type": { 
             "description": "buyer", 
             "type": "object",
            "properties": { 
            
                "@logo": { "$ref": "#/definitions/logo_Type" },
                "@sender": { "$ref": "#/definitions/sender_Type" }, 
                "id": { 
             "$ref": "#/definitions/id_Type"  } 
            ,
                "additionalIdentifier": { 
             "items": {  "$ref": "#/definitions/additionalIdentifier_Type"  }, "type": "array" 
                , "maxItems": 9 } 
            ,
                "legalName": { 
             "$ref": "#/definitions/legalName_Type"  } 
            ,
                "dept": { 
             "$ref": "#/definitions/dept_Type"  } 
            ,
                "subDept": { 
             "$ref": "#/definitions/subDept_Type"  } 
            ,
                "person": { 
             "$ref": "#/definitions/person_Type"  } 
            ,
                "street": { 
             "$ref": "#/definitions/street_Type"  } 
            ,
                "city": { 
             "$ref": "#/definitions/city_Type"  } 
            ,
                "subCountry": { 
             "$ref": "#/definitions/subCountry_Type"  } 
            ,
                "country": { 
             "$ref": "#/definitions/country_Type"  } 
            ,
                "postCode": { 
             "$ref": "#/definitions/postCode_Type"  } 
             }, 
            
            
             "additionalProperties": false 
            , "required": ["id" ]
             } 
            , "thirdParty_Type": { 
             "description": "thirdParty", 
             "type": "object",
            "properties": { 
            
                "@VAT": { "$ref": "#/definitions/VAT_Type" },
                "@role": { "$ref": "#/definitions/role_Type" },
                "@sender": { "$ref": "#/definitions/sender_Type" }, 
                "id": { 
             "$ref": "#/definitions/id_Type"  } 
            ,
                "legalName": { 
             "$ref": "#/definitions/legalName_Type"  } 
            ,
                "dept": { 
             "$ref": "#/definitions/dept_Type"  } 
            ,
                "subDept": { 
             "$ref": "#/definitions/subDept_Type"  } 
            ,
                "person": { 
             "$ref": "#/definitions/person_Type"  } 
            ,
                "street": { 
             "$ref": "#/definitions/street_Type"  } 
            ,
                "city": { 
             "$ref": "#/definitions/city_Type"  } 
            ,
                "subCountry": { 
             "$ref": "#/definitions/subCountry_Type"  } 
            ,
                "country": { 
             "$ref": "#/definitions/country_Type"  } 
            ,
                "postCode": { 
             "$ref": "#/definitions/postCode_Type"  } 
             }, 
            
            
             "additionalProperties": false 
            , "required": ["id" ,"@role"]
             } 
            , "GSOitem_Type": { 
             "description": "GSOitem", 
             "type": "object",
            "properties": { 
            
                "@currency": { "$ref": "#/definitions/currency_Type" }, 
                "lineN": { 
             "$ref": "#/definitions/lineN_Type"  } 
            ,
                "lineID": { 
             "$ref": "#/definitions/lineID_Type"  } 
            ,
                "refDoc": { 
             "items": {  "$ref": "#/definitions/refDoc_Type"  }, "type": "array" 
                , "maxItems": 9 } 
            ,
                "garmentCategory": { 
             "$ref": "#/definitions/garmentCategory_Type"  } 
            ,
                "tradeMark": { 
             "$ref": "#/definitions/tradeMark_Type"  } 
            ,
                "commerceText": { 
             "items": {  "$ref": "#/definitions/commerceText_Type"  }, "type": "array" 
                 } 
            ,
                "garmentCode": { 
             "$ref": "#/definitions/garmentCode_Type"  } 
            ,
                "qty": { 
             "$ref": "#/definitions/qty_Type"  } 
            ,
                "readyToSendDate": { 
             "$ref": "#/definitions/readyToSendDate_Type"  } 
            ,
                "price": { 
             "$ref": "#/definitions/price_Type"  } 
            ,
                "csRange": { 
             "items": {  "$ref": "#/definitions/csRange_Type"  }, "type": "array" 
                , "maxItems": 99 } 
            ,
                "stockAddress": { 
             "$ref": "#/definitions/stockAddress_Type"  } 
            ,
                "dtScheme": { 
             "$ref": "#/definitions/dtScheme_Type"  } 
            ,
                "note": { 
             "items": {  "$ref": "#/definitions/note_Type"  }, "type": "array" 
                , "maxItems": 99 } 
             }, 
            
            
             "additionalProperties": false 
            , "required": ["lineN" ,"garmentCategory" ,"garmentCode" ,"qty" ,"price" ,"csRange" ,"stockAddress" ]
             } 
            , "attachment_Type": { 
             "description": "attachment", 
             "type": "object",
            "properties": { 
            
                "@uid": { "$ref": "#/definitions/uid_Type" }, 
                "fileName": { 
             "$ref": "#/definitions/fileName_Type"  } 
            ,
                "binaryObject": { 
             "$ref": "#/definitions/binaryObject_Type"  } 
            ,
                "externalReference": { 
             "items": {  "$ref": "#/definitions/externalReference_Type"  }, "type": "array" 
                , "maxItems": 99 } 
             }, 
            
            
             "additionalProperties": false 
            
             } 
            , "garmentCategory_Type": { 
             "description": "garmentCategory", 
             "type": "object",
            "properties": { 
            
                "@numberingOrg": { "$ref": "#/definitions/numberingOrg_Type" }, 
                "artGroup": { 
             "$ref": "#/definitions/artGroup_Type"  } 
            ,
                "artSubGroup": { 
             "$ref": "#/definitions/artSubGroup_Type"  } 
            ,
                "artSex": { 
             "$ref": "#/definitions/artSex_Type"  } 
            ,
                "season": { 
             "$ref": "#/definitions/season_Type"  } 
            ,
                "goodsClassification": { 
             "items": {  "$ref": "#/definitions/goodsClassification_Type"  }, "type": "array" 
                , "maxItems": 9 } 
            ,
                "note": { 
             "items": {  "$ref": "#/definitions/note_Type"  }, "type": "array" 
                , "maxItems": 99 } 
             }, 
            
            
             "additionalProperties": false 
            
             } 
            , "garmentCode_Type": { 
             "description": "garmentCode", 
             "type": "object",
            "properties": { 
            
                "@numberingOrg": { "$ref": "#/definitions/numberingOrg_Type" }, 
                "garmentCodeB": { 
             "$ref": "#/definitions/garmentCodeB_Type"  } 
            ,
                "garmentCodeA": { 
             "$ref": "#/definitions/garmentCodeA_Type"  } 
             }, 
            
            "oneOf": [ {  "required": [
                                    "garmentCodeB"]  } 
                        , {  "required": [
                                    "garmentCodeA"]  } 
                        ], 
             "additionalProperties": false 
            
             } 
            , "csRange_Type": { 
             "description": "csRange", 
             "type": "object",
            "properties": { 
            
                "@numberingOrg": { "$ref": "#/definitions/numberingOrg_Type" },
                "@sizeSystemNat": { "$ref": "#/definitions/sizeSystemNat_Type" },
                "@sizeSystemSeg": { "$ref": "#/definitions/sizeSystemSeg_Type" },
                "@sizeSystemBase": { "$ref": "#/definitions/sizeSystemBase_Type" },
                "@sizeSystemID": { "$ref": "#/definitions/sizeSystemID_Type" }, 
                "color": { 
             "$ref": "#/definitions/color_Type"  } 
            ,
                "garmentVariant": { 
             "items": {  "$ref": "#/definitions/garmentVariant_Type"  }, "type": "array" 
                , "maxItems": 9 } 
            ,
                "drop": { 
             "$ref": "#/definitions/drop_Type"  } 
            ,
                "sizeMatrix": { 
             "$ref": "#/definitions/sizeMatrix_Type"  } 
             }, 
            
            
             "additionalProperties": false 
            , "required": ["sizeMatrix" ]
             } 
            , "stockAddress_Type": { 
             "description": "stockAddress", 
             "type": "object",
            "properties": { 
            
                "@numberingOrg": { "$ref": "#/definitions/numberingOrg_Type" }, 
                "city": { 
             "$ref": "#/definitions/city_Type"  } 
            ,
                "subCountry": { 
             "$ref": "#/definitions/subCountry_Type"  } 
            ,
                "country": { 
             "$ref": "#/definitions/country_Type"  } 
             }, 
            
            
             "additionalProperties": false 
            , "required": ["city" ,"subCountry" ,"country" ]
             } 
            , "dtScheme_Type": { 
             "description": "dtScheme", 
             "type": "object",
            "properties": { 
            
                "@taxType": { "$ref": "#/definitions/taxType_Type" }, 
                "taxCategory": { 
             "$ref": "#/definitions/taxCategory_Type"  } 
            ,
                "taxRate": { 
             "$ref": "#/definitions/taxRate_Type"  } 
            ,
                "legalRef": { 
             "$ref": "#/definitions/legalRef_Type"  } 
            ,
                "note": { 
             "items": {  "$ref": "#/definitions/note_Type"  }, "type": "array" 
                , "maxItems": 99 } 
             }, 
            
            
             "additionalProperties": false 
            , "required": ["@taxType"]
             } 
            , "externalReference_Type": { 
             "description": "externalReference", 
             "type": "object",
            "properties": { 
            
                "uri": { 
             "$ref": "#/definitions/uri_Type"  } 
            ,
                "mimeCode": { 
             "$ref": "#/definitions/mimeCode_Type"  } 
            ,
                "formatCode": { 
             "$ref": "#/definitions/formatCode_Type"  } 
            ,
                "encodingCode": { 
             "$ref": "#/definitions/encodingCode_Type"  } 
            ,
                "characterSetCode": { 
             "$ref": "#/definitions/characterSetCode_Type"  } 
             }, 
            
            
             "additionalProperties": false 
            , "required": ["uri" ]
             } 
            , "goodsClassification_Type": { 
             "description": "goodsClassification", 
             "type": "object",
            "properties": { 
            
                "macroClass": { 
             "$ref": "#/definitions/macroClass_Type"  } 
            ,
                "class": { 
             "$ref": "#/definitions/class_Type"  } 
            ,
                "subClass": { 
             "$ref": "#/definitions/subClass_Type"  } 
             }, 
            
            
             "additionalProperties": false 
            
             } 
            , "garmentCodeB_Type": { 
             "description": "garmentCodeB", 
             "type": "object",
            "properties": { 
            
                "@numberingOrg": { "$ref": "#/definitions/numberingOrg_Type" }, 
                "mod": { 
             "$ref": "#/definitions/mod_Type"  } 
            ,
                "fabric": { 
             "$ref": "#/definitions/fabric_Type"  } 
            ,
                "color": { 
             "$ref": "#/definitions/color_Type"  } 
            ,
                "garmentVariant": { 
             "items": {  "$ref": "#/definitions/garmentVariant_Type"  }, "type": "array" 
                , "maxItems": 9 } 
            ,
                "drop": { 
             "$ref": "#/definitions/drop_Type"  } 
            ,
                "size": { 
             "$ref": "#/definitions/size_Type"  } 
            ,
                "artGroup": { 
             "$ref": "#/definitions/artGroup_Type"  } 
            ,
                "added": { 
             "items": {  "$ref": "#/definitions/added_Type"  }, "type": "array" 
                , "maxItems": 9 } 
            ,
                "description": { 
             "items": {  "$ref": "#/definitions/description_Type"  }, "type": "array" 
                 } 
             }, 
            
            
             "additionalProperties": false 
            , "required": ["mod" ]
             } 
            , "garmentCodeA_Type": { 
             "description": "garmentCodeA", 
             "type": "object",
            "properties": { 
            
                "art": { 
             "$ref": "#/definitions/art_Type"  } 
            ,
                "description": { 
             "items": {  "$ref": "#/definitions/description_Type"  }, "type": "array" 
                 } 
             }, 
            
            
             "additionalProperties": false 
            , "required": ["art" ]
             } 
            , "garmentVariant_Type": { 
             "description": "garmentVariant", 
             "type": "object",
            "properties": { 
            
                "variantType": { 
             "$ref": "#/definitions/variantType_Type"  } 
            ,
                "variantCode": { 
             "$ref": "#/definitions/variantCode_Type"  } 
             }, 
            
            
             "additionalProperties": false 
            , "required": ["variantType" ,"variantCode" ]
             } 
            , "sizeMatrix_Type": { 
             "description": "sizeMatrix", 
             "type": "object",
            "properties": { 
            
                "sizeRow": { 
             "items": {  "$ref": "#/definitions/sizeRow_Type"  }, "type": "array" 
                , "maxItems": 99 } 
             }, 
            
            
             "additionalProperties": false 
            , "required": ["sizeRow" ]
             } 
            , "sizeRow_Type": { 
             "description": "sizeRow", 
             "type": "object",
            "properties": { 
            
                "additionalComponentCode": { 
             "items": {  "$ref": "#/definitions/additionalComponentCode_Type"  }, "type": "array" 
                , "maxItems": 9 } 
            ,
                "drop": { 
             "$ref": "#/definitions/drop_Type"  } 
            ,
                "size": { 
             "$ref": "#/definitions/size_Type"  } 
            ,
                "qty": { 
             "$ref": "#/definitions/qty_Type"  } 
            ,
                "itemsList": { 
             "$ref": "#/definitions/itemsList_Type"  } 
             }, 
            
            
             "additionalProperties": false 
            , "required": ["size" ]
             } 
            , "itemsList_Type": { 
             "description": "itemsList", 
             "type": "object",
            "properties": { 
            
                "qualityLevel": { 
             "$ref": "#/definitions/qualityLevel_Type"  } 
            ,
                "itemIdentification": { 
             "items": {  "$ref": "#/definitions/itemIdentification_Type"  }, "type": "array" 
                 } 
             }, 
            
            
             "additionalProperties": false 
            , "required": ["itemIdentification" ]
             } 
            , "itemIdentification_Type": { 
             "description": "itemIdentification", 
             "type": "object",
            "properties": { 
            
                "serialN": { 
             "items": {  "$ref": "#/definitions/serialN_Type"  }, "type": "array" 
                , "maxItems": 9 } 
             }, 
            
            
             "additionalProperties": false 
            , "required": ["serialN" ]
             } 
            , "msgDate_Type": { "type": "object", "properties": {  "$": {  "$ref": "#/definitions/sub_msgDate_Type"  } ,
                "@dateForm": { "$ref": "#/definitions/dateForm_Type" } },  "additionalProperties": false 
             } 
            , "note_Type": { "type": "object", "properties": {  "$": {  "$ref": "#/definitions/sub_note_Type"  } ,
                "@numberingOrg": { "$ref": "#/definitions/numberingOrg_Type" },
                "@codeList": { "$ref": "#/definitions/codeList_Type" },
                "@noteLabel": { "$ref": "#/definitions/noteLabel_Type" } },  "additionalProperties": false 
             } 
            , "docID_Type": { "type": "object", "properties": {  "$": {  "$ref": "#/definitions/sub_docID_Type"  } ,
                "@numberingOrg": { "$ref": "#/definitions/numberingOrg_Type" } },  "additionalProperties": false 
             } 
            , "docDate_Type": { "type": "object", "properties": {  "$": {  "$ref": "#/definitions/sub_docDate_Type"  } ,
                "@dateForm": { "$ref": "#/definitions/dateForm_Type" } },  "additionalProperties": false 
             } 
            , "season_Type": { "type": "object", "properties": {  "$": {  "$ref": "#/definitions/sub_season_Type"  } ,
                "@numberingOrg": { "$ref": "#/definitions/numberingOrg_Type" },
                "@codeList": { "$ref": "#/definitions/codeList_Type" },
                "@listName": { "$ref": "#/definitions/listName_Type" },
                "@listVersion": { "$ref": "#/definitions/listVersion_Type" } },  "additionalProperties": false 
             } 
            , "id_Type": { "type": "object", "properties": {  "$": {  "$ref": "#/definitions/sub_id_Type"  } ,
                "@numberingOrg": { "$ref": "#/definitions/numberingOrg_Type" } },  "additionalProperties": false 
             } 
            , "additionalIdentifier_Type": { "type": "object", "properties": {  "$": {  "$ref": "#/definitions/sub_additionalIdentifier_Type"  } ,
                "@numberingOrg": { "$ref": "#/definitions/numberingOrg_Type" },
                "@idQualifier": { "$ref": "#/definitions/idQualifier_Type" } },  "additionalProperties": false 
             } 
            , "person_Type": { "type": "object", "properties": {  "$": {  "$ref": "#/definitions/sub_person_Type"  } ,
                "@email": { "$ref": "#/definitions/email_Type" },
                "@phone": { "$ref": "#/definitions/phone_Type" },
                "@fax": { "$ref": "#/definitions/fax_Type" } },  "additionalProperties": false 
             } 
            , "lineN_Type": { "type": "object", "properties": {  "$": {  "$ref": "#/definitions/sub_lineN_Type"  } ,
                "@VAT": { "$ref": "#/definitions/VAT_Type" } },  "additionalProperties": false 
             } 
            , "commerceText_Type": { "type": "object", "properties": {  "$": {  "$ref": "#/definitions/sub_commerceText_Type"  } ,
                "@ln": { "$ref": "#/definitions/ln_Type" } },  "additionalProperties": false 
             } 
            , "qty_Type": { "type": "object", "properties": {  "$": {  "$ref": "#/definitions/sub_qty_Type"  } ,
                "@um": { "$ref": "#/definitions/um_Type" } },  "additionalProperties": false 
            , "required": ["@um"] } 
            , "readyToSendDate_Type": { "type": "object", "properties": {  "$": {  "$ref": "#/definitions/sub_readyToSendDate_Type"  } ,
                "@dateForm": { "$ref": "#/definitions/dateForm_Type" } },  "additionalProperties": false 
             } 
            , "price_Type": { "type": "object", "properties": {  "$": {  "$ref": "#/definitions/sub_price_Type"  } ,
                "@um": { "$ref": "#/definitions/um_Type" },
                "@priceQualifier": { "$ref": "#/definitions/priceQualifier_Type" },
                "@currency": { "$ref": "#/definitions/currency_Type" } },  "additionalProperties": false 
             } 
            , "fileName_Type": { "type": "object", "properties": {  "$": {  "$ref": "#/definitions/sub_fileName_Type"  } ,
                "@numberingOrg": { "$ref": "#/definitions/numberingOrg_Type" } },  "additionalProperties": false 
             } 
            , "binaryObject_Type": { "type": "object", "properties": {  "$": {  "$ref": "#/definitions/sub_binaryObject_Type"  } ,
                "@format": { "$ref": "#/definitions/format_Type" },
                "@mime": { "$ref": "#/definitions/mime_Type" },
                "@encoding": { "$ref": "#/definitions/encoding_Type" },
                "@characterSet": { "$ref": "#/definitions/characterSet_Type" } },  "additionalProperties": false 
             } 
            , "artGroup_Type": { "type": "object", "properties": {  "$": {  "$ref": "#/definitions/sub_artGroup_Type"  } ,
                "@numberingOrg": { "$ref": "#/definitions/numberingOrg_Type" },
                "@codeList": { "$ref": "#/definitions/codeList_Type" },
                "@listName": { "$ref": "#/definitions/listName_Type" },
                "@listVersion": { "$ref": "#/definitions/listVersion_Type" } },  "additionalProperties": false 
             } 
            , "artSubGroup_Type": { "type": "object", "properties": {  "$": {  "$ref": "#/definitions/sub_artSubGroup_Type"  } ,
                "@numberingOrg": { "$ref": "#/definitions/numberingOrg_Type" },
                "@codeList": { "$ref": "#/definitions/codeList_Type" },
                "@listName": { "$ref": "#/definitions/listName_Type" },
                "@listVersion": { "$ref": "#/definitions/listVersion_Type" } },  "additionalProperties": false 
             } 
            , "artSex_Type": { "type": "object", "properties": {  "$": {  "$ref": "#/definitions/sub_artSex_Type"  } ,
                "@numberingOrg": { "$ref": "#/definitions/numberingOrg_Type" },
                "@codeList": { "$ref": "#/definitions/codeList_Type" },
                "@listName": { "$ref": "#/definitions/listName_Type" },
                "@listVersion": { "$ref": "#/definitions/listVersion_Type" } },  "additionalProperties": false 
             } 
            , "color_Type": { "type": "object", "properties": {  "$": {  "$ref": "#/definitions/sub_color_Type"  } ,
                "@numberingOrg": { "$ref": "#/definitions/numberingOrg_Type" },
                "@codeList": { "$ref": "#/definitions/codeList_Type" },
                "@listName": { "$ref": "#/definitions/listName_Type" },
                "@listVersion": { "$ref": "#/definitions/listVersion_Type" } },  "additionalProperties": false 
             } 
            , "drop_Type": { "type": "object", "properties": {  "$": {  "$ref": "#/definitions/sub_drop_Type"  } ,
                "@numberingOrg": { "$ref": "#/definitions/numberingOrg_Type" },
                "@codeList": { "$ref": "#/definitions/codeList_Type" },
                "@listName": { "$ref": "#/definitions/listName_Type" },
                "@listVersion": { "$ref": "#/definitions/listVersion_Type" } },  "additionalProperties": false 
             } 
            , "legalRef_Type": { "type": "object", "properties": {  "$": {  "$ref": "#/definitions/sub_legalRef_Type"  } ,
                "@numberingOrg": { "$ref": "#/definitions/numberingOrg_Type" },
                "@codeList": { "$ref": "#/definitions/codeList_Type" },
                "@listName": { "$ref": "#/definitions/listName_Type" },
                "@listVersion": { "$ref": "#/definitions/listVersion_Type" } },  "additionalProperties": false 
             } 
            , "uri_Type": { "type": "object", "properties": {  "$": {  "$ref": "#/definitions/sub_uri_Type"  } ,
                "@isURL": { "$ref": "#/definitions/isURL_Type" } },  "additionalProperties": false 
             } 
            , "macroClass_Type": { "type": "object", "properties": {  "$": {  "$ref": "#/definitions/sub_macroClass_Type"  } ,
                "@numberingOrg": { "$ref": "#/definitions/numberingOrg_Type" },
                "@codeList": { "$ref": "#/definitions/codeList_Type" },
                "@listName": { "$ref": "#/definitions/listName_Type" },
                "@listVersion": { "$ref": "#/definitions/listVersion_Type" } },  "additionalProperties": false 
             } 
            , "class_Type": { "type": "object", "properties": {  "$": {  "$ref": "#/definitions/sub_class_Type"  } ,
                "@numberingOrg": { "$ref": "#/definitions/numberingOrg_Type" },
                "@codeList": { "$ref": "#/definitions/codeList_Type" },
                "@listName": { "$ref": "#/definitions/listName_Type" },
                "@listVersion": { "$ref": "#/definitions/listVersion_Type" } },  "additionalProperties": false 
             } 
            , "subClass_Type": { "type": "object", "properties": {  "$": {  "$ref": "#/definitions/sub_subClass_Type"  } ,
                "@numberingOrg": { "$ref": "#/definitions/numberingOrg_Type" },
                "@codeList": { "$ref": "#/definitions/codeList_Type" },
                "@listName": { "$ref": "#/definitions/listName_Type" },
                "@listVersion": { "$ref": "#/definitions/listVersion_Type" } },  "additionalProperties": false 
             } 
            , "mod_Type": { "type": "object", "properties": {  "$": {  "$ref": "#/definitions/sub_mod_Type"  } ,
                "@numberingOrg": { "$ref": "#/definitions/numberingOrg_Type" },
                "@codeList": { "$ref": "#/definitions/codeList_Type" },
                "@listName": { "$ref": "#/definitions/listName_Type" },
                "@listVersion": { "$ref": "#/definitions/listVersion_Type" } },  "additionalProperties": false 
             } 
            , "fabric_Type": { "type": "object", "properties": {  "$": {  "$ref": "#/definitions/sub_fabric_Type"  } ,
                "@numberingOrg": { "$ref": "#/definitions/numberingOrg_Type" },
                "@codeList": { "$ref": "#/definitions/codeList_Type" },
                "@listName": { "$ref": "#/definitions/listName_Type" },
                "@listVersion": { "$ref": "#/definitions/listVersion_Type" } },  "additionalProperties": false 
             } 
            , "size_Type": { "type": "object", "properties": {  "$": {  "$ref": "#/definitions/sub_size_Type"  } ,
                "@numberingOrg": { "$ref": "#/definitions/numberingOrg_Type" },
                "@codeList": { "$ref": "#/definitions/codeList_Type" },
                "@listName": { "$ref": "#/definitions/listName_Type" },
                "@listVersion": { "$ref": "#/definitions/listVersion_Type" } },  "additionalProperties": false 
             } 
            , "added_Type": { "type": "object", "properties": {  "$": {  "$ref": "#/definitions/sub_added_Type"  } ,
                "@numberingOrg": { "$ref": "#/definitions/numberingOrg_Type" },
                "@addType": { "$ref": "#/definitions/addType_Type" } },  "additionalProperties": false 
             } 
            , "description_Type": { "type": "object", "properties": {  "$": {  "$ref": "#/definitions/sub_description_Type"  } ,
                "@ln": { "$ref": "#/definitions/ln_Type" } },  "additionalProperties": false 
             } 
            , "art_Type": { "type": "object", "properties": {  "$": {  "$ref": "#/definitions/sub_art_Type"  } ,
                "@numberingOrg": { "$ref": "#/definitions/numberingOrg_Type" },
                "@codeList": { "$ref": "#/definitions/codeList_Type" },
                "@listName": { "$ref": "#/definitions/listName_Type" },
                "@listVersion": { "$ref": "#/definitions/listVersion_Type" } },  "additionalProperties": false 
             } 
            , "variantType_Type": { "type": "object", "properties": {  "$": {  "$ref": "#/definitions/sub_variantType_Type"  } ,
                "@numberingOrg": { "$ref": "#/definitions/numberingOrg_Type" },
                "@codeList": { "$ref": "#/definitions/codeList_Type" },
                "@listName": { "$ref": "#/definitions/listName_Type" },
                "@listVersion": { "$ref": "#/definitions/listVersion_Type" } },  "additionalProperties": false 
             } 
            , "variantCode_Type": { "type": "object", "properties": {  "$": {  "$ref": "#/definitions/sub_variantCode_Type"  } ,
                "@numberingOrg": { "$ref": "#/definitions/numberingOrg_Type" },
                "@codeList": { "$ref": "#/definitions/codeList_Type" },
                "@listName": { "$ref": "#/definitions/listName_Type" },
                "@listVersion": { "$ref": "#/definitions/listVersion_Type" } },  "additionalProperties": false 
             } 
            , "additionalComponentCode_Type": { "type": "object", "properties": {  "$": {  "$ref": "#/definitions/sub_additionalComponentCode_Type"  } ,
                "@numberingOrg": { "$ref": "#/definitions/numberingOrg_Type" },
                "@codeList": { "$ref": "#/definitions/codeList_Type" },
                "@listName": { "$ref": "#/definitions/listName_Type" },
                "@listVersion": { "$ref": "#/definitions/listVersion_Type" } },  "additionalProperties": false 
             } 
            , "qualityLevel_Type": { "type": "object", "properties": {  "$": {  "$ref": "#/definitions/sub_qualityLevel_Type"  } ,
                "@numberingOrg": { "$ref": "#/definitions/numberingOrg_Type" },
                "@codeList": { "$ref": "#/definitions/codeList_Type" },
                "@listName": { "$ref": "#/definitions/listName_Type" },
                "@listVersion": { "$ref": "#/definitions/listVersion_Type" } },  "additionalProperties": false 
             } 
            , "serialN_Type": { "type": "object", "properties": {  "$": {  "$ref": "#/definitions/sub_serialN_Type"  } ,
                "@numberingOrg": { "$ref": "#/definitions/numberingOrg_Type" },
                "@idQualifier": { "$ref": "#/definitions/idQualifier_Type" } },  "additionalProperties": false 
             } 
            , "msgfunction_Type": {  "enum": [ "CA","CP","OR","RC","RT"],  "type": "string"  } 
            , "version_Type": {  "enum": [ "2013-1","2018-1","draft"],  "type": "string"  } 
            , "useProfile_Type": {  "type": "string"  } 
            , "msgN_Type": {  "maxLength": 35,  "type": "string"  } 
            , "msgID_Type": {  "maxLength": 35,  "type": "string"  } 
            , "sub_msgDate_Type": {  "pattern": "^(((19|20)[0-9][0-9])-(0[1-9]|1[012])-(0[1-9]|1[0-9]|2[0-9]|3[01])(:([0,1][0-9]|2[0-4])-([0-5][0-9])){0,1})|(((19|20)[0-9][0-9])-([0-4][0-9]|[5][0-2]))$",  "type": "string"  } 
            , "sub_note_Type": {  "maxLength": 350,  "type": "string"  } 
            , "dateForm_Type": {  "enum": [ "D","M","W"],  "type": "string"  } 
            , "sub_docID_Type": {  "maxLength": 80,  "type": "string"  } 
            , "sub_docDate_Type": {  "pattern": "^(((19|20)[0-9][0-9])-(0[1-9]|1[012])-(0[1-9]|1[0-9]|2[0-9]|3[01])(:([0,1][0-9]|2[0-4])-([0-5][0-9])){0,1})|(((19|20)[0-9][0-9])-([0-4][0-9]|[5][0-2]))$",  "type": "string"  } 
            , "sub_season_Type": {  "maxLength": 15,  "type": "string"  } 
            , "itemID_Type": {  "maxLength": 40,  "type": "string"  } 
            , "docType_Type": {  "enum": [ "BOR","CAT","CEO","CER","COC","CRN","CTO","CTR","CXF","DAD","DDT","DEA","DER","DR","FOR","GSO","GSX","INV","KCC","KCI","M2M","MAS","MCI","OCH","OFF","ORD","ORP","OSR","OSS","OST","OUR","QR","RAI","RDC","RDH","RDR","REA","REQ","RET","RSC","RSH","RSR","SCL","TFC","TFX","TPC","TPX","TWI","VMI","WAC","WEC","YDC","YDH","YDR","YTC","YWI"],  "type": "string"  } 
            , "sub_id_Type": {  "maxLength": 15,  "type": "string"  } 
            , "sub_additionalIdentifier_Type": {  "maxLength": 15,  "type": "string"  } 
            , "legalName_Type": {  "maxLength": 250,  "type": "string"  } 
            , "dept_Type": {  "maxLength": 40,  "type": "string"  } 
            , "subDept_Type": {  "maxLength": 40,  "type": "string"  } 
            , "sub_person_Type": {  "maxLength": 40,  "type": "string"  } 
            , "street_Type": {  "maxLength": 80,  "type": "string"  } 
            , "city_Type": {  "maxLength": 40,  "type": "string"  } 
            , "subCountry_Type": {  "maxLength": 9,  "type": "string"  } 
            , "country_Type": {  "type": "string"  } 
            , "postCode_Type": {  "maxLength": 10,  "type": "string"  } 
            , "logo_Type": {  "maxLength": 255,  "type": "string"  } 
            , "sender_Type": {  "type": "boolean"  } 
            , "VAT_Type": {  "enum": [ "001","002","003","004","005","006","007","008","009","010","011","012","013","014","015","016","017","018","019","020","021","022","023","024","025","162","164","165","166","169","174","177","183","184","201","220","227","374","701","702","902","904","905","907","915","926","974"],  "type": "string"  } 
            , "role_Type": {  "enum": [ "AG","AU","CE","CO","DC","DF","DI","DM","DP","IM","OR","SC","SM","SP","TX"],  "type": "string"  } 
            , "numberingOrg_Type": {  "enum": [ "CL","CO","EB","EN","ES","FO","GS","MF","ML","SP"],  "type": "string"  } 
            , "codeList_Type": {  "maxLength": 255,  "type": "string"  } 
            , "noteLabel_Type": {  "maxLength": 35,  "type": "string"  } 
            , "sub_lineN_Type": {  "minimum": 1,  "maximum": 9999,  "type": "number"  } 
            , "lineID_Type": {  "maxLength": 30,  "type": "string"  } 
            , "tradeMark_Type": {  "maxLength": 50,  "type": "string"  } 
            , "sub_commerceText_Type": {  "maxLength": 400,  "type": "string"  } 
            , "sub_qty_Type": {  "minimum": 0,  "type": "number"  } 
            , "sub_readyToSendDate_Type": {  "pattern": "^(((19|20)[0-9][0-9])-(0[1-9]|1[012])-(0[1-9]|1[0-9]|2[0-9]|3[01])(:([0,1][0-9]|2[0-4])-([0-5][0-9])){0,1})|(((19|20)[0-9][0-9])-([0-4][0-9]|[5][0-2]))$",  "type": "string"  } 
            , "sub_price_Type": {  "minimum": 0,  "type": "number"  } 
            , "currency_Type": {  "type": "string"  } 
            , "listName_Type": {  "maxLength": 40,  "type": "string"  } 
            , "listVersion_Type": {  "maxLength": 6,  "type": "string"  } 
            , "sub_fileName_Type": {  "maxLength": 255,  "type": "string"  } 
            , "sub_binaryObject_Type": {  "type": "string"  } 
            , "uid_Type": {  "type": "string"  } 
            , "idQualifier_Type": {  "type": "string"  } 
            , "email_Type": {  "maxLength": 250,  "type": "string"  } 
            , "phone_Type": {  "maxLength": 35,  "type": "string"  } 
            , "fax_Type": {  "maxLength": 35,  "type": "string"  } 
            , "sub_artGroup_Type": {  "maxLength": 40,  "type": "string"  } 
            , "sub_artSubGroup_Type": {  "maxLength": 40,  "type": "string"  } 
            , "sub_artSex_Type": {  "maxLength": 15,  "type": "string"  } 
            , "ln_Type": {  "enum": [ "af","ar","be","bg","bn","bo","bs","ca","cs","da","de","el","en","eo","es","et","eu","F","fa","fi","fr","ga","gd","gn","he","hr","ht","hu","hy","ia","id","is","it","ja","jv","ka","km","ko","ku","lb","lo","lt","lv","mg","mk","mn","mt","nl","no","pl","pt","ro","ru","se","sk","sl","sm","so","sq","sr","sv","sw","ta","th","tr","uk","ur","uz","vi","zh"],  "type": "string"  } 
            , "um_Type": {  "enum": [ "CMK","CMQ","CMT","CNE","CO2TON","COUPLES","DMQ","E37","GRM","HUR","INH","KGM","KMT","KWH","LBR","MIN","MMK","MTK","MTQ","MTR","NMB","ONZ","P1","PPM","PZ","RPM","YRD"],  "type": "string"  } 
            , "priceQualifier_Type": {  "enum": [ "GET","GIT","NET","NIT"],  "type": "string"  } 
            , "sub_color_Type": {  "maxLength": 15,  "type": "string"  } 
            , "sub_drop_Type": {  "maxLength": 15,  "type": "string"  } 
            , "sizeSystemNat_Type": {  "enum": [ "DE","ES","EU","FR","IT","UK","US","XX"],  "type": "string"  } 
            , "sizeSystemSeg_Type": {  "enum": [ "B","C","K","M","U","W"],  "type": "string"  } 
            , "sizeSystemBase_Type": {  "enum": [ "1","2","3","4","H","L","U","W"],  "type": "string"  } 
            , "sizeSystemID_Type": {  "type": "string"  } 
            , "taxCategory_Type": {  "enum": [ "AA","E","H","O","S","Z"],  "type": "string"  } 
            , "taxRate_Type": {  "type": "string"  } 
            , "sub_legalRef_Type": {  "type": "string"  } 
            , "taxType_Type": {  "enum": [ "BOL","CUD","ENV","FRE","OTH","VAT"],  "type": "string"  } 
            , "format_Type": {  "type": "string"  } 
            , "mime_Type": {  "type": "string"  } 
            , "encoding_Type": {  "type": "string"  } 
            , "characterSet_Type": {  "type": "string"  } 
            , "sub_uri_Type": {  "type": "string"  } 
            , "mimeCode_Type": {  "type": "string"  } 
            , "formatCode_Type": {  "type": "string"  } 
            , "encodingCode_Type": {  "type": "string"  } 
            , "characterSetCode_Type": {  "type": "string"  } 
            , "sub_macroClass_Type": {  "type": "string"  } 
            , "sub_class_Type": {  "type": "string"  } 
            , "sub_subClass_Type": {  "type": "string"  } 
            , "sub_mod_Type": {  "maxLength": 15,  "type": "string"  } 
            , "sub_fabric_Type": {  "maxLength": 15,  "type": "string"  } 
            , "sub_size_Type": {  "maxLength": 15,  "type": "string"  } 
            , "sub_added_Type": {  "maxLength": 80,  "type": "string"  } 
            , "sub_description_Type": {  "maxLength": 250,  "type": "string"  } 
            , "sub_art_Type": {  "maxLength": 80,  "type": "string"  } 
            , "sub_variantType_Type": {  "type": "string"  } 
            , "sub_variantCode_Type": {  "type": "string"  } 
            , "isURL_Type": {  "type": "boolean"  } 
            , "addType_Type": {  "enum": [ "CC","CL","CO","DY","LT","MDI","MS","PKG","PL","RGB","SE"],  "type": "string"  } 
            , "sub_additionalComponentCode_Type": {  "type": "string"  } 
            , "sub_qualityLevel_Type": {  "type": "string"  } 
            , "sub_serialN_Type": {  "maxLength": 250,  "type": "string"  } 
            
         },  "type":
        "object", "properties": { "GARStockOffer":
            {"$ref":"#/definitions/GARStockOffer_Type"}}, "required": [
            "GARStockOffer" ] } 