 { "$schema":
        "http://json-schema.org/draft-07/schema#", "$id": "urn:moda-ml:repository:schema:TEXCatalog", "title":
            "TEXCatalog", "description": "TEXCatalog", "definitions": { 
         "TEXCatalog_Type": { 
             "description": "TEXCatalog", 
             "type": "object",
            "properties": { 
            
                "@msgfunction": { "$ref": "#/definitions/msgfunction_Type" },
                "@version": { "$ref": "#/definitions/version_Type" },
                "@useProfile": { "$ref": "#/definitions/useProfile_Type" }, 
                "TCheader": { 
             "$ref": "#/definitions/TCheader_Type"  } 
            ,
                "terms": { 
             "$ref": "#/definitions/terms_Type"  } 
            ,
                "texComInfo": { 
             "$ref": "#/definitions/texComInfo_Type"  } 
            ,
                "TCbody": { 
             "$ref": "#/definitions/TCbody_Type"  } 
             }, 
            
            
             "additionalProperties": false 
            , "required": ["TCheader" ,"TCbody" ]
             } 
            , "TCheader_Type": { 
             "description": "TCheader", 
             "type": "object",
            "properties": { 
            
                "msgN": { 
             "$ref": "#/definitions/msgN_Type"  } 
            ,
                "msgID": { 
             "$ref": "#/definitions/msgID_Type"  } 
            ,
                "docID": { 
             "$ref": "#/definitions/docID_Type"  } 
            ,
                "msgDate": { 
             "$ref": "#/definitions/msgDate_Type"  } 
            ,
                "msgCurrency": { 
             "$ref": "#/definitions/msgCurrency_Type"  } 
            ,
                "refDoc": { 
             "items": {  "$ref": "#/definitions/refDoc_Type"  }, "type": "array" 
                , "maxItems": 9 } 
            ,
                "picture": { 
             "items": {  "$ref": "#/definitions/picture_Type"  }, "type": "array" 
                , "maxItems": 9 } 
            ,
                "season": { 
             "$ref": "#/definitions/season_Type"  } 
            ,
                "validityStart": { 
             "$ref": "#/definitions/validityStart_Type"  } 
            ,
                "validityEnd": { 
             "$ref": "#/definitions/validityEnd_Type"  } 
            ,
                "buyer": { 
             "$ref": "#/definitions/buyer_Type"  } 
            ,
                "supplier": { 
             "$ref": "#/definitions/supplier_Type"  } 
            ,
                "thirdParty": { 
             "items": {  "$ref": "#/definitions/thirdParty_Type"  }, "type": "array" 
                , "maxItems": 5 } 
            ,
                "note": { 
             "items": {  "$ref": "#/definitions/note_Type"  }, "type": "array" 
                , "maxItems": 99 } 
             }, 
            
             "anyOf": [ {},  { "": "msgID" } 
                        , { "": "docID" } 
                        ], 
             "additionalProperties": false 
            , "required": ["msgN" ,"msgDate" ,"supplier" ]
             } 
            , "terms_Type": { 
             "description": "terms", 
             "type": "object",
            "properties": { 
            
                "payment": { 
             "items": {  "$ref": "#/definitions/payment_Type"  }, "type": "array" 
                , "maxItems": 5 } 
            ,
                "insPayment": { 
             "items": {  "$ref": "#/definitions/insPayment_Type"  }, "type": "array" 
                , "maxItems": 5 } 
            ,
                "trade": { 
             "$ref": "#/definitions/trade_Type"  } 
            ,
                "transInfo": { 
             "items": {  "$ref": "#/definitions/transInfo_Type"  }, "type": "array" 
                , "maxItems": 5 } 
            ,
                "allowanceCharge": { 
             "items": {  "$ref": "#/definitions/allowanceCharge_Type"  }, "type": "array" 
                , "maxItems": 9 } 
             }, 
            
            
             "additionalProperties": false 
            
             } 
            , "texComInfo_Type": { 
             "description": "texComInfo", 
             "type": "object",
            "properties": { 
            
                "@endUse": { "$ref": "#/definitions/endUse_Type" },
                "@IC": { "$ref": "#/definitions/IC_Type" },
                "@techSheet": { "$ref": "#/definitions/techSheet_Type" }, 
                "season": { 
             "$ref": "#/definitions/season_Type"  } 
            ,
                "brand": { 
             "$ref": "#/definitions/brand_Type"  } 
            ,
                "productLine": { 
             "$ref": "#/definitions/productLine_Type"  } 
            ,
                "project": { 
             "$ref": "#/definitions/project_Type"  } 
            ,
                "operationalCode": { 
             "items": {  "$ref": "#/definitions/operationalCode_Type"  }, "type": "array" 
                , "maxItems": 19 } 
            ,
                "deliveryDate": { 
             "$ref": "#/definitions/deliveryDate_Type"  } 
            ,
                "specDate": { 
             "$ref": "#/definitions/specDate_Type"  } 
            ,
                "fabricWidth": { 
             "$ref": "#/definitions/fabricWidth_Type"  } 
            ,
                "pieceLength": { 
             "$ref": "#/definitions/pieceLength_Type"  } 
            ,
                "piecePack": { 
             "$ref": "#/definitions/piecePack_Type"  } 
            ,
                "note": { 
             "items": {  "$ref": "#/definitions/note_Type"  }, "type": "array" 
                , "maxItems": 99 } 
             }, 
            
            
             "additionalProperties": false 
            
             } 
            , "TCbody_Type": { 
             "description": "TCbody", 
             "type": "object",
            "properties": { 
            
                "TCgroup": { 
             "items": {  "$ref": "#/definitions/TCgroup_Type"  }, "type": "array" 
                 } 
             }, 
            
            
             "additionalProperties": false 
            , "required": ["TCgroup" ]
             } 
            , "refDoc_Type": { 
             "description": "refDoc", 
             "type": "object",
            "properties": { 
            
                "@docType": { "$ref": "#/definitions/docType_Type" }, 
                "docID": { 
             "items": {  "$ref": "#/definitions/docID_Type"  }, "type": "array" 
                , "maxItems": 2 } 
            ,
                "docDate": { 
             "$ref": "#/definitions/docDate_Type"  } 
            ,
                "season": { 
             "$ref": "#/definitions/season_Type"  } 
            ,
                "itemID": { 
             "$ref": "#/definitions/itemID_Type"  } 
            ,
                "attachment": { 
             "$ref": "#/definitions/attachment_Type"  } 
             }, 
            
            
             "additionalProperties": false 
            , "required": ["docID" ,"@docType"]
             } 
            , "picture_Type": { 
             "description": "picture", 
             "type": "object",
            "properties": { 
            
                "pictureCode": { 
             "$ref": "#/definitions/pictureCode_Type"  } 
            ,
                "title": { 
             "items": {  "$ref": "#/definitions/title_Type"  }, "type": "array" 
                 } 
            ,
                "description": { 
             "items": {  "$ref": "#/definitions/description_Type"  }, "type": "array" 
                 } 
            ,
                "validityStart": { 
             "$ref": "#/definitions/validityStart_Type"  } 
            ,
                "validityEnd": { 
             "$ref": "#/definitions/validityEnd_Type"  } 
            ,
                "alternativeText": { 
             "items": {  "$ref": "#/definitions/alternativeText_Type"  }, "type": "array" 
                 } 
            ,
                "rendering": { 
             "$ref": "#/definitions/rendering_Type"  } 
            ,
                "resolution": { 
             "$ref": "#/definitions/resolution_Type"  } 
            ,
                "width": { 
             "$ref": "#/definitions/width_Type"  } 
            ,
                "height": { 
             "$ref": "#/definitions/height_Type"  } 
            ,
                "nominalWidth": { 
             "items": {  "$ref": "#/definitions/nominalWidth_Type"  }, "type": "array" 
                , "maxItems": 2 } 
            ,
                "nominalHeigth": { 
             "items": {  "$ref": "#/definitions/nominalHeigth_Type"  }, "type": "array" 
                , "maxItems": 2 } 
            ,
                "pictureUse": { 
             "$ref": "#/definitions/pictureUse_Type"  } 
            ,
                "pictureQualifier": { 
             "$ref": "#/definitions/pictureQualifier_Type"  } 
            ,
                "attachment": { 
             "$ref": "#/definitions/attachment_Type"  } 
            ,
                "note": { 
             "items": {  "$ref": "#/definitions/note_Type"  }, "type": "array" 
                , "maxItems": 99 } 
             }, 
            
            
             "additionalProperties": false 
            , "required": ["attachment" ]
             } 
            , "buyer_Type": { 
             "description": "buyer", 
             "type": "object",
            "properties": { 
            
                "@logo": { "$ref": "#/definitions/logo_Type" },
                "@sender": { "$ref": "#/definitions/sender_Type" }, 
                "id": { 
             "$ref": "#/definitions/id_Type"  } 
            ,
                "additionalIdentifier": { 
             "items": {  "$ref": "#/definitions/additionalIdentifier_Type"  }, "type": "array" 
                , "maxItems": 9 } 
            ,
                "legalName": { 
             "$ref": "#/definitions/legalName_Type"  } 
            ,
                "dept": { 
             "$ref": "#/definitions/dept_Type"  } 
            ,
                "subDept": { 
             "$ref": "#/definitions/subDept_Type"  } 
            ,
                "person": { 
             "$ref": "#/definitions/person_Type"  } 
            ,
                "street": { 
             "$ref": "#/definitions/street_Type"  } 
            ,
                "city": { 
             "$ref": "#/definitions/city_Type"  } 
            ,
                "subCountry": { 
             "$ref": "#/definitions/subCountry_Type"  } 
            ,
                "country": { 
             "$ref": "#/definitions/country_Type"  } 
            ,
                "postCode": { 
             "$ref": "#/definitions/postCode_Type"  } 
             }, 
            
            
             "additionalProperties": false 
            , "required": ["id" ]
             } 
            , "supplier_Type": { 
             "description": "supplier", 
             "type": "object",
            "properties": { 
            
                "@logo": { "$ref": "#/definitions/logo_Type" },
                "@sender": { "$ref": "#/definitions/sender_Type" }, 
                "id": { 
             "$ref": "#/definitions/id_Type"  } 
            ,
                "additionalIdentifier": { 
             "items": {  "$ref": "#/definitions/additionalIdentifier_Type"  }, "type": "array" 
                , "maxItems": 9 } 
            ,
                "legalName": { 
             "$ref": "#/definitions/legalName_Type"  } 
            ,
                "dept": { 
             "$ref": "#/definitions/dept_Type"  } 
            ,
                "subDept": { 
             "$ref": "#/definitions/subDept_Type"  } 
            ,
                "person": { 
             "$ref": "#/definitions/person_Type"  } 
            ,
                "street": { 
             "$ref": "#/definitions/street_Type"  } 
            ,
                "city": { 
             "$ref": "#/definitions/city_Type"  } 
            ,
                "subCountry": { 
             "$ref": "#/definitions/subCountry_Type"  } 
            ,
                "country": { 
             "$ref": "#/definitions/country_Type"  } 
            ,
                "postCode": { 
             "$ref": "#/definitions/postCode_Type"  } 
             }, 
            
            
             "additionalProperties": false 
            , "required": ["id" ]
             } 
            , "thirdParty_Type": { 
             "description": "thirdParty", 
             "type": "object",
            "properties": { 
            
                "@VAT": { "$ref": "#/definitions/VAT_Type" },
                "@role": { "$ref": "#/definitions/role_Type" },
                "@sender": { "$ref": "#/definitions/sender_Type" }, 
                "id": { 
             "$ref": "#/definitions/id_Type"  } 
            ,
                "legalName": { 
             "$ref": "#/definitions/legalName_Type"  } 
            ,
                "dept": { 
             "$ref": "#/definitions/dept_Type"  } 
            ,
                "subDept": { 
             "$ref": "#/definitions/subDept_Type"  } 
            ,
                "person": { 
             "$ref": "#/definitions/person_Type"  } 
            ,
                "street": { 
             "$ref": "#/definitions/street_Type"  } 
            ,
                "city": { 
             "$ref": "#/definitions/city_Type"  } 
            ,
                "subCountry": { 
             "$ref": "#/definitions/subCountry_Type"  } 
            ,
                "country": { 
             "$ref": "#/definitions/country_Type"  } 
            ,
                "postCode": { 
             "$ref": "#/definitions/postCode_Type"  } 
             }, 
            
            
             "additionalProperties": false 
            , "required": ["id" ,"@role"]
             } 
            , "payment_Type": { 
             "description": "payment", 
             "type": "object",
            "properties": { 
            
                "@finDiscount": { "$ref": "#/definitions/finDiscount_Type" },
                "@finSurcharge": { "$ref": "#/definitions/finSurcharge_Type" }, 
                "payTerm": { 
             "$ref": "#/definitions/payTerm_Type"  } 
            ,
                "payTermText": { 
             "$ref": "#/definitions/payTermText_Type"  } 
            ,
                "payMode": { 
             "$ref": "#/definitions/payMode_Type"  } 
             }, 
            
            "oneOf": [ {  "required": [
                                    "payTerm"]  } 
                        , {  "required": [
                                    "payTermText"]  } 
                        ], 
             "additionalProperties": false 
            
             } 
            , "insPayment_Type": { 
             "description": "insPayment", 
             "type": "object",
            "properties": { 
            
                "@part": { "$ref": "#/definitions/part_Type" }, 
                "payTerm": { 
             "$ref": "#/definitions/payTerm_Type"  } 
            ,
                "payTermText": { 
             "$ref": "#/definitions/payTermText_Type"  } 
            ,
                "payMode": { 
             "$ref": "#/definitions/payMode_Type"  } 
             }, 
            
            "oneOf": [ {  "required": [
                                    "payTerm"]  } 
                        , {  "required": [
                                    "payTermText"]  } 
                        ], 
             "additionalProperties": false 
            , "required": ["@part"]
             } 
            , "trade_Type": { 
             "description": "trade", 
             "type": "object",
            "properties": { 
            
                "incoTermText": { 
             "$ref": "#/definitions/incoTermText_Type"  } 
            ,
                "incoTerm": { 
             "$ref": "#/definitions/incoTerm_Type"  } 
            ,
                "location": { 
             "$ref": "#/definitions/location_Type"  } 
             }, 
            
            "oneOf": [ {  "required": [
                                    "incoTermText"]  } 
                        , {  "required": [
                                    "incoTerm"]  } 
                        ], 
             "additionalProperties": false 
            
             } 
            , "transInfo_Type": { 
             "description": "transInfo", 
             "type": "object",
            "properties": { 
            
                "@transReason": { "$ref": "#/definitions/transReason_Type" },
                "@progr": { "$ref": "#/definitions/progr_Type" }, 
                "transMode": { 
             "$ref": "#/definitions/transMode_Type"  } 
            ,
                "carrier": { 
             "$ref": "#/definitions/carrier_Type"  } 
            ,
                "deliveryPlace": { 
             "$ref": "#/definitions/deliveryPlace_Type"  } 
            ,
                "grossWeight": { 
             "$ref": "#/definitions/grossWeight_Type"  } 
            ,
                "netWeight": { 
             "$ref": "#/definitions/netWeight_Type"  } 
            ,
                "transMeans": { 
             "$ref": "#/definitions/transMeans_Type"  } 
            ,
                "transCondition": { 
             "items": {  "$ref": "#/definitions/transCondition_Type"  }, "type": "array" 
                , "maxItems": 3 } 
            ,
                "transConditionText": { 
             "$ref": "#/definitions/transConditionText_Type"  } 
            ,
                "despatchPlace": { 
             "$ref": "#/definitions/despatchPlace_Type"  } 
            ,
                "despatchDate": { 
             "$ref": "#/definitions/despatchDate_Type"  } 
            ,
                "delEffectiveDate": { 
             "$ref": "#/definitions/delEffectiveDate_Type"  } 
             }, 
            
            
             "additionalProperties": false 
            , "required": ["transMode" ]
             } 
            , "allowanceCharge_Type": { 
             "description": "allowanceCharge", 
             "type": "object",
            "properties": { 
            
                "@um": { "$ref": "#/definitions/um_Type" },
                "@VAT": { "$ref": "#/definitions/VAT_Type" },
                "@minQty": { "$ref": "#/definitions/minQty_Type" },
                "@currency": { "$ref": "#/definitions/currency_Type" },
                "@maxQty": { "$ref": "#/definitions/maxQty_Type" },
                "@isCharge": { "$ref": "#/definitions/isCharge_Type" }, 
                "AC_category": { 
             "$ref": "#/definitions/AC_category_Type"  } 
            ,
                "AC_categoryText": { 
             "$ref": "#/definitions/AC_categoryText_Type"  } 
            ,
                "AC_percent": { 
             "$ref": "#/definitions/AC_percent_Type"  } 
            ,
                "AC_amount": { 
             "$ref": "#/definitions/AC_amount_Type"  } 
            ,
                "dtScheme": { 
             "$ref": "#/definitions/dtScheme_Type"  } 
             }, 
            
             "allOf": [  {
                    "oneOf": [  {  "required": [ "AC_category"]  } , {  "required": [ "AC_categoryText"]  }  ]} , {
                    "oneOf": [  {  "required": [ "AC_percent"]  } , {  "required": [ "AC_amount"]  }  ]} ], 
             "additionalProperties": false 
            
             } 
            , "piecePack_Type": { 
             "description": "piecePack", 
             "type": "object",
            "properties": { 
            
                "piecePackText": { 
             "$ref": "#/definitions/piecePackText_Type"  } 
            , "pieceInnWrap1": { "$ref": "#/definitions/pieceInnWrap1_Type" }
                , "pieceInnWrap2": { "$ref": "#/definitions/pieceInnWrap2_Type" }
                , "pieceOutWrap": { "$ref": "#/definitions/pieceOutWrap_Type" }
                 }, 
            
            "oneOf": [ {  "required": [
                                    "piecePackText"]  } 
                        , { 
                                
                                        "required": [ "pieceInnWrap1"] 
                                        
                                         }] , "not":
                                            {"anyOf": [  {"required":
                                                [  "piecePackText",
                                                 "pieceInnWrap2" ]}
                                                  , {"required":
                                                [  "piecePackText",
                                                 "pieceOutWrap" ]}
                                                  
                                            ]}
                                            , 
                        
             "additionalProperties": false 
            
             } 
            , "TCgroup_Type": { 
             "description": "TCgroup", 
             "type": "object",
            "properties": { 
            
                "artGroup": { 
             "$ref": "#/definitions/artGroup_Type"  } 
            ,
                "artGroupName": { 
             "$ref": "#/definitions/artGroupName_Type"  } 
            ,
                "description": { 
             "items": {  "$ref": "#/definitions/description_Type"  }, "type": "array" 
                 } 
            ,
                "extendedDescription": { 
             "items": {  "$ref": "#/definitions/extendedDescription_Type"  }, "type": "array" 
                 } 
            ,
                "refDoc": { 
             "items": {  "$ref": "#/definitions/refDoc_Type"  }, "type": "array" 
                , "maxItems": 9 } 
            ,
                "picture": { 
             "items": {  "$ref": "#/definitions/picture_Type"  }, "type": "array" 
                , "maxItems": 99 } 
            ,
                "allowanceCharge": { 
             "items": {  "$ref": "#/definitions/allowanceCharge_Type"  }, "type": "array" 
                , "maxItems": 9 } 
            ,
                "texComInfo": { 
             "$ref": "#/definitions/texComInfo_Type"  } 
            ,
                "TCitem": { 
             "items": {  "$ref": "#/definitions/TCitem_Type"  }, "type": "array" 
                 } 
            ,
                "note": { 
             "items": {  "$ref": "#/definitions/note_Type"  }, "type": "array" 
                , "maxItems": 99 } 
             }, 
            
            
             "additionalProperties": false 
            
             } 
            , "attachment_Type": { 
             "description": "attachment", 
             "type": "object",
            "properties": { 
            
                "@uid": { "$ref": "#/definitions/uid_Type" }, 
                "fileName": { 
             "$ref": "#/definitions/fileName_Type"  } 
            ,
                "binaryObject": { 
             "$ref": "#/definitions/binaryObject_Type"  } 
            ,
                "externalReference": { 
             "items": {  "$ref": "#/definitions/externalReference_Type"  }, "type": "array" 
                , "maxItems": 99 } 
             }, 
            
            
             "additionalProperties": false 
            
             } 
            , "dtScheme_Type": { 
             "description": "dtScheme", 
             "type": "object",
            "properties": { 
            
                "@taxType": { "$ref": "#/definitions/taxType_Type" }, 
                "taxCategory": { 
             "$ref": "#/definitions/taxCategory_Type"  } 
            ,
                "taxRate": { 
             "$ref": "#/definitions/taxRate_Type"  } 
            ,
                "legalRef": { 
             "$ref": "#/definitions/legalRef_Type"  } 
            ,
                "note": { 
             "items": {  "$ref": "#/definitions/note_Type"  }, "type": "array" 
                , "maxItems": 99 } 
             }, 
            
            
             "additionalProperties": false 
            , "required": ["@taxType"]
             } 
            , "TCitem_Type": { 
             "description": "TCitem", 
             "type": "object",
            "properties": { 
            
                "lineN": { 
             "$ref": "#/definitions/lineN_Type"  } 
            ,
                "refDoc": { 
             "items": {  "$ref": "#/definitions/refDoc_Type"  }, "type": "array" 
                , "maxItems": 9 } 
            ,
                "picture": { 
             "items": {  "$ref": "#/definitions/picture_Type"  }, "type": "array" 
                , "maxItems": 99 } 
            ,
                "fabricNameSupplier": { 
             "$ref": "#/definitions/fabricNameSupplier_Type"  } 
            ,
                "fabricNameBuyer": { 
             "$ref": "#/definitions/fabricNameBuyer_Type"  } 
            ,
                "art": { 
             "$ref": "#/definitions/art_Type"  } 
            ,
                "pattern": { 
             "items": {  "$ref": "#/definitions/pattern_Type"  }, "type": "array" 
                 } 
            ,
                "color": { 
             "items": {  "$ref": "#/definitions/color_Type"  }, "type": "array" 
                 } 
            ,
                "added": { 
             "items": {  "$ref": "#/definitions/added_Type"  }, "type": "array" 
                 } 
            ,
                "description": { 
             "items": {  "$ref": "#/definitions/description_Type"  }, "type": "array" 
                 } 
            ,
                "extendedDescription": { 
             "items": {  "$ref": "#/definitions/extendedDescription_Type"  }, "type": "array" 
                 } 
            ,
                "marketPrice": { 
             "items": {  "$ref": "#/definitions/marketPrice_Type"  }, "type": "array" 
                 } 
            ,
                "catalogPrice": { 
             "items": {  "$ref": "#/definitions/catalogPrice_Type"  }, "type": "array" 
                , "maxItems": 99 } 
            ,
                "allowanceCharge": { 
             "items": {  "$ref": "#/definitions/allowanceCharge_Type"  }, "type": "array" 
                , "maxItems": 9 } 
            ,
                "generalChar": { 
             "$ref": "#/definitions/generalChar_Type"  } 
            ,
                "construction": { 
             "$ref": "#/definitions/construction_Type"  } 
            ,
                "texComInfo": { 
             "$ref": "#/definitions/texComInfo_Type"  } 
            ,
                "dtScheme": { 
             "$ref": "#/definitions/dtScheme_Type"  } 
            ,
                "note": { 
             "items": {  "$ref": "#/definitions/note_Type"  }, "type": "array" 
                , "maxItems": 99 } 
             }, 
            
             "anyOf": [ {},  { "": "marketPrice" } 
                        , { "": "catalogPrice" } 
                        ], 
             "additionalProperties": false 
            
             } 
            , "externalReference_Type": { 
             "description": "externalReference", 
             "type": "object",
            "properties": { 
            
                "uri": { 
             "$ref": "#/definitions/uri_Type"  } 
            ,
                "mimeCode": { 
             "$ref": "#/definitions/mimeCode_Type"  } 
            ,
                "formatCode": { 
             "$ref": "#/definitions/formatCode_Type"  } 
            ,
                "encodingCode": { 
             "$ref": "#/definitions/encodingCode_Type"  } 
            ,
                "characterSetCode": { 
             "$ref": "#/definitions/characterSetCode_Type"  } 
             }, 
            
            
             "additionalProperties": false 
            , "required": ["uri" ]
             } 
            , "marketPrice_Type": { 
             "description": "marketPrice", 
             "type": "object",
            "properties": { 
            
                "catalogPrice": { 
             "$ref": "#/definitions/catalogPrice_Type"  } 
            ,
                "allowanceCharge": { 
             "items": {  "$ref": "#/definitions/allowanceCharge_Type"  }, "type": "array" 
                , "maxItems": 9 } 
            ,
                "geographicArea": { 
             "items": {  "$ref": "#/definitions/geographicArea_Type"  }, "type": "array" 
                , "maxItems": 9 } 
             }, 
            
            
             "additionalProperties": false 
            , "required": ["catalogPrice" ]
             } 
            , "generalChar_Type": { 
             "description": "generalChar", 
             "type": "object",
            "properties": { 
            
                "fabricNameSupplier": { 
             "$ref": "#/definitions/fabricNameSupplier_Type"  } 
            ,
                "fabricNameBuyer": { 
             "$ref": "#/definitions/fabricNameBuyer_Type"  } 
            ,
                "season": { 
             "$ref": "#/definitions/season_Type"  } 
            ,
                "tradeMark": { 
             "$ref": "#/definitions/tradeMark_Type"  } 
            ,
                "customsStat": { 
             "$ref": "#/definitions/customsStat_Type"  } 
            ,
                "fabricCompos": { 
             "$ref": "#/definitions/fabricCompos_Type"  } 
            ,
                "dyeProcess": { 
             "$ref": "#/definitions/dyeProcess_Type"  } 
            ,
                "dyeStuff": { 
             "$ref": "#/definitions/dyeStuff_Type"  } 
            ,
                "careLabel": { 
             "$ref": "#/definitions/careLabel_Type"  } 
            ,
                "minLot": { 
             "$ref": "#/definitions/minLot_Type"  } 
            ,
                "minLotExclusive": { 
             "$ref": "#/definitions/minLotExclusive_Type"  } 
            ,
                "avgDeliveryDD": { 
             "$ref": "#/definitions/avgDeliveryDD_Type"  } 
            ,
                "estFaultiness": { 
             "$ref": "#/definitions/estFaultiness_Type"  } 
            ,
                "note": { 
             "items": {  "$ref": "#/definitions/note_Type"  }, "type": "array" 
                , "maxItems": 99 } 
             }, 
            
            
             "additionalProperties": false 
            , "required": ["fabricCompos" ]
             } 
            , "construction_Type": { 
             "description": "construction", 
             "type": "object",
            "properties": { 
            
                "fabricWeightM": { 
             "$ref": "#/definitions/fabricWeightM_Type"  } 
            ,
                "fabricWeightM2": { 
             "$ref": "#/definitions/fabricWeightM2_Type"  } 
            ,
                "fabricWidth": { 
             "$ref": "#/definitions/fabricWidth_Type"  } 
            ,
                "fabricCutWidth": { 
             "$ref": "#/definitions/fabricCutWidth_Type"  } 
            ,
                "pieceLength": { 
             "$ref": "#/definitions/pieceLength_Type"  } 
            ,
                "weave": { 
             "$ref": "#/definitions/weave_Type"  } 
            ,
                "warpCount": { 
             "items": {  "$ref": "#/definitions/warpCount_Type"  }, "type": "array" 
                , "maxItems": 9 } 
            ,
                "weftCount": { 
             "items": {  "$ref": "#/definitions/weftCount_Type"  }, "type": "array" 
                , "maxItems": 9 } 
            ,
                "warpEndsN": { 
             "$ref": "#/definitions/warpEndsN_Type"  } 
            ,
                "weftEndsN": { 
             "$ref": "#/definitions/weftEndsN_Type"  } 
            ,
                "bowingWarp": { 
             "$ref": "#/definitions/bowingWarp_Type"  } 
            ,
                "bowingWeft": { 
             "$ref": "#/definitions/bowingWeft_Type"  } 
            ,
                "checksFlaw": { 
             "$ref": "#/definitions/checksFlaw_Type"  } 
            ,
                "weftDev": { 
             "$ref": "#/definitions/weftDev_Type"  } 
            ,
                "resin": { 
             "$ref": "#/definitions/resin_Type"  } 
             }, 
            
            
             "additionalProperties": false 
            , "required": ["fabricWeightM" ]
             } 
            , "geographicArea_Type": { 
             "description": "geographicArea", 
             "type": "object",
            "properties": { 
            
                "geographicAreaCode": { 
             "$ref": "#/definitions/geographicAreaCode_Type"  } 
            ,
                "geographicAreaText": { 
             "$ref": "#/definitions/geographicAreaText_Type"  } 
             }, 
            
            "oneOf": [ {  "required": [
                                    "geographicAreaCode"]  } 
                        , {  "required": [
                                    "geographicAreaText"]  } 
                        ], 
             "additionalProperties": false 
            
             } 
            , "fabricCompos_Type": { 
             "description": "fabricCompos", 
             "type": "object",
            "properties": { 
            
                "percCompos": { 
             "items": {  "$ref": "#/definitions/percCompos_Type"  }, "type": "array" 
                , "maxItems": 9 } 
             }, 
            
            
             "additionalProperties": false 
            , "required": ["percCompos" ]
             } 
            , "docID_Type": { "type": "object", "properties": {  "$": {  "$ref": "#/definitions/sub_docID_Type"  } ,
                "@numberingOrg": { "$ref": "#/definitions/numberingOrg_Type" } },  "additionalProperties": false 
             } 
            , "msgDate_Type": { "type": "object", "properties": {  "$": {  "$ref": "#/definitions/sub_msgDate_Type"  } ,
                "@dateForm": { "$ref": "#/definitions/dateForm_Type" } },  "additionalProperties": false 
             } 
            , "season_Type": { "type": "object", "properties": {  "$": {  "$ref": "#/definitions/sub_season_Type"  } ,
                "@numberingOrg": { "$ref": "#/definitions/numberingOrg_Type" },
                "@codeList": { "$ref": "#/definitions/codeList_Type" },
                "@listName": { "$ref": "#/definitions/listName_Type" },
                "@listVersion": { "$ref": "#/definitions/listVersion_Type" } },  "additionalProperties": false 
             } 
            , "validityStart_Type": { "type": "object", "properties": {  "$": {  "$ref": "#/definitions/sub_validityStart_Type"  } ,
                "@dateForm": { "$ref": "#/definitions/dateForm_Type" } },  "additionalProperties": false 
             } 
            , "validityEnd_Type": { "type": "object", "properties": {  "$": {  "$ref": "#/definitions/sub_validityEnd_Type"  } ,
                "@dateForm": { "$ref": "#/definitions/dateForm_Type" } },  "additionalProperties": false 
             } 
            , "note_Type": { "type": "object", "properties": {  "$": {  "$ref": "#/definitions/sub_note_Type"  } ,
                "@numberingOrg": { "$ref": "#/definitions/numberingOrg_Type" },
                "@codeList": { "$ref": "#/definitions/codeList_Type" },
                "@noteLabel": { "$ref": "#/definitions/noteLabel_Type" } },  "additionalProperties": false 
             } 
            , "brand_Type": { "type": "object", "properties": {  "$": {  "$ref": "#/definitions/sub_brand_Type"  } ,
                "@numberingOrg": { "$ref": "#/definitions/numberingOrg_Type" },
                "@codeList": { "$ref": "#/definitions/codeList_Type" },
                "@listName": { "$ref": "#/definitions/listName_Type" },
                "@listVersion": { "$ref": "#/definitions/listVersion_Type" } },  "additionalProperties": false 
             } 
            , "productLine_Type": { "type": "object", "properties": {  "$": {  "$ref": "#/definitions/sub_productLine_Type"  } ,
                "@numberingOrg": { "$ref": "#/definitions/numberingOrg_Type" },
                "@codeList": { "$ref": "#/definitions/codeList_Type" },
                "@listName": { "$ref": "#/definitions/listName_Type" },
                "@listVersion": { "$ref": "#/definitions/listVersion_Type" } },  "additionalProperties": false 
             } 
            , "operationalCode_Type": { "type": "object", "properties": {  "$": {  "$ref": "#/definitions/sub_operationalCode_Type"  } ,
                "@numberingOrg": { "$ref": "#/definitions/numberingOrg_Type" },
                "@codeList": { "$ref": "#/definitions/codeList_Type" },
                "@listName": { "$ref": "#/definitions/listName_Type" },
                "@listVersion": { "$ref": "#/definitions/listVersion_Type" },
                "@codeQualifier": { "$ref": "#/definitions/codeQualifier_Type" } },  "additionalProperties": false 
             } 
            , "deliveryDate_Type": { "type": "object", "properties": {  "$": {  "$ref": "#/definitions/sub_deliveryDate_Type"  } ,
                "@dateForm": { "$ref": "#/definitions/dateForm_Type" } },  "additionalProperties": false 
             } 
            , "specDate_Type": { "type": "object", "properties": {  "$": {  "$ref": "#/definitions/sub_specDate_Type"  } ,
                "@dateForm": { "$ref": "#/definitions/dateForm_Type" } },  "additionalProperties": false 
             } 
            , "fabricWidth_Type": { "type": "object", "properties": {  "$": {  "$ref": "#/definitions/sub_fabricWidth_Type"  } ,
                "@um": { "$ref": "#/definitions/um_Type" } },  "additionalProperties": false 
             } 
            , "pieceLength_Type": { "type": "object", "properties": {  "$": {  "$ref": "#/definitions/sub_pieceLength_Type"  } ,
                "@um": { "$ref": "#/definitions/um_Type" } },  "additionalProperties": false 
             } 
            , "docDate_Type": { "type": "object", "properties": {  "$": {  "$ref": "#/definitions/sub_docDate_Type"  } ,
                "@dateForm": { "$ref": "#/definitions/dateForm_Type" } },  "additionalProperties": false 
             } 
            , "pictureCode_Type": { "type": "object", "properties": {  "$": {  "$ref": "#/definitions/sub_pictureCode_Type"  }  },  "additionalProperties": false 
             } 
            , "title_Type": { "type": "object", "properties": {  "$": {  "$ref": "#/definitions/sub_title_Type"  } ,
                "@ln": { "$ref": "#/definitions/ln_Type" } },  "additionalProperties": false 
             } 
            , "description_Type": { "type": "object", "properties": {  "$": {  "$ref": "#/definitions/sub_description_Type"  } ,
                "@ln": { "$ref": "#/definitions/ln_Type" } },  "additionalProperties": false 
             } 
            , "alternativeText_Type": { "type": "object", "properties": {  "$": {  "$ref": "#/definitions/sub_alternativeText_Type"  } ,
                "@ln": { "$ref": "#/definitions/ln_Type" } },  "additionalProperties": false 
             } 
            , "resolution_Type": { "type": "object", "properties": {  "$": {  "$ref": "#/definitions/sub_resolution_Type"  } ,
                "@resolutionType": { "$ref": "#/definitions/resolutionType_Type" } },  "additionalProperties": false 
             } 
            , "width_Type": { "type": "object", "properties": {  "$": {  "$ref": "#/definitions/sub_width_Type"  } ,
                "@um": { "$ref": "#/definitions/um_Type" } },  "additionalProperties": false 
            , "required": ["@um"] } 
            , "height_Type": { "type": "object", "properties": {  "$": {  "$ref": "#/definitions/sub_height_Type"  } ,
                "@um": { "$ref": "#/definitions/um_Type" } },  "additionalProperties": false 
            , "required": ["@um"] } 
            , "nominalWidth_Type": { "type": "object", "properties": {  "$": {  "$ref": "#/definitions/sub_nominalWidth_Type"  } ,
                "@um": { "$ref": "#/definitions/um_Type" } },  "additionalProperties": false 
             } 
            , "nominalHeigth_Type": { "type": "object", "properties": {  "$": {  "$ref": "#/definitions/sub_nominalHeigth_Type"  } ,
                "@um": { "$ref": "#/definitions/um_Type" } },  "additionalProperties": false 
             } 
            , "id_Type": { "type": "object", "properties": {  "$": {  "$ref": "#/definitions/sub_id_Type"  } ,
                "@numberingOrg": { "$ref": "#/definitions/numberingOrg_Type" } },  "additionalProperties": false 
             } 
            , "additionalIdentifier_Type": { "type": "object", "properties": {  "$": {  "$ref": "#/definitions/sub_additionalIdentifier_Type"  } ,
                "@numberingOrg": { "$ref": "#/definitions/numberingOrg_Type" },
                "@idQualifier": { "$ref": "#/definitions/idQualifier_Type" } },  "additionalProperties": false 
             } 
            , "person_Type": { "type": "object", "properties": {  "$": {  "$ref": "#/definitions/sub_person_Type"  } ,
                "@email": { "$ref": "#/definitions/email_Type" },
                "@phone": { "$ref": "#/definitions/phone_Type" },
                "@fax": { "$ref": "#/definitions/fax_Type" } },  "additionalProperties": false 
             } 
            , "location_Type": { "type": "object", "properties": {  "$": {  "$ref": "#/definitions/sub_location_Type"  } ,
                "@LRI": { "$ref": "#/definitions/LRI_Type" } },  "additionalProperties": false 
             } 
            , "grossWeight_Type": { "type": "object", "properties": {  "$": {  "$ref": "#/definitions/sub_grossWeight_Type"  } ,
                "@um": { "$ref": "#/definitions/um_Type" } },  "additionalProperties": false 
            , "required": ["@um"] } 
            , "netWeight_Type": { "type": "object", "properties": {  "$": {  "$ref": "#/definitions/sub_netWeight_Type"  } ,
                "@um": { "$ref": "#/definitions/um_Type" } },  "additionalProperties": false 
            , "required": ["@um"] } 
            , "despatchDate_Type": { "type": "object", "properties": {  "$": {  "$ref": "#/definitions/sub_despatchDate_Type"  } ,
                "@dateForm": { "$ref": "#/definitions/dateForm_Type" } },  "additionalProperties": false 
             } 
            , "delEffectiveDate_Type": { "type": "object", "properties": {  "$": {  "$ref": "#/definitions/sub_delEffectiveDate_Type"  } ,
                "@dateForm": { "$ref": "#/definitions/dateForm_Type" } },  "additionalProperties": false 
             } 
            , "AC_amount_Type": { "type": "object", "properties": {  "$": {  "$ref": "#/definitions/sub_AC_amount_Type"  } ,
                "@currency": { "$ref": "#/definitions/currency_Type" } },  "additionalProperties": false 
             } 
            , "artGroup_Type": { "type": "object", "properties": {  "$": {  "$ref": "#/definitions/sub_artGroup_Type"  } ,
                "@numberingOrg": { "$ref": "#/definitions/numberingOrg_Type" },
                "@codeList": { "$ref": "#/definitions/codeList_Type" },
                "@listName": { "$ref": "#/definitions/listName_Type" },
                "@listVersion": { "$ref": "#/definitions/listVersion_Type" } },  "additionalProperties": false 
             } 
            , "extendedDescription_Type": { "type": "object", "properties": {  "$": {  "$ref": "#/definitions/sub_extendedDescription_Type"  } ,
                "@ln": { "$ref": "#/definitions/ln_Type" } },  "additionalProperties": false 
             } 
            , "fileName_Type": { "type": "object", "properties": {  "$": {  "$ref": "#/definitions/sub_fileName_Type"  } ,
                "@numberingOrg": { "$ref": "#/definitions/numberingOrg_Type" } },  "additionalProperties": false 
             } 
            , "binaryObject_Type": { "type": "object", "properties": {  "$": {  "$ref": "#/definitions/sub_binaryObject_Type"  } ,
                "@format": { "$ref": "#/definitions/format_Type" },
                "@mime": { "$ref": "#/definitions/mime_Type" },
                "@encoding": { "$ref": "#/definitions/encoding_Type" },
                "@characterSet": { "$ref": "#/definitions/characterSet_Type" } },  "additionalProperties": false 
             } 
            , "legalRef_Type": { "type": "object", "properties": {  "$": {  "$ref": "#/definitions/sub_legalRef_Type"  } ,
                "@numberingOrg": { "$ref": "#/definitions/numberingOrg_Type" },
                "@codeList": { "$ref": "#/definitions/codeList_Type" },
                "@listName": { "$ref": "#/definitions/listName_Type" },
                "@listVersion": { "$ref": "#/definitions/listVersion_Type" } },  "additionalProperties": false 
             } 
            , "lineN_Type": { "type": "object", "properties": {  "$": {  "$ref": "#/definitions/sub_lineN_Type"  } ,
                "@VAT": { "$ref": "#/definitions/VAT_Type" } },  "additionalProperties": false 
             } 
            , "art_Type": { "type": "object", "properties": {  "$": {  "$ref": "#/definitions/sub_art_Type"  } ,
                "@numberingOrg": { "$ref": "#/definitions/numberingOrg_Type" },
                "@codeList": { "$ref": "#/definitions/codeList_Type" },
                "@listName": { "$ref": "#/definitions/listName_Type" },
                "@listVersion": { "$ref": "#/definitions/listVersion_Type" } },  "additionalProperties": false 
             } 
            , "pattern_Type": { "type": "object", "properties": {  "$": {  "$ref": "#/definitions/sub_pattern_Type"  } ,
                "@numberingOrg": { "$ref": "#/definitions/numberingOrg_Type" },
                "@codeList": { "$ref": "#/definitions/codeList_Type" },
                "@listName": { "$ref": "#/definitions/listName_Type" },
                "@listVersion": { "$ref": "#/definitions/listVersion_Type" } },  "additionalProperties": false 
             } 
            , "color_Type": { "type": "object", "properties": {  "$": {  "$ref": "#/definitions/sub_color_Type"  } ,
                "@numberingOrg": { "$ref": "#/definitions/numberingOrg_Type" },
                "@codeList": { "$ref": "#/definitions/codeList_Type" },
                "@listName": { "$ref": "#/definitions/listName_Type" },
                "@listVersion": { "$ref": "#/definitions/listVersion_Type" } },  "additionalProperties": false 
             } 
            , "added_Type": { "type": "object", "properties": {  "$": {  "$ref": "#/definitions/sub_added_Type"  } ,
                "@numberingOrg": { "$ref": "#/definitions/numberingOrg_Type" },
                "@addType": { "$ref": "#/definitions/addType_Type" } },  "additionalProperties": false 
             } 
            , "catalogPrice_Type": { "type": "object", "properties": {  "$": {  "$ref": "#/definitions/sub_catalogPrice_Type"  } ,
                "@um": { "$ref": "#/definitions/um_Type" },
                "@minQty": { "$ref": "#/definitions/minQty_Type" },
                "@currency": { "$ref": "#/definitions/currency_Type" },
                "@garmentMarket": { "$ref": "#/definitions/garmentMarket_Type" },
                "@maxQty": { "$ref": "#/definitions/maxQty_Type" } },  "additionalProperties": false 
            , "required": ["@um"] } 
            , "uri_Type": { "type": "object", "properties": {  "$": {  "$ref": "#/definitions/sub_uri_Type"  } ,
                "@isURL": { "$ref": "#/definitions/isURL_Type" } },  "additionalProperties": false 
             } 
            , "minLot_Type": { "type": "object", "properties": {  "$": {  "$ref": "#/definitions/sub_minLot_Type"  } ,
                "@um": { "$ref": "#/definitions/um_Type" } },  "additionalProperties": false 
            , "required": ["@um"] } 
            , "minLotExclusive_Type": { "type": "object", "properties": {  "$": {  "$ref": "#/definitions/sub_minLotExclusive_Type"  } ,
                "@um": { "$ref": "#/definitions/um_Type" } },  "additionalProperties": false 
            , "required": ["@um"] } 
            , "fabricWeightM_Type": { "type": "object", "properties": {  "$": {  "$ref": "#/definitions/sub_fabricWeightM_Type"  } ,
                "@um": { "$ref": "#/definitions/um_Type" } },  "additionalProperties": false 
             } 
            , "fabricWeightM2_Type": { "type": "object", "properties": {  "$": {  "$ref": "#/definitions/sub_fabricWeightM2_Type"  } ,
                "@um": { "$ref": "#/definitions/um_Type" } },  "additionalProperties": false 
             } 
            , "fabricCutWidth_Type": { "type": "object", "properties": {  "$": {  "$ref": "#/definitions/sub_fabricCutWidth_Type"  } ,
                "@um": { "$ref": "#/definitions/um_Type" } },  "additionalProperties": false 
             } 
            , "warpCount_Type": { "type": "object", "properties": {  "$": {  "$ref": "#/definitions/sub_warpCount_Type"  } ,
                "@method": { "$ref": "#/definitions/method_Type" },
                "@fibre": { "$ref": "#/definitions/fibre_Type" } },  "additionalProperties": false 
             } 
            , "weftCount_Type": { "type": "object", "properties": {  "$": {  "$ref": "#/definitions/sub_weftCount_Type"  } ,
                "@method": { "$ref": "#/definitions/method_Type" },
                "@fibre": { "$ref": "#/definitions/fibre_Type" } },  "additionalProperties": false 
             } 
            , "bowingWarp_Type": { "type": "object", "properties": {  "$": {  "$ref": "#/definitions/sub_bowingWarp_Type"  } ,
                "@method": { "$ref": "#/definitions/method_Type" } },  "additionalProperties": false 
             } 
            , "bowingWeft_Type": { "type": "object", "properties": {  "$": {  "$ref": "#/definitions/sub_bowingWeft_Type"  } ,
                "@method": { "$ref": "#/definitions/method_Type" } },  "additionalProperties": false 
             } 
            , "checksFlaw_Type": { "type": "object", "properties": {  "$": {  "$ref": "#/definitions/sub_checksFlaw_Type"  } ,
                "@method": { "$ref": "#/definitions/method_Type" } },  "additionalProperties": false 
             } 
            , "weftDev_Type": { "type": "object", "properties": {  "$": {  "$ref": "#/definitions/sub_weftDev_Type"  } ,
                "@method": { "$ref": "#/definitions/method_Type" } },  "additionalProperties": false 
             } 
            , "percCompos_Type": { "type": "object", "properties": {  "$": {  "$ref": "#/definitions/sub_percCompos_Type"  } ,
                "@fibre": { "$ref": "#/definitions/fibre_Type" } },  "additionalProperties": false 
            , "required": ["@fibre"] } 
            , "msgfunction_Type": {  "enum": [ "CA","CP","OR","RC","RT"],  "type": "string"  } 
            , "version_Type": {  "enum": [ "2013-1","2018-1","draft"],  "type": "string"  } 
            , "useProfile_Type": {  "type": "string"  } 
            , "msgN_Type": {  "maxLength": 35,  "type": "string"  } 
            , "msgID_Type": {  "maxLength": 35,  "type": "string"  } 
            , "sub_docID_Type": {  "maxLength": 80,  "type": "string"  } 
            , "sub_msgDate_Type": {  "pattern": "^(((19|20)[0-9][0-9])-(0[1-9]|1[012])-(0[1-9]|1[0-9]|2[0-9]|3[01])(:([0,1][0-9]|2[0-4])-([0-5][0-9])){0,1})|(((19|20)[0-9][0-9])-([0-4][0-9]|[5][0-2]))$",  "type": "string"  } 
            , "msgCurrency_Type": {  "type": "string"  } 
            , "sub_season_Type": {  "maxLength": 15,  "type": "string"  } 
            , "sub_validityStart_Type": {  "pattern": "^(((19|20)[0-9][0-9])-(0[1-9]|1[012])-(0[1-9]|1[0-9]|2[0-9]|3[01])(:([0,1][0-9]|2[0-4])-([0-5][0-9])){0,1})|(((19|20)[0-9][0-9])-([0-4][0-9]|[5][0-2]))$",  "type": "string"  } 
            , "sub_validityEnd_Type": {  "pattern": "^(((19|20)[0-9][0-9])-(0[1-9]|1[012])-(0[1-9]|1[0-9]|2[0-9]|3[01])(:([0,1][0-9]|2[0-4])-([0-5][0-9])){0,1})|(((19|20)[0-9][0-9])-([0-4][0-9]|[5][0-2]))$",  "type": "string"  } 
            , "sub_note_Type": {  "maxLength": 350,  "type": "string"  } 
            , "sub_brand_Type": {  "type": "string"  } 
            , "sub_productLine_Type": {  "type": "string"  } 
            , "project_Type": {  "maxLength": 40,  "type": "string"  } 
            , "sub_operationalCode_Type": {  "type": "string"  } 
            , "sub_deliveryDate_Type": {  "pattern": "^(((19|20)[0-9][0-9])-(0[1-9]|1[012])-(0[1-9]|1[0-9]|2[0-9]|3[01])(:([0,1][0-9]|2[0-4])-([0-5][0-9])){0,1})|(((19|20)[0-9][0-9])-([0-4][0-9]|[5][0-2]))$",  "type": "string"  } 
            , "sub_specDate_Type": {  "pattern": "^(((19|20)[0-9][0-9])-(0[1-9]|1[012])-(0[1-9]|1[0-9]|2[0-9]|3[01])(:([0,1][0-9]|2[0-4])-([0-5][0-9])){0,1})|(((19|20)[0-9][0-9])-([0-4][0-9]|[5][0-2]))$",  "type": "string"  } 
            , "sub_fabricWidth_Type": {  "minimum": 0,  "type": "number"  } 
            , "sub_pieceLength_Type": {  "minimum": 0,  "type": "number"  } 
            , "endUse_Type": {  "enum": [ "PC","PR","SA","SC","TI","TP"],  "type": "string"  } 
            , "IC_Type": {  "type": "boolean"  } 
            , "techSheet_Type": {  "type": "boolean"  } 
            , "numberingOrg_Type": {  "enum": [ "CL","CO","EB","EN","ES","FO","GS","MF","ML","SP"],  "type": "string"  } 
            , "dateForm_Type": {  "enum": [ "D","M","W"],  "type": "string"  } 
            , "sub_docDate_Type": {  "pattern": "^(((19|20)[0-9][0-9])-(0[1-9]|1[012])-(0[1-9]|1[0-9]|2[0-9]|3[01])(:([0,1][0-9]|2[0-4])-([0-5][0-9])){0,1})|(((19|20)[0-9][0-9])-([0-4][0-9]|[5][0-2]))$",  "type": "string"  } 
            , "itemID_Type": {  "maxLength": 40,  "type": "string"  } 
            , "docType_Type": {  "enum": [ "BOR","CAT","CEO","CER","COC","CRN","CTO","CTR","CXF","DAD","DDT","DEA","DER","DR","FOR","GSO","GSX","INV","KCC","KCI","M2M","MAS","MCI","OCH","OFF","ORD","ORP","OSR","OSS","OST","OUR","QR","RAI","RDC","RDH","RDR","REA","REQ","RET","RSC","RSH","RSR","SCL","TFC","TFX","TPC","TPX","TWI","VMI","WAC","WEC","YDC","YDH","YDR","YTC","YWI"],  "type": "string"  } 
            , "sub_pictureCode_Type": {  "maxLength": 80,  "type": "string"  } 
            , "sub_title_Type": {  "type": "string"  } 
            , "sub_description_Type": {  "maxLength": 250,  "type": "string"  } 
            , "sub_alternativeText_Type": {  "maxLength": 255,  "type": "string"  } 
            , "rendering_Type": {  "type": "string"  } 
            , "sub_resolution_Type": {  "maxLength": 255,  "type": "string"  } 
            , "sub_width_Type": {  "minimum": 0,  "type": "number"  } 
            , "sub_height_Type": {  "minimum": 0,  "type": "number"  } 
            , "sub_nominalWidth_Type": {  "minimum": 0,  "type": "number"  } 
            , "sub_nominalHeigth_Type": {  "minimum": 0,  "type": "number"  } 
            , "pictureUse_Type": {  "enum": [ "ICO","IMG","IML","IMM","IMS","PRH","PRN"],  "type": "string"  } 
            , "pictureQualifier_Type": {  "type": "string"  } 
            , "codeList_Type": {  "maxLength": 255,  "type": "string"  } 
            , "listName_Type": {  "maxLength": 40,  "type": "string"  } 
            , "listVersion_Type": {  "maxLength": 6,  "type": "string"  } 
            , "sub_id_Type": {  "maxLength": 15,  "type": "string"  } 
            , "sub_additionalIdentifier_Type": {  "maxLength": 15,  "type": "string"  } 
            , "legalName_Type": {  "maxLength": 250,  "type": "string"  } 
            , "dept_Type": {  "maxLength": 40,  "type": "string"  } 
            , "subDept_Type": {  "maxLength": 40,  "type": "string"  } 
            , "sub_person_Type": {  "maxLength": 40,  "type": "string"  } 
            , "street_Type": {  "maxLength": 80,  "type": "string"  } 
            , "city_Type": {  "maxLength": 40,  "type": "string"  } 
            , "subCountry_Type": {  "maxLength": 9,  "type": "string"  } 
            , "country_Type": {  "type": "string"  } 
            , "postCode_Type": {  "maxLength": 10,  "type": "string"  } 
            , "logo_Type": {  "maxLength": 255,  "type": "string"  } 
            , "sender_Type": {  "type": "boolean"  } 
            , "VAT_Type": {  "enum": [ "001","002","003","004","005","006","007","008","009","010","011","012","013","014","015","016","017","018","019","020","021","022","023","024","025","162","164","165","166","169","174","177","183","184","201","220","227","374","701","702","902","904","905","907","915","926","974"],  "type": "string"  } 
            , "role_Type": {  "enum": [ "AG","AU","CE","CO","DC","DF","DI","DM","DP","IM","OR","SC","SM","SP","TX"],  "type": "string"  } 
            , "noteLabel_Type": {  "maxLength": 35,  "type": "string"  } 
            , "payTerm_Type": {  "enum": [ "ANTICIP","BLCOLLECT/120D","BLCOLLECT/30D","BLCOLLECT/60D","BLCOLLECT/90D","CASH","CASHINV","CREDOC/0D","CREDOC/120","CREDOC/150","CREDOC/180","CREDOC/30D","CREDOC/45D","CREDOC/60","CREDOC/90","DEL/10","DOCOLLECT/120D","DOCOLLECT/30D","DOCOLLECT/60D","DOCOLLECT/90D","INV/120D","INV/150D","INV/180D","INV/30D","INV/45D","INV/60D","INV/90D","INVULTIMO","INVULTIMO/10D","INVULTIMO/120D","INVULTIMO/150D","INVULTIMO/180D","INVULTIMO/240D","INVULTIMO/30D","INVULTIMO/45D","INVULTIMO/60D","INVULTIMO/90D","NOPAY","RECREDOC/0D","RECREDOC/120D","RECREDOC/150D","RECREDOC/180D","RECREDOC/30D","RECREDOC/45D","RECREDOC/60D","RECREDOC/90D","ULTIMO","ULTIMO/10"],  "type": "string"  } 
            , "payTermText_Type": {  "maxLength": 250,  "type": "string"  } 
            , "payMode_Type": {  "enum": [ "BB","IA","IS","RB","RD","SW","TR"],  "type": "string"  } 
            , "finDiscount_Type": {  "minimum": 0,  "maximum": 100,  "type": "number"  } 
            , "finSurcharge_Type": {  "minimum": 0,  "maximum": 100,  "type": "number"  } 
            , "part_Type": {  "minimum": 1,  "maximum": 99,  "type": "number"  } 
            , "incoTermText_Type": {  "maxLength": 250,  "type": "string"  } 
            , "incoTerm_Type": {  "enum": [ "CFR","CIF","CIP","CPT","DAF","DAP","DAT","DDP","DDU","DEQ","DES","EXW","FAS","FCA","FOB"],  "type": "string"  } 
            , "sub_location_Type": {  "maxLength": 40,  "type": "string"  } 
            , "transMode_Type": {  "enum": [ "1","10","2","3","4","5","6","8","9"],  "type": "string"  } 
            , "carrier_Type": {  "maxLength": 40,  "type": "string"  } 
            , "deliveryPlace_Type": {  "maxLength": 250,  "type": "string"  } 
            , "sub_grossWeight_Type": {  "minimum": 0,  "type": "number"  } 
            , "sub_netWeight_Type": {  "minimum": 0,  "type": "number"  } 
            , "transMeans_Type": {  "enum": [ "AIR","SHP","TRU","VAN"],  "type": "string"  } 
            , "transCondition_Type": {  "enum": [ "ACC","CAL","CAU","CMR","FFN","FLD","NCC","PPB","PPS","PRO","RFR","RPC","RPS","SHL","SHU"],  "type": "string"  } 
            , "transConditionText_Type": {  "maxLength": 250,  "type": "string"  } 
            , "despatchPlace_Type": {  "maxLength": 250,  "type": "string"  } 
            , "sub_despatchDate_Type": {  "pattern": "^(((19|20)[0-9][0-9])-(0[1-9]|1[012])-(0[1-9]|1[0-9]|2[0-9]|3[01])(:([0,1][0-9]|2[0-4])-([0-5][0-9])){0,1})|(((19|20)[0-9][0-9])-([0-4][0-9]|[5][0-2]))$",  "type": "string"  } 
            , "sub_delEffectiveDate_Type": {  "pattern": "^(((19|20)[0-9][0-9])-(0[1-9]|1[012])-(0[1-9]|1[0-9]|2[0-9]|3[01])(:([0,1][0-9]|2[0-4])-([0-5][0-9])){0,1})|(((19|20)[0-9][0-9])-([0-4][0-9]|[5][0-2]))$",  "type": "string"  } 
            , "transReason_Type": {  "enum": [ "FOC","FRW","FST","FVW","FWK","IST","NWK","RJC","SEL","STO","VEW","WRK"],  "type": "string"  } 
            , "progr_Type": {  "minimum": 1,  "type": "number"  } 
            , "AC_category_Type": {  "enum": [ "1","10","11","12","14","15","16","17","19","2","20","21","22","23","24","25","26","3","30","32","33","35","36","37","38","39","4","40","41","42","45","46","48","49","50","52","53","54","55","56","57","58","59","65","66","7","70","72","73","74","75","76","77","78","79","8","9","AWA","CBK","CCR","CIN","CLB","CPK","CSP","CWB"],  "type": "string"  } 
            , "AC_categoryText_Type": {  "maxLength": 250,  "type": "string"  } 
            , "AC_percent_Type": {  "maximum": 100,  "type": "number"  } 
            , "sub_AC_amount_Type": {  "type": "number"  } 
            , "um_Type": {  "enum": [ "CMK","CMQ","CMT","CNE","CO2TON","COUPLES","DMQ","E37","GRM","HUR","INH","KGM","KMT","KWH","LBR","MIN","MMK","MTK","MTQ","MTR","NMB","ONZ","P1","PPM","PZ","RPM","YRD"],  "type": "string"  } 
            , "minQty_Type": {  "minimum": 0,  "type": "number"  } 
            , "currency_Type": {  "type": "string"  } 
            , "maxQty_Type": {  "minimum": 0,  "type": "number"  } 
            , "isCharge_Type": {  "minLength": 0,  "type": "boolean"  } 
            , "codeQualifier_Type": {  "enum": [ "1","2","3","4"],  "type": "string"  } 
            , "piecePackText_Type": {  "maxLength": 250,  "type": "string"  } 
            , "pieceInnWrap1_Type": {  "enum": [ "A","B","C","D","E","F","G","H","I","J"],  "type": "string"  } 
            , "pieceInnWrap2_Type": {  "enum": [ "A","B","C","H","I","J","K","L","M","N","O","P","Q","R","S","T","U"],  "type": "string"  } 
            , "pieceOutWrap_Type": {  "enum": [ "0","1","2","3","4","5","6"],  "type": "string"  } 
            , "sub_artGroup_Type": {  "maxLength": 40,  "type": "string"  } 
            , "artGroupName_Type": {  "maxLength": 80,  "type": "string"  } 
            , "sub_extendedDescription_Type": {  "type": "string"  } 
            , "sub_fileName_Type": {  "maxLength": 255,  "type": "string"  } 
            , "sub_binaryObject_Type": {  "type": "string"  } 
            , "uid_Type": {  "type": "string"  } 
            , "ln_Type": {  "enum": [ "af","ar","be","bg","bn","bo","bs","ca","cs","da","de","el","en","eo","es","et","eu","F","fa","fi","fr","ga","gd","gn","he","hr","ht","hu","hy","ia","id","is","it","ja","jv","ka","km","ko","ku","lb","lo","lt","lv","mg","mk","mn","mt","nl","no","pl","pt","ro","ru","se","sk","sl","sm","so","sq","sr","sv","sw","ta","th","tr","uk","ur","uz","vi","zh"],  "type": "string"  } 
            , "resolutionType_Type": {  "enum": [ "dpi","ppi"],  "type": "string"  } 
            , "idQualifier_Type": {  "type": "string"  } 
            , "email_Type": {  "maxLength": 250,  "type": "string"  } 
            , "phone_Type": {  "maxLength": 35,  "type": "string"  } 
            , "fax_Type": {  "maxLength": 35,  "type": "string"  } 
            , "LRI_Type": {  "enum": [ "EN4","MD"],  "type": "string"  } 
            , "taxCategory_Type": {  "enum": [ "AA","E","H","O","S","Z"],  "type": "string"  } 
            , "taxRate_Type": {  "type": "string"  } 
            , "sub_legalRef_Type": {  "type": "string"  } 
            , "taxType_Type": {  "enum": [ "BOL","CUD","ENV","FRE","OTH","VAT"],  "type": "string"  } 
            , "sub_lineN_Type": {  "minimum": 1,  "maximum": 9999,  "type": "number"  } 
            , "fabricNameSupplier_Type": {  "maxLength": 250,  "type": "string"  } 
            , "fabricNameBuyer_Type": {  "maxLength": 250,  "type": "string"  } 
            , "sub_art_Type": {  "maxLength": 80,  "type": "string"  } 
            , "sub_pattern_Type": {  "maxLength": 15,  "type": "string"  } 
            , "sub_color_Type": {  "maxLength": 15,  "type": "string"  } 
            , "sub_added_Type": {  "maxLength": 80,  "type": "string"  } 
            , "sub_catalogPrice_Type": {  "type": "number"  } 
            , "format_Type": {  "type": "string"  } 
            , "mime_Type": {  "type": "string"  } 
            , "encoding_Type": {  "type": "string"  } 
            , "characterSet_Type": {  "type": "string"  } 
            , "sub_uri_Type": {  "type": "string"  } 
            , "mimeCode_Type": {  "type": "string"  } 
            , "formatCode_Type": {  "type": "string"  } 
            , "encodingCode_Type": {  "type": "string"  } 
            , "characterSetCode_Type": {  "type": "string"  } 
            , "addType_Type": {  "enum": [ "CC","CL","CO","DY","LT","MDI","MS","PKG","PL","RGB","SE"],  "type": "string"  } 
            , "garmentMarket_Type": {  "maxLength": 255,  "minLength": 0,  "type": "string"  } 
            , "tradeMark_Type": {  "maxLength": 50,  "type": "string"  } 
            , "customsStat_Type": {  "maxLength": 15,  "type": "string"  } 
            , "dyeProcess_Type": {  "enum": [ "CP","DP","FI","PC","PR","SP","TP","YR"],  "type": "string"  } 
            , "dyeStuff_Type": {  "enum": [ "AC","AN","CA","DI","DS","NP","PI","PM","RE","SU"],  "type": "string"  } 
            , "careLabel_Type": {  "maxLength": 5,
            "minLength": 5,  "type": "string"  } 
            , "sub_minLot_Type": {  "minimum": 0,  "type": "number"  } 
            , "sub_minLotExclusive_Type": {  "minimum": 0,  "type": "number"  } 
            , "avgDeliveryDD_Type": {  "type": "string"  } 
            , "estFaultiness_Type": {  "minimum": 0,  "maximum": 100,  "type": "number"  } 
            , "sub_fabricWeightM_Type": {  "minimum": 0,  "type": "number"  } 
            , "sub_fabricWeightM2_Type": {  "minimum": 0,  "type": "number"  } 
            , "sub_fabricCutWidth_Type": {  "minimum": 0,  "type": "number"  } 
            , "weave_Type": {  "enum": [ "BA","BE","CO","DE","DO","GA","GR","HO","HS","MA","PL","SA","TO","TR","TW","V","W"],  "type": "string"  } 
            , "sub_warpCount_Type": {  "maxLength": 10,  "type": "string"  } 
            , "sub_weftCount_Type": {  "maxLength": 10,  "type": "string"  } 
            , "warpEndsN_Type": {  "minimum": 0,  "type": "number"  } 
            , "weftEndsN_Type": {  "minimum": 0,  "type": "number"  } 
            , "sub_bowingWarp_Type": {  "minimum": 0,  "type": "number"  } 
            , "sub_bowingWeft_Type": {  "minimum": 0,  "type": "number"  } 
            , "sub_checksFlaw_Type": {  "minimum": 0,  "type": "number"  } 
            , "sub_weftDev_Type": {  "minimum": 0,  "type": "number"  } 
            , "resin_Type": {  "minimum": 0,  "type": "number"  } 
            , "isURL_Type": {  "type": "boolean"  } 
            , "geographicAreaCode_Type": {  "type": "string"  } 
            , "geographicAreaText_Type": {  "type": "string"  } 
            , "sub_percCompos_Type": {  "minimum": 0,  "maximum": 100,  "type": "number"  } 
            , "method_Type": {  "maxLength": 80,  "type": "string"  } 
            , "fibre_Type": {  "enum": [ "AB","AC","AF","AG","AL","CA","CC","CL","CO","CU","EA","EL","FL","GI","GL","HA","HE","HL","HL","JU","KE","KP","LI","LY","MA","MD","ME","MG","PA","PB","PC","PE","PI","PL","PM","PP","PR","PU","RA","SE","SI","SN","TA","TR","TV","VI","VY","WA","WB","WC","WG","WK","WL","WM","WN","WO","WP","WS","WT","WU","WV","WY"],  "type": "string"  } 
            
         },  "type":
        "object", "properties": { "TEXCatalog":
            {"$ref":"#/definitions/TEXCatalog_Type"}}, "required": [
            "TEXCatalog" ] } 