 { "$schema":
        "http://json-schema.org/draft-07/schema#", "$id": "urn:moda-ml:repository:schema:TEXDesRequest", "title":
            "TEXDesRequest", "description": "TEXDesRequest", "definitions": { 
         "TEXDesRequest_Type": { 
             "description": "TEXDesRequest", 
             "type": "object",
            "properties": { 
            
                "@TRtype": { "$ref": "#/definitions/TRtype_Type" },
                "@msgfunction": { "$ref": "#/definitions/msgfunction_Type" },
                "@version": { "$ref": "#/definitions/version_Type" },
                "@useProfile": { "$ref": "#/definitions/useProfile_Type" }, 
                "TRheader": { 
             "$ref": "#/definitions/TRheader_Type"  } 
            ,
                "trade": { 
             "$ref": "#/definitions/trade_Type"  } 
            ,
                "shipInfo": { 
             "$ref": "#/definitions/shipInfo_Type"  } 
            ,
                "piecePack": { 
             "$ref": "#/definitions/piecePack_Type"  } 
            ,
                "TRbody": { 
             "$ref": "#/definitions/TRbody_Type"  } 
             }, 
            
            
             "additionalProperties": false 
            , "required": ["TRheader" ,"TRbody" ]
             } 
            , "TRheader_Type": { 
             "description": "TRheader", 
             "type": "object",
            "properties": { 
            
                "msgN": { 
             "$ref": "#/definitions/msgN_Type"  } 
            ,
                "msgID": { 
             "$ref": "#/definitions/msgID_Type"  } 
            ,
                "docID": { 
             "$ref": "#/definitions/docID_Type"  } 
            ,
                "msgDate": { 
             "$ref": "#/definitions/msgDate_Type"  } 
            ,
                "refDoc": { 
             "items": {  "$ref": "#/definitions/refDoc_Type"  }, "type": "array" 
                , "maxItems": 9 } 
            ,
                "buyer": { 
             "$ref": "#/definitions/buyer_Type"  } 
            ,
                "supplier": { 
             "$ref": "#/definitions/supplier_Type"  } 
            ,
                "thirdParty": { 
             "items": {  "$ref": "#/definitions/thirdParty_Type"  }, "type": "array" 
                , "maxItems": 5 } 
            ,
                "note": { 
             "items": {  "$ref": "#/definitions/note_Type"  }, "type": "array" 
                , "maxItems": 99 } 
             }, 
            
             "anyOf": [ {},  { "": "msgID" } 
                        , { "": "docID" } 
                        ], 
             "additionalProperties": false 
            , "required": ["msgN" ,"msgDate" ,"buyer" ,"supplier" ]
             } 
            , "trade_Type": { 
             "description": "trade", 
             "type": "object",
            "properties": { 
            
                "incoTermText": { 
             "$ref": "#/definitions/incoTermText_Type"  } 
            ,
                "incoTerm": { 
             "$ref": "#/definitions/incoTerm_Type"  } 
            ,
                "location": { 
             "$ref": "#/definitions/location_Type"  } 
             }, 
            
            "oneOf": [ {  "required": [
                                    "incoTermText"]  } 
                        , {  "required": [
                                    "incoTerm"]  } 
                        ], 
             "additionalProperties": false 
            
             } 
            , "shipInfo_Type": { 
             "description": "shipInfo", 
             "type": "object",
            "properties": { 
            
                "transInfo": { 
             "items": {  "$ref": "#/definitions/transInfo_Type"  }, "type": "array" 
                , "maxItems": 9 } 
            ,
                "delEffectiveDate": { 
             "$ref": "#/definitions/delEffectiveDate_Type"  } 
            ,
                "packages": { 
             "items": {  "$ref": "#/definitions/packages_Type"  }, "type": "array" 
                , "maxItems": 99 } 
            ,
                "actualPackageUnit": { 
             "items": {  "$ref": "#/definitions/actualPackageUnit_Type"  }, "type": "array" 
                 } 
             }, 
            
            
             "additionalProperties": false 
            
             } 
            , "piecePack_Type": { 
             "description": "piecePack", 
             "type": "object",
            "properties": { 
            
                "piecePackText": { 
             "$ref": "#/definitions/piecePackText_Type"  } 
            , "pieceInnWrap1": { "$ref": "#/definitions/pieceInnWrap1_Type" }
                , "pieceInnWrap2": { "$ref": "#/definitions/pieceInnWrap2_Type" }
                , "pieceOutWrap": { "$ref": "#/definitions/pieceOutWrap_Type" }
                 }, 
            
            "oneOf": [ {  "required": [
                                    "piecePackText"]  } 
                        , { 
                                
                                        "required": [ "pieceInnWrap1"] 
                                        
                                         }] , "not":
                                            {"anyOf": [  {"required":
                                                [  "piecePackText",
                                                 "pieceInnWrap2" ]}
                                                  , {"required":
                                                [  "piecePackText",
                                                 "pieceOutWrap" ]}
                                                  
                                            ]}
                                            , 
                        
             "additionalProperties": false 
            
             } 
            , "TRbody_Type": { 
             "description": "TRbody", 
             "type": "object",
            "properties": { 
            
                "TRitem": { 
             "items": {  "$ref": "#/definitions/TRitem_Type"  }, "type": "array" 
                 } 
             }, 
            
            
             "additionalProperties": false 
            , "required": ["TRitem" ]
             } 
            , "refDoc_Type": { 
             "description": "refDoc", 
             "type": "object",
            "properties": { 
            
                "@docType": { "$ref": "#/definitions/docType_Type" }, 
                "docID": { 
             "items": {  "$ref": "#/definitions/docID_Type"  }, "type": "array" 
                , "maxItems": 2 } 
            ,
                "docDate": { 
             "$ref": "#/definitions/docDate_Type"  } 
            ,
                "season": { 
             "$ref": "#/definitions/season_Type"  } 
            ,
                "itemID": { 
             "$ref": "#/definitions/itemID_Type"  } 
            ,
                "attachment": { 
             "$ref": "#/definitions/attachment_Type"  } 
             }, 
            
            
             "additionalProperties": false 
            , "required": ["docID" ,"@docType"]
             } 
            , "buyer_Type": { 
             "description": "buyer", 
             "type": "object",
            "properties": { 
            
                "@logo": { "$ref": "#/definitions/logo_Type" },
                "@sender": { "$ref": "#/definitions/sender_Type" }, 
                "id": { 
             "$ref": "#/definitions/id_Type"  } 
            ,
                "additionalIdentifier": { 
             "items": {  "$ref": "#/definitions/additionalIdentifier_Type"  }, "type": "array" 
                , "maxItems": 9 } 
            ,
                "legalName": { 
             "$ref": "#/definitions/legalName_Type"  } 
            ,
                "dept": { 
             "$ref": "#/definitions/dept_Type"  } 
            ,
                "subDept": { 
             "$ref": "#/definitions/subDept_Type"  } 
            ,
                "person": { 
             "$ref": "#/definitions/person_Type"  } 
            ,
                "street": { 
             "$ref": "#/definitions/street_Type"  } 
            ,
                "city": { 
             "$ref": "#/definitions/city_Type"  } 
            ,
                "subCountry": { 
             "$ref": "#/definitions/subCountry_Type"  } 
            ,
                "country": { 
             "$ref": "#/definitions/country_Type"  } 
            ,
                "postCode": { 
             "$ref": "#/definitions/postCode_Type"  } 
             }, 
            
            
             "additionalProperties": false 
            , "required": ["id" ]
             } 
            , "supplier_Type": { 
             "description": "supplier", 
             "type": "object",
            "properties": { 
            
                "@logo": { "$ref": "#/definitions/logo_Type" },
                "@sender": { "$ref": "#/definitions/sender_Type" }, 
                "id": { 
             "$ref": "#/definitions/id_Type"  } 
            ,
                "additionalIdentifier": { 
             "items": {  "$ref": "#/definitions/additionalIdentifier_Type"  }, "type": "array" 
                , "maxItems": 9 } 
            ,
                "legalName": { 
             "$ref": "#/definitions/legalName_Type"  } 
            ,
                "dept": { 
             "$ref": "#/definitions/dept_Type"  } 
            ,
                "subDept": { 
             "$ref": "#/definitions/subDept_Type"  } 
            ,
                "person": { 
             "$ref": "#/definitions/person_Type"  } 
            ,
                "street": { 
             "$ref": "#/definitions/street_Type"  } 
            ,
                "city": { 
             "$ref": "#/definitions/city_Type"  } 
            ,
                "subCountry": { 
             "$ref": "#/definitions/subCountry_Type"  } 
            ,
                "country": { 
             "$ref": "#/definitions/country_Type"  } 
            ,
                "postCode": { 
             "$ref": "#/definitions/postCode_Type"  } 
             }, 
            
            
             "additionalProperties": false 
            , "required": ["id" ]
             } 
            , "thirdParty_Type": { 
             "description": "thirdParty", 
             "type": "object",
            "properties": { 
            
                "@VAT": { "$ref": "#/definitions/VAT_Type" },
                "@role": { "$ref": "#/definitions/role_Type" },
                "@sender": { "$ref": "#/definitions/sender_Type" }, 
                "id": { 
             "$ref": "#/definitions/id_Type"  } 
            ,
                "legalName": { 
             "$ref": "#/definitions/legalName_Type"  } 
            ,
                "dept": { 
             "$ref": "#/definitions/dept_Type"  } 
            ,
                "subDept": { 
             "$ref": "#/definitions/subDept_Type"  } 
            ,
                "person": { 
             "$ref": "#/definitions/person_Type"  } 
            ,
                "street": { 
             "$ref": "#/definitions/street_Type"  } 
            ,
                "city": { 
             "$ref": "#/definitions/city_Type"  } 
            ,
                "subCountry": { 
             "$ref": "#/definitions/subCountry_Type"  } 
            ,
                "country": { 
             "$ref": "#/definitions/country_Type"  } 
            ,
                "postCode": { 
             "$ref": "#/definitions/postCode_Type"  } 
             }, 
            
            
             "additionalProperties": false 
            , "required": ["id" ,"@role"]
             } 
            , "transInfo_Type": { 
             "description": "transInfo", 
             "type": "object",
            "properties": { 
            
                "@transReason": { "$ref": "#/definitions/transReason_Type" },
                "@progr": { "$ref": "#/definitions/progr_Type" }, 
                "transMode": { 
             "$ref": "#/definitions/transMode_Type"  } 
            ,
                "carrier": { 
             "$ref": "#/definitions/carrier_Type"  } 
            ,
                "deliveryPlace": { 
             "$ref": "#/definitions/deliveryPlace_Type"  } 
            ,
                "grossWeight": { 
             "$ref": "#/definitions/grossWeight_Type"  } 
            ,
                "netWeight": { 
             "$ref": "#/definitions/netWeight_Type"  } 
            ,
                "transMeans": { 
             "$ref": "#/definitions/transMeans_Type"  } 
            ,
                "transCondition": { 
             "items": {  "$ref": "#/definitions/transCondition_Type"  }, "type": "array" 
                , "maxItems": 3 } 
            ,
                "transConditionText": { 
             "$ref": "#/definitions/transConditionText_Type"  } 
            ,
                "despatchPlace": { 
             "$ref": "#/definitions/despatchPlace_Type"  } 
            ,
                "despatchDate": { 
             "$ref": "#/definitions/despatchDate_Type"  } 
            ,
                "delEffectiveDate": { 
             "$ref": "#/definitions/delEffectiveDate_Type"  } 
             }, 
            
            
             "additionalProperties": false 
            , "required": ["transMode" ]
             } 
            , "packages_Type": { 
             "description": "packages", 
             "type": "object",
            "properties": { 
            
                "@packageLevel": { "$ref": "#/definitions/packageLevel_Type" }, 
                "packageText": { 
             "$ref": "#/definitions/packageText_Type"  } 
            ,
                "package": { 
             "$ref": "#/definitions/package_Type"  } 
            ,
                "packageModelCode": { 
             "$ref": "#/definitions/packageModelCode_Type"  } 
            ,
                "description": { 
             "items": {  "$ref": "#/definitions/description_Type"  }, "type": "array" 
                 } 
            ,
                "packageDim": { 
             "$ref": "#/definitions/packageDim_Type"  } 
            ,
                "handlingChar": { 
             "$ref": "#/definitions/handlingChar_Type"  } 
            ,
                "itemsPerPackage": { 
             "$ref": "#/definitions/itemsPerPackage_Type"  } 
            ,
                "minItemsPerPackage": { 
             "$ref": "#/definitions/minItemsPerPackage_Type"  } 
            ,
                "fillingCriterion": { 
             "items": {  "$ref": "#/definitions/fillingCriterion_Type"  }, "type": "array" 
                , "maxItems": 9 } 
            ,
                "packageQty": { 
             "$ref": "#/definitions/packageQty_Type"  } 
            ,
                "packageN": { 
             "items": {  "$ref": "#/definitions/packageN_Type"  }, "type": "array" 
                 } 
            ,
                "EPClist": { 
             "$ref": "#/definitions/EPClist_Type"  } 
             }, 
            
            "oneOf": [ {  "required": [
                                    "packageText"]  } 
                        , {  "required": [
                                    "package"]  } 
                        ], 
             "additionalProperties": false 
            
             } 
            , "actualPackageUnit_Type": { 
             "description": "actualPackageUnit", 
             "type": "object",
            "properties": { 
            
                "@packageLevel": { "$ref": "#/definitions/packageLevel_Type" }, 
                "packageIdentification": { 
             "$ref": "#/definitions/packageIdentification_Type"  } 
            ,
                "packageText": { 
             "$ref": "#/definitions/packageText_Type"  } 
            ,
                "package": { 
             "$ref": "#/definitions/package_Type"  } 
            ,
                "packageModelCode": { 
             "$ref": "#/definitions/packageModelCode_Type"  } 
            ,
                "volume": { 
             "$ref": "#/definitions/volume_Type"  } 
            ,
                "netWeight": { 
             "$ref": "#/definitions/netWeight_Type"  } 
            ,
                "grossWeight": { 
             "$ref": "#/definitions/grossWeight_Type"  } 
            ,
                "packageDim": { 
             "$ref": "#/definitions/packageDim_Type"  } 
            ,
                "actualItemsPerPackage": { 
             "$ref": "#/definitions/actualItemsPerPackage_Type"  } 
            ,
                "packagesList": { 
             "$ref": "#/definitions/packagesList_Type"  } 
            ,
                "itemsList": { 
             "$ref": "#/definitions/itemsList_Type"  } 
            ,
                "note": { 
             "items": {  "$ref": "#/definitions/note_Type"  }, "type": "array" 
                , "maxItems": 99 } 
             }, 
            
             "anyOf": [ {},  { "": "packageText" } 
                        , { "": "package" } 
                        ], 
             "additionalProperties": false 
            , "required": ["packageIdentification" ]
             } 
            , "TRitem_Type": { 
             "description": "TRitem", 
             "type": "object",
            "properties": { 
            
                "@extinction": { "$ref": "#/definitions/extinction_Type" }, 
                "lineN": { 
             "$ref": "#/definitions/lineN_Type"  } 
            ,
                "refDoc": { 
             "items": {  "$ref": "#/definitions/refDoc_Type"  }, "type": "array" 
                , "maxItems": 9 } 
            ,
                "texCode": { 
             "items": {  "$ref": "#/definitions/texCode_Type"  }, "type": "array" 
                , "maxItems": 2 } 
            ,
                "qty": { 
             "items": {  "$ref": "#/definitions/qty_Type"  }, "type": "array" 
                , "maxItems": 2 } 
            ,
                "serialN": { 
             "items": {  "$ref": "#/definitions/serialN_Type"  }, "type": "array" 
                 } 
            ,
                "itemsList": { 
             "$ref": "#/definitions/itemsList_Type"  } 
            ,
                "thirdParty": { 
             "items": {  "$ref": "#/definitions/thirdParty_Type"  }, "type": "array" 
                , "maxItems": 3 } 
            ,
                "shipInfo": { 
             "$ref": "#/definitions/shipInfo_Type"  } 
            ,
                "piecePack": { 
             "$ref": "#/definitions/piecePack_Type"  } 
            ,
                "packageN": { 
             "items": {  "$ref": "#/definitions/packageN_Type"  }, "type": "array" 
                 } 
            ,
                "note": { 
             "items": {  "$ref": "#/definitions/note_Type"  }, "type": "array" 
                , "maxItems": 99 } 
             }, 
            
             "anyOf": [ {},  { "": "serialN" } 
                        , { "": "itemsList" } 
                        ], 
             "additionalProperties": false 
            , "required": ["lineN" ,"texCode" ,"qty" ]
             } 
            , "attachment_Type": { 
             "description": "attachment", 
             "type": "object",
            "properties": { 
            
                "@uid": { "$ref": "#/definitions/uid_Type" }, 
                "fileName": { 
             "$ref": "#/definitions/fileName_Type"  } 
            ,
                "binaryObject": { 
             "$ref": "#/definitions/binaryObject_Type"  } 
            ,
                "externalReference": { 
             "items": {  "$ref": "#/definitions/externalReference_Type"  }, "type": "array" 
                , "maxItems": 99 } 
             }, 
            
            
             "additionalProperties": false 
            
             } 
            , "packageDim_Type": { 
             "description": "packageDim", 
             "type": "object",
            "properties": { 
            
                "length": { 
             "$ref": "#/definitions/length_Type"  } 
            ,
                "width": { 
             "$ref": "#/definitions/width_Type"  } 
            ,
                "height": { 
             "$ref": "#/definitions/height_Type"  } 
             }, 
            
            
             "additionalProperties": false 
            , "required": ["length" ]
             } 
            , "handlingChar_Type": { 
             "description": "handlingChar", 
             "type": "object",
            "properties": { 
            
                "yarnPack": { 
             "$ref": "#/definitions/yarnPack_Type"  } 
            ,
                "piecePack": { 
             "$ref": "#/definitions/piecePack_Type"  } 
            ,
                "acsPack": { 
             "$ref": "#/definitions/acsPack_Type"  } 
            ,
                "garPack": { 
             "$ref": "#/definitions/garPack_Type"  } 
            ,
                "sortableIndicator": { 
             "$ref": "#/definitions/sortableIndicator_Type"  } 
            ,
                "stackabilityLevel": { 
             "$ref": "#/definitions/stackabilityLevel_Type"  } 
            ,
                "handlingType": { 
             "$ref": "#/definitions/handlingType_Type"  } 
            ,
                "volume": { 
             "$ref": "#/definitions/volume_Type"  } 
            ,
                "netWeight": { 
             "$ref": "#/definitions/netWeight_Type"  } 
            ,
                "grossWeight": { 
             "$ref": "#/definitions/grossWeight_Type"  } 
            ,
                "note": { 
             "items": {  "$ref": "#/definitions/note_Type"  }, "type": "array" 
                , "maxItems": 99 } 
             }, 
            
             "anyOf": [ {},  { "": "yarnPack" } 
                        , { "": "piecePack" } 
                        , { "": "acsPack" } 
                        , { "": "garPack" } 
                        ], 
             "additionalProperties": false 
            
             } 
            , "EPClist_Type": { 
             "description": "EPClist", 
             "type": "object",
            "properties": { 
            
                "EPC": { 
             "items": {  "$ref": "#/definitions/EPC_Type"  }, "type": "array" 
                 } 
             }, 
            
            
             "additionalProperties": false 
            , "required": ["EPC" ]
             } 
            , "packageIdentification_Type": { 
             "description": "packageIdentification", 
             "type": "object",
            "properties": { 
            
                "packageN": { 
             "$ref": "#/definitions/packageN_Type"  } 
            ,
                "serialN": { 
             "items": {  "$ref": "#/definitions/serialN_Type"  }, "type": "array" 
                , "maxItems": 9 } 
             }, 
            
            
             "additionalProperties": false 
            , "required": ["packageN" ]
             } 
            , "packagesList_Type": { 
             "description": "packagesList", 
             "type": "object",
            "properties": { 
            
                "packageIdentification": { 
             "items": {  "$ref": "#/definitions/packageIdentification_Type"  }, "type": "array" 
                 } 
             }, 
            
            
             "additionalProperties": false 
            , "required": ["packageIdentification" ]
             } 
            , "itemsList_Type": { 
             "description": "itemsList", 
             "type": "object",
            "properties": { 
            
                "qualityLevel": { 
             "$ref": "#/definitions/qualityLevel_Type"  } 
            ,
                "itemIdentification": { 
             "items": {  "$ref": "#/definitions/itemIdentification_Type"  }, "type": "array" 
                 } 
             }, 
            
            
             "additionalProperties": false 
            , "required": ["itemIdentification" ]
             } 
            , "texCode_Type": { 
             "description": "texCode", 
             "type": "object",
            "properties": { 
            
                "@numberingOrg": { "$ref": "#/definitions/numberingOrg_Type" }, 
                "art": { 
             "$ref": "#/definitions/art_Type"  } 
            ,
                "pattern": { 
             "$ref": "#/definitions/pattern_Type"  } 
            ,
                "color": { 
             "$ref": "#/definitions/color_Type"  } 
            ,
                "added": { 
             "items": {  "$ref": "#/definitions/added_Type"  }, "type": "array" 
                , "maxItems": 9 } 
            ,
                "description": { 
             "items": {  "$ref": "#/definitions/description_Type"  }, "type": "array" 
                 } 
             }, 
            
            
             "additionalProperties": false 
            , "required": ["art" ]
             } 
            , "externalReference_Type": { 
             "description": "externalReference", 
             "type": "object",
            "properties": { 
            
                "uri": { 
             "$ref": "#/definitions/uri_Type"  } 
            ,
                "mimeCode": { 
             "$ref": "#/definitions/mimeCode_Type"  } 
            ,
                "formatCode": { 
             "$ref": "#/definitions/formatCode_Type"  } 
            ,
                "encodingCode": { 
             "$ref": "#/definitions/encodingCode_Type"  } 
            ,
                "characterSetCode": { 
             "$ref": "#/definitions/characterSetCode_Type"  } 
             }, 
            
            
             "additionalProperties": false 
            , "required": ["uri" ]
             } 
            , "yarnPack_Type": { 
             "description": "yarnPack", 
             "type": "object",
            "properties": { 
            
                "yarnReel": { 
             "$ref": "#/definitions/yarnReel_Type"  } 
            ,
                "yarnInWrap": { 
             "$ref": "#/definitions/yarnInWrap_Type"  } 
            ,
                "yarnOutWrapText": { 
             "$ref": "#/definitions/yarnOutWrapText_Type"  } 
            ,
                "yarnOutWrap": { 
             "$ref": "#/definitions/yarnOutWrap_Type"  } 
             }, 
            
             "anyOf": [ {},  { "": "yarnOutWrapText" } 
                        , { "": "yarnOutWrap" } 
                        ], 
             "additionalProperties": false 
            , "required": ["yarnReel" ]
             } 
            , "acsPack_Type": { 
             "description": "acsPack", 
             "type": "object",
            "properties": { 
            
                "acsPackCode": { 
             "$ref": "#/definitions/acsPackCode_Type"  } 
            ,
                "acsPackText": { 
             "$ref": "#/definitions/acsPackText_Type"  } 
             }, 
            
            "oneOf": [ {  "required": [
                                    "acsPackCode"]  } 
                        , {  "required": [
                                    "acsPackText"]  } 
                        ], 
             "additionalProperties": false 
            
             } 
            , "garPack_Type": { 
             "description": "garPack", 
             "type": "object",
            "properties": { 
            
                "garPackCode": { 
             "$ref": "#/definitions/garPackCode_Type"  } 
            ,
                "garPackText": { 
             "$ref": "#/definitions/garPackText_Type"  } 
             }, 
            
            "oneOf": [ {  "required": [
                                    "garPackCode"]  } 
                        , {  "required": [
                                    "garPackText"]  } 
                        ], 
             "additionalProperties": false 
            
             } 
            , "itemIdentification_Type": { 
             "description": "itemIdentification", 
             "type": "object",
            "properties": { 
            
                "serialN": { 
             "items": {  "$ref": "#/definitions/serialN_Type"  }, "type": "array" 
                , "maxItems": 9 } 
             }, 
            
            
             "additionalProperties": false 
            , "required": ["serialN" ]
             } 
            , "yarnReel_Type": { 
             "description": "yarnReel", 
             "type": "object",
            "properties": { 
            
                "@reelType": { "$ref": "#/definitions/reelType_Type" },
                "@reelMat": { "$ref": "#/definitions/reelMat_Type" }, 
                "yarnReelD": { 
             "$ref": "#/definitions/yarnReelD_Type"  } 
            ,
                "yarnReelH": { 
             "$ref": "#/definitions/yarnReelH_Type"  } 
            ,
                "yarnConeAngle": { 
             "$ref": "#/definitions/yarnConeAngle_Type"  } 
            ,
                "yarnReelQty": { 
             "items": {  "$ref": "#/definitions/yarnReelQty_Type"  }, "type": "array" 
                , "maxItems": 2 } 
            ,
                "label": { 
             "$ref": "#/definitions/label_Type"  } 
            ,
                "labelWrit": { 
             "$ref": "#/definitions/labelWrit_Type"  } 
             }, 
            
            
             "additionalProperties": false 
            , "required": ["@reelType"]
             } 
            , "yarnInWrap_Type": { 
             "description": "yarnInWrap", 
             "type": "object",
            "properties": { 
            
                "yarnReelWrap": { 
             "$ref": "#/definitions/yarnReelWrap_Type"  } 
            ,
                "label": { 
             "$ref": "#/definitions/label_Type"  } 
            ,
                "labelWrit": { 
             "$ref": "#/definitions/labelWrit_Type"  } 
             }, 
            
            
             "additionalProperties": false 
            , "required": ["yarnReelWrap" ]
             } 
            , "docID_Type": { "type": "object", "properties": {  "$": {  "$ref": "#/definitions/sub_docID_Type"  } ,
                "@numberingOrg": { "$ref": "#/definitions/numberingOrg_Type" } },  "additionalProperties": false 
             } 
            , "msgDate_Type": { "type": "object", "properties": {  "$": {  "$ref": "#/definitions/sub_msgDate_Type"  } ,
                "@dateForm": { "$ref": "#/definitions/dateForm_Type" } },  "additionalProperties": false 
             } 
            , "note_Type": { "type": "object", "properties": {  "$": {  "$ref": "#/definitions/sub_note_Type"  } ,
                "@numberingOrg": { "$ref": "#/definitions/numberingOrg_Type" },
                "@codeList": { "$ref": "#/definitions/codeList_Type" },
                "@noteLabel": { "$ref": "#/definitions/noteLabel_Type" } },  "additionalProperties": false 
             } 
            , "location_Type": { "type": "object", "properties": {  "$": {  "$ref": "#/definitions/sub_location_Type"  } ,
                "@LRI": { "$ref": "#/definitions/LRI_Type" } },  "additionalProperties": false 
             } 
            , "delEffectiveDate_Type": { "type": "object", "properties": {  "$": {  "$ref": "#/definitions/sub_delEffectiveDate_Type"  } ,
                "@dateForm": { "$ref": "#/definitions/dateForm_Type" } },  "additionalProperties": false 
             } 
            , "docDate_Type": { "type": "object", "properties": {  "$": {  "$ref": "#/definitions/sub_docDate_Type"  } ,
                "@dateForm": { "$ref": "#/definitions/dateForm_Type" } },  "additionalProperties": false 
             } 
            , "season_Type": { "type": "object", "properties": {  "$": {  "$ref": "#/definitions/sub_season_Type"  } ,
                "@numberingOrg": { "$ref": "#/definitions/numberingOrg_Type" },
                "@codeList": { "$ref": "#/definitions/codeList_Type" },
                "@listName": { "$ref": "#/definitions/listName_Type" },
                "@listVersion": { "$ref": "#/definitions/listVersion_Type" } },  "additionalProperties": false 
             } 
            , "id_Type": { "type": "object", "properties": {  "$": {  "$ref": "#/definitions/sub_id_Type"  } ,
                "@numberingOrg": { "$ref": "#/definitions/numberingOrg_Type" } },  "additionalProperties": false 
             } 
            , "additionalIdentifier_Type": { "type": "object", "properties": {  "$": {  "$ref": "#/definitions/sub_additionalIdentifier_Type"  } ,
                "@numberingOrg": { "$ref": "#/definitions/numberingOrg_Type" },
                "@idQualifier": { "$ref": "#/definitions/idQualifier_Type" } },  "additionalProperties": false 
             } 
            , "person_Type": { "type": "object", "properties": {  "$": {  "$ref": "#/definitions/sub_person_Type"  } ,
                "@email": { "$ref": "#/definitions/email_Type" },
                "@phone": { "$ref": "#/definitions/phone_Type" },
                "@fax": { "$ref": "#/definitions/fax_Type" } },  "additionalProperties": false 
             } 
            , "grossWeight_Type": { "type": "object", "properties": {  "$": {  "$ref": "#/definitions/sub_grossWeight_Type"  } ,
                "@um": { "$ref": "#/definitions/um_Type" } },  "additionalProperties": false 
            , "required": ["@um"] } 
            , "netWeight_Type": { "type": "object", "properties": {  "$": {  "$ref": "#/definitions/sub_netWeight_Type"  } ,
                "@um": { "$ref": "#/definitions/um_Type" } },  "additionalProperties": false 
            , "required": ["@um"] } 
            , "despatchDate_Type": { "type": "object", "properties": {  "$": {  "$ref": "#/definitions/sub_despatchDate_Type"  } ,
                "@dateForm": { "$ref": "#/definitions/dateForm_Type" } },  "additionalProperties": false 
             } 
            , "packageModelCode_Type": { "type": "object", "properties": {  "$": {  "$ref": "#/definitions/sub_packageModelCode_Type"  } ,
                "@numberingOrg": { "$ref": "#/definitions/numberingOrg_Type" } },  "additionalProperties": false 
             } 
            , "description_Type": { "type": "object", "properties": {  "$": {  "$ref": "#/definitions/sub_description_Type"  } ,
                "@ln": { "$ref": "#/definitions/ln_Type" } },  "additionalProperties": false 
             } 
            , "itemsPerPackage_Type": { "type": "object", "properties": {  "$": {  "$ref": "#/definitions/sub_itemsPerPackage_Type"  } ,
                "@um": { "$ref": "#/definitions/um_Type" } },  "additionalProperties": false 
            , "required": ["@um"] } 
            , "minItemsPerPackage_Type": { "type": "object", "properties": {  "$": {  "$ref": "#/definitions/sub_minItemsPerPackage_Type"  } ,
                "@um": { "$ref": "#/definitions/um_Type" } },  "additionalProperties": false 
            , "required": ["@um"] } 
            , "fillingCriterion_Type": { "type": "object", "properties": {  "$": {  "$ref": "#/definitions/sub_fillingCriterion_Type"  } ,
                "@progr": { "$ref": "#/definitions/progr_Type" } },  "additionalProperties": false 
             } 
            , "packageN_Type": { "type": "object", "properties": {  "$": {  "$ref": "#/definitions/sub_packageN_Type"  } ,
                "@numberingOrg": { "$ref": "#/definitions/numberingOrg_Type" },
                "@packageContainerN": { "$ref": "#/definitions/packageContainerN_Type" } },  "additionalProperties": false 
             } 
            , "volume_Type": { "type": "object", "properties": {  "$": {  "$ref": "#/definitions/sub_volume_Type"  } ,
                "@um": { "$ref": "#/definitions/um_Type" } },  "additionalProperties": false 
            , "required": ["@um"] } 
            , "actualItemsPerPackage_Type": { "type": "object", "properties": {  "$": {  "$ref": "#/definitions/sub_actualItemsPerPackage_Type"  }  },  "additionalProperties": false 
             } 
            , "lineN_Type": { "type": "object", "properties": {  "$": {  "$ref": "#/definitions/sub_lineN_Type"  } ,
                "@VAT": { "$ref": "#/definitions/VAT_Type" } },  "additionalProperties": false 
             } 
            , "qty_Type": { "type": "object", "properties": {  "$": {  "$ref": "#/definitions/sub_qty_Type"  } ,
                "@um": { "$ref": "#/definitions/um_Type" } },  "additionalProperties": false 
            , "required": ["@um"] } 
            , "serialN_Type": { "type": "object", "properties": {  "$": {  "$ref": "#/definitions/sub_serialN_Type"  } ,
                "@numberingOrg": { "$ref": "#/definitions/numberingOrg_Type" },
                "@idQualifier": { "$ref": "#/definitions/idQualifier_Type" } },  "additionalProperties": false 
             } 
            , "fileName_Type": { "type": "object", "properties": {  "$": {  "$ref": "#/definitions/sub_fileName_Type"  } ,
                "@numberingOrg": { "$ref": "#/definitions/numberingOrg_Type" } },  "additionalProperties": false 
             } 
            , "binaryObject_Type": { "type": "object", "properties": {  "$": {  "$ref": "#/definitions/sub_binaryObject_Type"  } ,
                "@format": { "$ref": "#/definitions/format_Type" },
                "@mime": { "$ref": "#/definitions/mime_Type" },
                "@encoding": { "$ref": "#/definitions/encoding_Type" },
                "@characterSet": { "$ref": "#/definitions/characterSet_Type" } },  "additionalProperties": false 
             } 
            , "length_Type": { "type": "object", "properties": {  "$": {  "$ref": "#/definitions/sub_length_Type"  } ,
                "@um": { "$ref": "#/definitions/um_Type" } },  "additionalProperties": false 
            , "required": ["@um"] } 
            , "width_Type": { "type": "object", "properties": {  "$": {  "$ref": "#/definitions/sub_width_Type"  } ,
                "@um": { "$ref": "#/definitions/um_Type" } },  "additionalProperties": false 
            , "required": ["@um"] } 
            , "height_Type": { "type": "object", "properties": {  "$": {  "$ref": "#/definitions/sub_height_Type"  } ,
                "@um": { "$ref": "#/definitions/um_Type" } },  "additionalProperties": false 
            , "required": ["@um"] } 
            , "handlingType_Type": { "type": "object", "properties": {  "$": {  "$ref": "#/definitions/sub_handlingType_Type"  } ,
                "@ln": { "$ref": "#/definitions/ln_Type" } },  "additionalProperties": false 
             } 
            , "EPC_Type": { "type": "object", "properties": {  "$": {  "$ref": "#/definitions/sub_EPC_Type"  } ,
                "@numberingOrg": { "$ref": "#/definitions/numberingOrg_Type" },
                "@TID": { "$ref": "#/definitions/TID_Type" } },  "additionalProperties": false 
             } 
            , "qualityLevel_Type": { "type": "object", "properties": {  "$": {  "$ref": "#/definitions/sub_qualityLevel_Type"  } ,
                "@numberingOrg": { "$ref": "#/definitions/numberingOrg_Type" },
                "@codeList": { "$ref": "#/definitions/codeList_Type" },
                "@listName": { "$ref": "#/definitions/listName_Type" },
                "@listVersion": { "$ref": "#/definitions/listVersion_Type" } },  "additionalProperties": false 
             } 
            , "art_Type": { "type": "object", "properties": {  "$": {  "$ref": "#/definitions/sub_art_Type"  } ,
                "@numberingOrg": { "$ref": "#/definitions/numberingOrg_Type" },
                "@codeList": { "$ref": "#/definitions/codeList_Type" },
                "@listName": { "$ref": "#/definitions/listName_Type" },
                "@listVersion": { "$ref": "#/definitions/listVersion_Type" } },  "additionalProperties": false 
             } 
            , "pattern_Type": { "type": "object", "properties": {  "$": {  "$ref": "#/definitions/sub_pattern_Type"  } ,
                "@numberingOrg": { "$ref": "#/definitions/numberingOrg_Type" },
                "@codeList": { "$ref": "#/definitions/codeList_Type" },
                "@listName": { "$ref": "#/definitions/listName_Type" },
                "@listVersion": { "$ref": "#/definitions/listVersion_Type" } },  "additionalProperties": false 
             } 
            , "color_Type": { "type": "object", "properties": {  "$": {  "$ref": "#/definitions/sub_color_Type"  } ,
                "@numberingOrg": { "$ref": "#/definitions/numberingOrg_Type" },
                "@codeList": { "$ref": "#/definitions/codeList_Type" },
                "@listName": { "$ref": "#/definitions/listName_Type" },
                "@listVersion": { "$ref": "#/definitions/listVersion_Type" } },  "additionalProperties": false 
             } 
            , "added_Type": { "type": "object", "properties": {  "$": {  "$ref": "#/definitions/sub_added_Type"  } ,
                "@numberingOrg": { "$ref": "#/definitions/numberingOrg_Type" },
                "@addType": { "$ref": "#/definitions/addType_Type" } },  "additionalProperties": false 
             } 
            , "uri_Type": { "type": "object", "properties": {  "$": {  "$ref": "#/definitions/sub_uri_Type"  } ,
                "@isURL": { "$ref": "#/definitions/isURL_Type" } },  "additionalProperties": false 
             } 
            , "acsPackCode_Type": { "type": "object", "properties": {  "$": {  "$ref": "#/definitions/sub_acsPackCode_Type"  } ,
                "@numberingOrg": { "$ref": "#/definitions/numberingOrg_Type" },
                "@codeList": { "$ref": "#/definitions/codeList_Type" },
                "@listName": { "$ref": "#/definitions/listName_Type" },
                "@listVersion": { "$ref": "#/definitions/listVersion_Type" } },  "additionalProperties": false 
             } 
            , "garPackCode_Type": { "type": "object", "properties": {  "$": {  "$ref": "#/definitions/sub_garPackCode_Type"  } ,
                "@numberingOrg": { "$ref": "#/definitions/numberingOrg_Type" },
                "@codeList": { "$ref": "#/definitions/codeList_Type" },
                "@listName": { "$ref": "#/definitions/listName_Type" },
                "@listVersion": { "$ref": "#/definitions/listVersion_Type" } },  "additionalProperties": false 
             } 
            , "yarnReelD_Type": { "type": "object", "properties": {  "$": {  "$ref": "#/definitions/sub_yarnReelD_Type"  } ,
                "@um": { "$ref": "#/definitions/um_Type" } },  "additionalProperties": false 
            , "required": ["@um"] } 
            , "yarnReelH_Type": { "type": "object", "properties": {  "$": {  "$ref": "#/definitions/sub_yarnReelH_Type"  } ,
                "@um": { "$ref": "#/definitions/um_Type" } },  "additionalProperties": false 
            , "required": ["@um"] } 
            , "yarnReelQty_Type": { "type": "object", "properties": {  "$": {  "$ref": "#/definitions/sub_yarnReelQty_Type"  } ,
                "@um": { "$ref": "#/definitions/um_Type" } },  "additionalProperties": false 
            , "required": ["@um"] } 
            , "TRtype_Type": {  "enum": [ "CHG","STD"],  "type": "string"  } 
            , "msgfunction_Type": {  "enum": [ "CA","CP","OR","RC","RT"],  "type": "string"  } 
            , "version_Type": {  "enum": [ "2013-1","2018-1","draft"],  "type": "string"  } 
            , "useProfile_Type": {  "type": "string"  } 
            , "msgN_Type": {  "maxLength": 35,  "type": "string"  } 
            , "msgID_Type": {  "maxLength": 35,  "type": "string"  } 
            , "sub_docID_Type": {  "maxLength": 80,  "type": "string"  } 
            , "sub_msgDate_Type": {  "pattern": "^(((19|20)[0-9][0-9])-(0[1-9]|1[012])-(0[1-9]|1[0-9]|2[0-9]|3[01])(:([0,1][0-9]|2[0-4])-([0-5][0-9])){0,1})|(((19|20)[0-9][0-9])-([0-4][0-9]|[5][0-2]))$",  "type": "string"  } 
            , "sub_note_Type": {  "maxLength": 350,  "type": "string"  } 
            , "incoTermText_Type": {  "maxLength": 250,  "type": "string"  } 
            , "incoTerm_Type": {  "enum": [ "CFR","CIF","CIP","CPT","DAF","DAP","DAT","DDP","DDU","DEQ","DES","EXW","FAS","FCA","FOB"],  "type": "string"  } 
            , "sub_location_Type": {  "maxLength": 40,  "type": "string"  } 
            , "sub_delEffectiveDate_Type": {  "pattern": "^(((19|20)[0-9][0-9])-(0[1-9]|1[012])-(0[1-9]|1[0-9]|2[0-9]|3[01])(:([0,1][0-9]|2[0-4])-([0-5][0-9])){0,1})|(((19|20)[0-9][0-9])-([0-4][0-9]|[5][0-2]))$",  "type": "string"  } 
            , "piecePackText_Type": {  "maxLength": 250,  "type": "string"  } 
            , "pieceInnWrap1_Type": {  "enum": [ "A","B","C","D","E","F","G","H","I","J"],  "type": "string"  } 
            , "pieceInnWrap2_Type": {  "enum": [ "A","B","C","H","I","J","K","L","M","N","O","P","Q","R","S","T","U"],  "type": "string"  } 
            , "pieceOutWrap_Type": {  "enum": [ "0","1","2","3","4","5","6"],  "type": "string"  } 
            , "numberingOrg_Type": {  "enum": [ "CL","CO","EB","EN","ES","FO","GS","MF","ML","SP"],  "type": "string"  } 
            , "dateForm_Type": {  "enum": [ "D","M","W"],  "type": "string"  } 
            , "sub_docDate_Type": {  "pattern": "^(((19|20)[0-9][0-9])-(0[1-9]|1[012])-(0[1-9]|1[0-9]|2[0-9]|3[01])(:([0,1][0-9]|2[0-4])-([0-5][0-9])){0,1})|(((19|20)[0-9][0-9])-([0-4][0-9]|[5][0-2]))$",  "type": "string"  } 
            , "sub_season_Type": {  "maxLength": 15,  "type": "string"  } 
            , "itemID_Type": {  "maxLength": 40,  "type": "string"  } 
            , "docType_Type": {  "enum": [ "BOR","CAT","CEO","CER","COC","CRN","CTO","CTR","CXF","DAD","DDT","DEA","DER","DR","FOR","GSO","GSX","INV","KCC","KCI","M2M","MAS","MCI","OCH","OFF","ORD","ORP","OSR","OSS","OST","OUR","QR","RAI","RDC","RDH","RDR","REA","REQ","RET","RSC","RSH","RSR","SCL","TFC","TFX","TPC","TPX","TWI","VMI","WAC","WEC","YDC","YDH","YDR","YTC","YWI"],  "type": "string"  } 
            , "sub_id_Type": {  "maxLength": 15,  "type": "string"  } 
            , "sub_additionalIdentifier_Type": {  "maxLength": 15,  "type": "string"  } 
            , "legalName_Type": {  "maxLength": 250,  "type": "string"  } 
            , "dept_Type": {  "maxLength": 40,  "type": "string"  } 
            , "subDept_Type": {  "maxLength": 40,  "type": "string"  } 
            , "sub_person_Type": {  "maxLength": 40,  "type": "string"  } 
            , "street_Type": {  "maxLength": 80,  "type": "string"  } 
            , "city_Type": {  "maxLength": 40,  "type": "string"  } 
            , "subCountry_Type": {  "maxLength": 9,  "type": "string"  } 
            , "country_Type": {  "type": "string"  } 
            , "postCode_Type": {  "maxLength": 10,  "type": "string"  } 
            , "logo_Type": {  "maxLength": 255,  "type": "string"  } 
            , "sender_Type": {  "type": "boolean"  } 
            , "VAT_Type": {  "enum": [ "001","002","003","004","005","006","007","008","009","010","011","012","013","014","015","016","017","018","019","020","021","022","023","024","025","162","164","165","166","169","174","177","183","184","201","220","227","374","701","702","902","904","905","907","915","926","974"],  "type": "string"  } 
            , "role_Type": {  "enum": [ "AG","AU","CE","CO","DC","DF","DI","DM","DP","IM","OR","SC","SM","SP","TX"],  "type": "string"  } 
            , "codeList_Type": {  "maxLength": 255,  "type": "string"  } 
            , "noteLabel_Type": {  "maxLength": 35,  "type": "string"  } 
            , "LRI_Type": {  "enum": [ "EN4","MD"],  "type": "string"  } 
            , "transMode_Type": {  "enum": [ "1","10","2","3","4","5","6","8","9"],  "type": "string"  } 
            , "carrier_Type": {  "maxLength": 40,  "type": "string"  } 
            , "deliveryPlace_Type": {  "maxLength": 250,  "type": "string"  } 
            , "sub_grossWeight_Type": {  "minimum": 0,  "type": "number"  } 
            , "sub_netWeight_Type": {  "minimum": 0,  "type": "number"  } 
            , "transMeans_Type": {  "enum": [ "AIR","SHP","TRU","VAN"],  "type": "string"  } 
            , "transCondition_Type": {  "enum": [ "ACC","CAL","CAU","CMR","FFN","FLD","NCC","PPB","PPS","PRO","RFR","RPC","RPS","SHL","SHU"],  "type": "string"  } 
            , "transConditionText_Type": {  "maxLength": 250,  "type": "string"  } 
            , "despatchPlace_Type": {  "maxLength": 250,  "type": "string"  } 
            , "sub_despatchDate_Type": {  "pattern": "^(((19|20)[0-9][0-9])-(0[1-9]|1[012])-(0[1-9]|1[0-9]|2[0-9]|3[01])(:([0,1][0-9]|2[0-4])-([0-5][0-9])){0,1})|(((19|20)[0-9][0-9])-([0-4][0-9]|[5][0-2]))$",  "type": "string"  } 
            , "transReason_Type": {  "enum": [ "FOC","FRW","FST","FVW","FWK","IST","NWK","RJC","SEL","STO","VEW","WRK"],  "type": "string"  } 
            , "progr_Type": {  "minimum": 1,  "type": "number"  } 
            , "packageText_Type": {  "maxLength": 80,  "type": "string"  } 
            , "package_Type": {  "enum": [ "4A","4C","4G","4H","5H","5L","5M","AJ","BL","BN","BX","CI","CL","CN","CS","CT","EC","ED","EE","EF","EG","EH","FX","HN","NE","NF","NG","OA","OB","OC","OD","OE","PE","PX","QS","RJ","RL","SO","TU","XD","XK","ZZ "],  "type": "string"  } 
            , "sub_packageModelCode_Type": {  "type": "string"  } 
            , "sub_description_Type": {  "maxLength": 250,  "type": "string"  } 
            , "sub_itemsPerPackage_Type": {  "type": "number"  } 
            , "sub_minItemsPerPackage_Type": {  "minimum": 0,  "type": "number"  } 
            , "sub_fillingCriterion_Type": {  "enum": [ "COL","MOD","SIZ"],  "type": "string"  } 
            , "packageQty_Type": {  "type": "number"  } 
            , "sub_packageN_Type": {  "maxLength": 40,  "type": "string"  } 
            , "packageLevel_Type": {  "minimum": 1,  "maximum": 9,  "type": "number"  } 
            , "sub_volume_Type": {  "minimum": 0,  "type": "number"  } 
            , "sub_actualItemsPerPackage_Type": {  "type": "number"  } 
            , "sub_lineN_Type": {  "minimum": 1,  "maximum": 9999,  "type": "number"  } 
            , "sub_qty_Type": {  "minimum": 0,  "type": "number"  } 
            , "sub_serialN_Type": {  "maxLength": 250,  "type": "string"  } 
            , "extinction_Type": {  "type": "boolean"  } 
            , "listName_Type": {  "maxLength": 40,  "type": "string"  } 
            , "listVersion_Type": {  "maxLength": 6,  "type": "string"  } 
            , "sub_fileName_Type": {  "maxLength": 255,  "type": "string"  } 
            , "sub_binaryObject_Type": {  "type": "string"  } 
            , "uid_Type": {  "type": "string"  } 
            , "idQualifier_Type": {  "type": "string"  } 
            , "email_Type": {  "maxLength": 250,  "type": "string"  } 
            , "phone_Type": {  "maxLength": 35,  "type": "string"  } 
            , "fax_Type": {  "maxLength": 35,  "type": "string"  } 
            , "um_Type": {  "enum": [ "CMK","CMQ","CMT","CNE","CO2TON","COUPLES","DMQ","E37","GRM","HUR","INH","KGM","KMT","KWH","LBR","MIN","MMK","MTK","MTQ","MTR","NMB","ONZ","P1","PPM","PZ","RPM","YRD"],  "type": "string"  } 
            , "ln_Type": {  "enum": [ "af","ar","be","bg","bn","bo","bs","ca","cs","da","de","el","en","eo","es","et","eu","F","fa","fi","fr","ga","gd","gn","he","hr","ht","hu","hy","ia","id","is","it","ja","jv","ka","km","ko","ku","lb","lo","lt","lv","mg","mk","mn","mt","nl","no","pl","pt","ro","ru","se","sk","sl","sm","so","sq","sr","sv","sw","ta","th","tr","uk","ur","uz","vi","zh"],  "type": "string"  } 
            , "sub_length_Type": {  "minimum": 0,  "type": "number"  } 
            , "sub_width_Type": {  "minimum": 0,  "type": "number"  } 
            , "sub_height_Type": {  "minimum": 0,  "type": "number"  } 
            , "sortableIndicator_Type": {  "type": "boolean"  } 
            , "stackabilityLevel_Type": {  "type": "number"  } 
            , "sub_handlingType_Type": {  "type": "string"  } 
            , "packageContainerN_Type": {  "maxLength": 40,  "type": "string"  } 
            , "sub_EPC_Type": {  "type": "string"  } 
            , "sub_qualityLevel_Type": {  "type": "string"  } 
            , "sub_art_Type": {  "maxLength": 80,  "type": "string"  } 
            , "sub_pattern_Type": {  "maxLength": 15,  "type": "string"  } 
            , "sub_color_Type": {  "maxLength": 15,  "type": "string"  } 
            , "sub_added_Type": {  "maxLength": 80,  "type": "string"  } 
            , "format_Type": {  "type": "string"  } 
            , "mime_Type": {  "type": "string"  } 
            , "encoding_Type": {  "type": "string"  } 
            , "characterSet_Type": {  "type": "string"  } 
            , "sub_uri_Type": {  "type": "string"  } 
            , "mimeCode_Type": {  "type": "string"  } 
            , "formatCode_Type": {  "type": "string"  } 
            , "encodingCode_Type": {  "type": "string"  } 
            , "characterSetCode_Type": {  "type": "string"  } 
            , "yarnOutWrapText_Type": {  "maxLength": 250,  "type": "string"  } 
            , "yarnOutWrap_Type": {  "enum": [ "00","CB","CC","CD","XD"],  "type": "string"  } 
            , "sub_acsPackCode_Type": {  "type": "string"  } 
            , "acsPackText_Type": {  "maxLength": 250,  "type": "string"  } 
            , "sub_garPackCode_Type": {  "type": "string"  } 
            , "garPackText_Type": {  "type": "string"  } 
            , "TID_Type": {  "type": "string"  } 
            , "addType_Type": {  "enum": [ "CC","CL","CO","DY","LT","MDI","MS","PKG","PL","RGB","SE"],  "type": "string"  } 
            , "isURL_Type": {  "type": "boolean"  } 
            , "sub_yarnReelD_Type": {  "minimum": 0,  "type": "number"  } 
            , "sub_yarnReelH_Type": {  "minimum": 0,  "type": "number"  } 
            , "yarnConeAngle_Type": {  "type": "number"  } 
            , "sub_yarnReelQty_Type": {  "minimum": 0,  "type": "number"  } 
            , "label_Type": {  "type": "boolean"  } 
            , "labelWrit_Type": {  "maxLength": 350,  "type": "string"  } 
            , "reelType_Type": {  "enum": [ "CIL","CON","HNK","MUF","SPL","TUB","XCO"],  "type": "string"  } 
            , "reelMat_Type": {  "enum": [ "CA","DY","MT","PL"],  "type": "string"  } 
            , "yarnReelWrap_Type": {  "enum": [ "XA","XB","XD"],  "type": "string"  } 
            
         },  "type":
        "object", "properties": { "TEXDesRequest":
            {"$ref":"#/definitions/TEXDesRequest_Type"}}, "required": [
            "TEXDesRequest" ] } 