 { "$schema":
        "http://json-schema.org/draft-07/schema#", "$id": "urn:moda-ml:repository:schema:YARNWorkInv", "title":
            "YARNWorkInv", "description": "YARNWorkInv", "definitions": { 
         "YARNWorkInv_Type": { 
             "description": "YARNWorkInv", 
             "type": "object",
            "properties": { 
            
                "@msgfunction": { "$ref": "#/definitions/msgfunction_Type" },
                "@version": { "$ref": "#/definitions/version_Type" },
                "@useProfile": { "$ref": "#/definitions/useProfile_Type" }, 
                "YWIheader": { 
             "$ref": "#/definitions/YWIheader_Type"  } 
            ,
                "YWIbody": { 
             "$ref": "#/definitions/YWIbody_Type"  } 
             }, 
            
            
             "additionalProperties": false 
            , "required": ["YWIheader" ,"YWIbody" ]
             } 
            , "YWIheader_Type": { 
             "description": "YWIheader", 
             "type": "object",
            "properties": { 
            
                "msgN": { 
             "$ref": "#/definitions/msgN_Type"  } 
            ,
                "msgID": { 
             "$ref": "#/definitions/msgID_Type"  } 
            ,
                "docID": { 
             "$ref": "#/definitions/docID_Type"  } 
            ,
                "msgDate": { 
             "$ref": "#/definitions/msgDate_Type"  } 
            ,
                "inventoryDate": { 
             "$ref": "#/definitions/inventoryDate_Type"  } 
            ,
                "refDoc": { 
             "items": {  "$ref": "#/definitions/refDoc_Type"  }, "type": "array" 
                , "maxItems": 9 } 
            ,
                "buyer": { 
             "$ref": "#/definitions/buyer_Type"  } 
            ,
                "subContractor": { 
             "$ref": "#/definitions/subContractor_Type"  } 
            ,
                "thirdParty": { 
             "items": {  "$ref": "#/definitions/thirdParty_Type"  }, "type": "array" 
                , "maxItems": 5 } 
            ,
                "note": { 
             "items": {  "$ref": "#/definitions/note_Type"  }, "type": "array" 
                , "maxItems": 99 } 
             }, 
            
             "anyOf": [ {},  { "": "msgID" } 
                        , { "": "docID" } 
                        ], 
             "additionalProperties": false 
            , "required": ["msgN" ,"msgDate" ,"inventoryDate" ,"buyer" ,"subContractor" ]
             } 
            , "YWIbody_Type": { 
             "description": "YWIbody", 
             "type": "object",
            "properties": { 
            
                "YWIitem": { 
             "items": {  "$ref": "#/definitions/YWIitem_Type"  }, "type": "array" 
                 } 
             }, 
            
            
             "additionalProperties": false 
            , "required": ["YWIitem" ]
             } 
            , "refDoc_Type": { 
             "description": "refDoc", 
             "type": "object",
            "properties": { 
            
                "@docType": { "$ref": "#/definitions/docType_Type" }, 
                "docID": { 
             "items": {  "$ref": "#/definitions/docID_Type"  }, "type": "array" 
                , "maxItems": 2 } 
            ,
                "docDate": { 
             "$ref": "#/definitions/docDate_Type"  } 
            ,
                "season": { 
             "$ref": "#/definitions/season_Type"  } 
            ,
                "itemID": { 
             "$ref": "#/definitions/itemID_Type"  } 
            ,
                "attachment": { 
             "$ref": "#/definitions/attachment_Type"  } 
             }, 
            
            
             "additionalProperties": false 
            , "required": ["docID" ,"@docType"]
             } 
            , "buyer_Type": { 
             "description": "buyer", 
             "type": "object",
            "properties": { 
            
                "@logo": { "$ref": "#/definitions/logo_Type" },
                "@sender": { "$ref": "#/definitions/sender_Type" }, 
                "id": { 
             "$ref": "#/definitions/id_Type"  } 
            ,
                "additionalIdentifier": { 
             "items": {  "$ref": "#/definitions/additionalIdentifier_Type"  }, "type": "array" 
                , "maxItems": 9 } 
            ,
                "legalName": { 
             "$ref": "#/definitions/legalName_Type"  } 
            ,
                "dept": { 
             "$ref": "#/definitions/dept_Type"  } 
            ,
                "subDept": { 
             "$ref": "#/definitions/subDept_Type"  } 
            ,
                "person": { 
             "$ref": "#/definitions/person_Type"  } 
            ,
                "street": { 
             "$ref": "#/definitions/street_Type"  } 
            ,
                "city": { 
             "$ref": "#/definitions/city_Type"  } 
            ,
                "subCountry": { 
             "$ref": "#/definitions/subCountry_Type"  } 
            ,
                "country": { 
             "$ref": "#/definitions/country_Type"  } 
            ,
                "postCode": { 
             "$ref": "#/definitions/postCode_Type"  } 
             }, 
            
            
             "additionalProperties": false 
            , "required": ["id" ]
             } 
            , "subContractor_Type": { 
             "description": "subContractor", 
             "type": "object",
            "properties": { 
            
                "@sender": { "$ref": "#/definitions/sender_Type" }, 
                "id": { 
             "$ref": "#/definitions/id_Type"  } 
            ,
                "legalName": { 
             "$ref": "#/definitions/legalName_Type"  } 
            ,
                "dept": { 
             "$ref": "#/definitions/dept_Type"  } 
            ,
                "subDept": { 
             "$ref": "#/definitions/subDept_Type"  } 
            ,
                "person": { 
             "$ref": "#/definitions/person_Type"  } 
            ,
                "street": { 
             "$ref": "#/definitions/street_Type"  } 
            ,
                "city": { 
             "$ref": "#/definitions/city_Type"  } 
            ,
                "subCountry": { 
             "$ref": "#/definitions/subCountry_Type"  } 
            ,
                "country": { 
             "$ref": "#/definitions/country_Type"  } 
            ,
                "postCode": { 
             "$ref": "#/definitions/postCode_Type"  } 
             }, 
            
            
             "additionalProperties": false 
            , "required": ["id" ]
             } 
            , "thirdParty_Type": { 
             "description": "thirdParty", 
             "type": "object",
            "properties": { 
            
                "@VAT": { "$ref": "#/definitions/VAT_Type" },
                "@role": { "$ref": "#/definitions/role_Type" },
                "@sender": { "$ref": "#/definitions/sender_Type" }, 
                "id": { 
             "$ref": "#/definitions/id_Type"  } 
            ,
                "legalName": { 
             "$ref": "#/definitions/legalName_Type"  } 
            ,
                "dept": { 
             "$ref": "#/definitions/dept_Type"  } 
            ,
                "subDept": { 
             "$ref": "#/definitions/subDept_Type"  } 
            ,
                "person": { 
             "$ref": "#/definitions/person_Type"  } 
            ,
                "street": { 
             "$ref": "#/definitions/street_Type"  } 
            ,
                "city": { 
             "$ref": "#/definitions/city_Type"  } 
            ,
                "subCountry": { 
             "$ref": "#/definitions/subCountry_Type"  } 
            ,
                "country": { 
             "$ref": "#/definitions/country_Type"  } 
            ,
                "postCode": { 
             "$ref": "#/definitions/postCode_Type"  } 
             }, 
            
            
             "additionalProperties": false 
            , "required": ["id" ,"@role"]
             } 
            , "YWIitem_Type": { 
             "description": "YWIitem", 
             "type": "object",
            "properties": { 
            
                "lineN": { 
             "$ref": "#/definitions/lineN_Type"  } 
            ,
                "refDoc": { 
             "items": {  "$ref": "#/definitions/refDoc_Type"  }, "type": "array" 
                , "maxItems": 9 } 
            ,
                "yarnCode": { 
             "$ref": "#/definitions/yarnCode_Type"  } 
            ,
                "lotN": { 
             "items": {  "$ref": "#/definitions/lotN_Type"  }, "type": "array" 
                , "maxItems": 9 } 
            ,
                "dyeN": { 
             "items": {  "$ref": "#/definitions/dyeN_Type"  }, "type": "array" 
                , "maxItems": 9 } 
            ,
                "inventory": { 
             "items": {  "$ref": "#/definitions/inventory_Type"  }, "type": "array" 
                , "maxItems": 9 } 
            ,
                "note": { 
             "items": {  "$ref": "#/definitions/note_Type"  }, "type": "array" 
                , "maxItems": 99 } 
             }, 
            
            
             "additionalProperties": false 
            , "required": ["lineN" ,"yarnCode" ,"inventory" ]
             } 
            , "attachment_Type": { 
             "description": "attachment", 
             "type": "object",
            "properties": { 
            
                "@uid": { "$ref": "#/definitions/uid_Type" }, 
                "fileName": { 
             "$ref": "#/definitions/fileName_Type"  } 
            ,
                "binaryObject": { 
             "$ref": "#/definitions/binaryObject_Type"  } 
            ,
                "externalReference": { 
             "items": {  "$ref": "#/definitions/externalReference_Type"  }, "type": "array" 
                , "maxItems": 99 } 
             }, 
            
            
             "additionalProperties": false 
            
             } 
            , "yarnCode_Type": { 
             "description": "yarnCode", 
             "type": "object",
            "properties": { 
            
                "@numberingOrg": { "$ref": "#/definitions/numberingOrg_Type" }, 
                "art": { 
             "$ref": "#/definitions/art_Type"  } 
            ,
                "color": { 
             "$ref": "#/definitions/color_Type"  } 
            ,
                "added": { 
             "items": {  "$ref": "#/definitions/added_Type"  }, "type": "array" 
                , "maxItems": 9 } 
            ,
                "description": { 
             "items": {  "$ref": "#/definitions/description_Type"  }, "type": "array" 
                 } 
             }, 
            
            
             "additionalProperties": false 
            , "required": ["art" ]
             } 
            , "inventory_Type": { 
             "description": "inventory", 
             "type": "object",
            "properties": { 
            
                "@invType": { "$ref": "#/definitions/invType_Type" }, 
                "qty": { 
             "items": {  "$ref": "#/definitions/qty_Type"  }, "type": "array" 
                , "maxItems": 2 } 
            ,
                "location": { 
             "$ref": "#/definitions/location_Type"  } 
            ,
                "serialN": { 
             "items": {  "$ref": "#/definitions/serialN_Type"  }, "type": "array" 
                 } 
            ,
                "itemsList": { 
             "$ref": "#/definitions/itemsList_Type"  } 
            ,
                "actualPackageUnit": { 
             "items": {  "$ref": "#/definitions/actualPackageUnit_Type"  }, "type": "array" 
                 } 
            ,
                "EPClist": { 
             "$ref": "#/definitions/EPClist_Type"  } 
             }, 
            
             "anyOf": [ {},  { "": "serialN" } 
                        , { "": "itemsList" } 
                        ], 
             "additionalProperties": false 
            , "required": ["qty" ,"@invType"]
             } 
            , "externalReference_Type": { 
             "description": "externalReference", 
             "type": "object",
            "properties": { 
            
                "uri": { 
             "$ref": "#/definitions/uri_Type"  } 
            ,
                "mimeCode": { 
             "$ref": "#/definitions/mimeCode_Type"  } 
            ,
                "formatCode": { 
             "$ref": "#/definitions/formatCode_Type"  } 
            ,
                "encodingCode": { 
             "$ref": "#/definitions/encodingCode_Type"  } 
            ,
                "characterSetCode": { 
             "$ref": "#/definitions/characterSetCode_Type"  } 
             }, 
            
            
             "additionalProperties": false 
            , "required": ["uri" ]
             } 
            , "itemsList_Type": { 
             "description": "itemsList", 
             "type": "object",
            "properties": { 
            
                "qualityLevel": { 
             "$ref": "#/definitions/qualityLevel_Type"  } 
            ,
                "itemIdentification": { 
             "items": {  "$ref": "#/definitions/itemIdentification_Type"  }, "type": "array" 
                 } 
             }, 
            
            
             "additionalProperties": false 
            , "required": ["itemIdentification" ]
             } 
            , "actualPackageUnit_Type": { 
             "description": "actualPackageUnit", 
             "type": "object",
            "properties": { 
            
                "@packageLevel": { "$ref": "#/definitions/packageLevel_Type" }, 
                "packageIdentification": { 
             "$ref": "#/definitions/packageIdentification_Type"  } 
            ,
                "packageText": { 
             "$ref": "#/definitions/packageText_Type"  } 
            ,
                "package": { 
             "$ref": "#/definitions/package_Type"  } 
            ,
                "packageModelCode": { 
             "$ref": "#/definitions/packageModelCode_Type"  } 
            ,
                "volume": { 
             "$ref": "#/definitions/volume_Type"  } 
            ,
                "netWeight": { 
             "$ref": "#/definitions/netWeight_Type"  } 
            ,
                "grossWeight": { 
             "$ref": "#/definitions/grossWeight_Type"  } 
            ,
                "packageDim": { 
             "$ref": "#/definitions/packageDim_Type"  } 
            ,
                "actualItemsPerPackage": { 
             "$ref": "#/definitions/actualItemsPerPackage_Type"  } 
            ,
                "packagesList": { 
             "$ref": "#/definitions/packagesList_Type"  } 
            ,
                "itemsList": { 
             "$ref": "#/definitions/itemsList_Type"  } 
            ,
                "note": { 
             "items": {  "$ref": "#/definitions/note_Type"  }, "type": "array" 
                , "maxItems": 99 } 
             }, 
            
             "anyOf": [ {},  { "": "packageText" } 
                        , { "": "package" } 
                        ], 
             "additionalProperties": false 
            , "required": ["packageIdentification" ]
             } 
            , "EPClist_Type": { 
             "description": "EPClist", 
             "type": "object",
            "properties": { 
            
                "EPC": { 
             "items": {  "$ref": "#/definitions/EPC_Type"  }, "type": "array" 
                 } 
             }, 
            
            
             "additionalProperties": false 
            , "required": ["EPC" ]
             } 
            , "itemIdentification_Type": { 
             "description": "itemIdentification", 
             "type": "object",
            "properties": { 
            
                "serialN": { 
             "items": {  "$ref": "#/definitions/serialN_Type"  }, "type": "array" 
                , "maxItems": 9 } 
             }, 
            
            
             "additionalProperties": false 
            , "required": ["serialN" ]
             } 
            , "packageIdentification_Type": { 
             "description": "packageIdentification", 
             "type": "object",
            "properties": { 
            
                "packageN": { 
             "$ref": "#/definitions/packageN_Type"  } 
            ,
                "serialN": { 
             "items": {  "$ref": "#/definitions/serialN_Type"  }, "type": "array" 
                , "maxItems": 9 } 
             }, 
            
            
             "additionalProperties": false 
            , "required": ["packageN" ]
             } 
            , "packageDim_Type": { 
             "description": "packageDim", 
             "type": "object",
            "properties": { 
            
                "length": { 
             "$ref": "#/definitions/length_Type"  } 
            ,
                "width": { 
             "$ref": "#/definitions/width_Type"  } 
            ,
                "height": { 
             "$ref": "#/definitions/height_Type"  } 
             }, 
            
            
             "additionalProperties": false 
            , "required": ["length" ]
             } 
            , "packagesList_Type": { 
             "description": "packagesList", 
             "type": "object",
            "properties": { 
            
                "packageIdentification": { 
             "items": {  "$ref": "#/definitions/packageIdentification_Type"  }, "type": "array" 
                 } 
             }, 
            
            
             "additionalProperties": false 
            , "required": ["packageIdentification" ]
             } 
            , "docID_Type": { "type": "object", "properties": {  "$": {  "$ref": "#/definitions/sub_docID_Type"  } ,
                "@numberingOrg": { "$ref": "#/definitions/numberingOrg_Type" } },  "additionalProperties": false 
             } 
            , "msgDate_Type": { "type": "object", "properties": {  "$": {  "$ref": "#/definitions/sub_msgDate_Type"  } ,
                "@dateForm": { "$ref": "#/definitions/dateForm_Type" } },  "additionalProperties": false 
             } 
            , "inventoryDate_Type": { "type": "object", "properties": {  "$": {  "$ref": "#/definitions/sub_inventoryDate_Type"  } ,
                "@dateForm": { "$ref": "#/definitions/dateForm_Type" } },  "additionalProperties": false 
             } 
            , "note_Type": { "type": "object", "properties": {  "$": {  "$ref": "#/definitions/sub_note_Type"  } ,
                "@numberingOrg": { "$ref": "#/definitions/numberingOrg_Type" },
                "@codeList": { "$ref": "#/definitions/codeList_Type" },
                "@noteLabel": { "$ref": "#/definitions/noteLabel_Type" } },  "additionalProperties": false 
             } 
            , "docDate_Type": { "type": "object", "properties": {  "$": {  "$ref": "#/definitions/sub_docDate_Type"  } ,
                "@dateForm": { "$ref": "#/definitions/dateForm_Type" } },  "additionalProperties": false 
             } 
            , "season_Type": { "type": "object", "properties": {  "$": {  "$ref": "#/definitions/sub_season_Type"  } ,
                "@numberingOrg": { "$ref": "#/definitions/numberingOrg_Type" },
                "@codeList": { "$ref": "#/definitions/codeList_Type" },
                "@listName": { "$ref": "#/definitions/listName_Type" },
                "@listVersion": { "$ref": "#/definitions/listVersion_Type" } },  "additionalProperties": false 
             } 
            , "id_Type": { "type": "object", "properties": {  "$": {  "$ref": "#/definitions/sub_id_Type"  } ,
                "@numberingOrg": { "$ref": "#/definitions/numberingOrg_Type" } },  "additionalProperties": false 
             } 
            , "additionalIdentifier_Type": { "type": "object", "properties": {  "$": {  "$ref": "#/definitions/sub_additionalIdentifier_Type"  } ,
                "@numberingOrg": { "$ref": "#/definitions/numberingOrg_Type" },
                "@idQualifier": { "$ref": "#/definitions/idQualifier_Type" } },  "additionalProperties": false 
             } 
            , "person_Type": { "type": "object", "properties": {  "$": {  "$ref": "#/definitions/sub_person_Type"  } ,
                "@email": { "$ref": "#/definitions/email_Type" },
                "@phone": { "$ref": "#/definitions/phone_Type" },
                "@fax": { "$ref": "#/definitions/fax_Type" } },  "additionalProperties": false 
             } 
            , "lineN_Type": { "type": "object", "properties": {  "$": {  "$ref": "#/definitions/sub_lineN_Type"  } ,
                "@VAT": { "$ref": "#/definitions/VAT_Type" } },  "additionalProperties": false 
             } 
            , "lotN_Type": { "type": "object", "properties": {  "$": {  "$ref": "#/definitions/sub_lotN_Type"  } ,
                "@numberingOrg": { "$ref": "#/definitions/numberingOrg_Type" } },  "additionalProperties": false 
             } 
            , "dyeN_Type": { "type": "object", "properties": {  "$": {  "$ref": "#/definitions/sub_dyeN_Type"  } ,
                "@numberingOrg": { "$ref": "#/definitions/numberingOrg_Type" } },  "additionalProperties": false 
             } 
            , "fileName_Type": { "type": "object", "properties": {  "$": {  "$ref": "#/definitions/sub_fileName_Type"  } ,
                "@numberingOrg": { "$ref": "#/definitions/numberingOrg_Type" } },  "additionalProperties": false 
             } 
            , "binaryObject_Type": { "type": "object", "properties": {  "$": {  "$ref": "#/definitions/sub_binaryObject_Type"  } ,
                "@format": { "$ref": "#/definitions/format_Type" },
                "@mime": { "$ref": "#/definitions/mime_Type" },
                "@encoding": { "$ref": "#/definitions/encoding_Type" },
                "@characterSet": { "$ref": "#/definitions/characterSet_Type" } },  "additionalProperties": false 
             } 
            , "art_Type": { "type": "object", "properties": {  "$": {  "$ref": "#/definitions/sub_art_Type"  } ,
                "@numberingOrg": { "$ref": "#/definitions/numberingOrg_Type" },
                "@codeList": { "$ref": "#/definitions/codeList_Type" },
                "@listName": { "$ref": "#/definitions/listName_Type" },
                "@listVersion": { "$ref": "#/definitions/listVersion_Type" } },  "additionalProperties": false 
             } 
            , "color_Type": { "type": "object", "properties": {  "$": {  "$ref": "#/definitions/sub_color_Type"  } ,
                "@numberingOrg": { "$ref": "#/definitions/numberingOrg_Type" },
                "@codeList": { "$ref": "#/definitions/codeList_Type" },
                "@listName": { "$ref": "#/definitions/listName_Type" },
                "@listVersion": { "$ref": "#/definitions/listVersion_Type" } },  "additionalProperties": false 
             } 
            , "added_Type": { "type": "object", "properties": {  "$": {  "$ref": "#/definitions/sub_added_Type"  } ,
                "@numberingOrg": { "$ref": "#/definitions/numberingOrg_Type" },
                "@addType": { "$ref": "#/definitions/addType_Type" } },  "additionalProperties": false 
             } 
            , "description_Type": { "type": "object", "properties": {  "$": {  "$ref": "#/definitions/sub_description_Type"  } ,
                "@ln": { "$ref": "#/definitions/ln_Type" } },  "additionalProperties": false 
             } 
            , "qty_Type": { "type": "object", "properties": {  "$": {  "$ref": "#/definitions/sub_qty_Type"  } ,
                "@um": { "$ref": "#/definitions/um_Type" } },  "additionalProperties": false 
            , "required": ["@um"] } 
            , "location_Type": { "type": "object", "properties": {  "$": {  "$ref": "#/definitions/sub_location_Type"  } ,
                "@LRI": { "$ref": "#/definitions/LRI_Type" } },  "additionalProperties": false 
             } 
            , "serialN_Type": { "type": "object", "properties": {  "$": {  "$ref": "#/definitions/sub_serialN_Type"  } ,
                "@numberingOrg": { "$ref": "#/definitions/numberingOrg_Type" },
                "@idQualifier": { "$ref": "#/definitions/idQualifier_Type" } },  "additionalProperties": false 
             } 
            , "uri_Type": { "type": "object", "properties": {  "$": {  "$ref": "#/definitions/sub_uri_Type"  } ,
                "@isURL": { "$ref": "#/definitions/isURL_Type" } },  "additionalProperties": false 
             } 
            , "qualityLevel_Type": { "type": "object", "properties": {  "$": {  "$ref": "#/definitions/sub_qualityLevel_Type"  } ,
                "@numberingOrg": { "$ref": "#/definitions/numberingOrg_Type" },
                "@codeList": { "$ref": "#/definitions/codeList_Type" },
                "@listName": { "$ref": "#/definitions/listName_Type" },
                "@listVersion": { "$ref": "#/definitions/listVersion_Type" } },  "additionalProperties": false 
             } 
            , "packageModelCode_Type": { "type": "object", "properties": {  "$": {  "$ref": "#/definitions/sub_packageModelCode_Type"  } ,
                "@numberingOrg": { "$ref": "#/definitions/numberingOrg_Type" } },  "additionalProperties": false 
             } 
            , "volume_Type": { "type": "object", "properties": {  "$": {  "$ref": "#/definitions/sub_volume_Type"  } ,
                "@um": { "$ref": "#/definitions/um_Type" } },  "additionalProperties": false 
            , "required": ["@um"] } 
            , "netWeight_Type": { "type": "object", "properties": {  "$": {  "$ref": "#/definitions/sub_netWeight_Type"  } ,
                "@um": { "$ref": "#/definitions/um_Type" } },  "additionalProperties": false 
            , "required": ["@um"] } 
            , "grossWeight_Type": { "type": "object", "properties": {  "$": {  "$ref": "#/definitions/sub_grossWeight_Type"  } ,
                "@um": { "$ref": "#/definitions/um_Type" } },  "additionalProperties": false 
            , "required": ["@um"] } 
            , "actualItemsPerPackage_Type": { "type": "object", "properties": {  "$": {  "$ref": "#/definitions/sub_actualItemsPerPackage_Type"  }  },  "additionalProperties": false 
             } 
            , "EPC_Type": { "type": "object", "properties": {  "$": {  "$ref": "#/definitions/sub_EPC_Type"  } ,
                "@numberingOrg": { "$ref": "#/definitions/numberingOrg_Type" },
                "@TID": { "$ref": "#/definitions/TID_Type" } },  "additionalProperties": false 
             } 
            , "packageN_Type": { "type": "object", "properties": {  "$": {  "$ref": "#/definitions/sub_packageN_Type"  } ,
                "@numberingOrg": { "$ref": "#/definitions/numberingOrg_Type" },
                "@packageContainerN": { "$ref": "#/definitions/packageContainerN_Type" } },  "additionalProperties": false 
             } 
            , "length_Type": { "type": "object", "properties": {  "$": {  "$ref": "#/definitions/sub_length_Type"  } ,
                "@um": { "$ref": "#/definitions/um_Type" } },  "additionalProperties": false 
            , "required": ["@um"] } 
            , "width_Type": { "type": "object", "properties": {  "$": {  "$ref": "#/definitions/sub_width_Type"  } ,
                "@um": { "$ref": "#/definitions/um_Type" } },  "additionalProperties": false 
            , "required": ["@um"] } 
            , "height_Type": { "type": "object", "properties": {  "$": {  "$ref": "#/definitions/sub_height_Type"  } ,
                "@um": { "$ref": "#/definitions/um_Type" } },  "additionalProperties": false 
            , "required": ["@um"] } 
            , "msgfunction_Type": {  "enum": [ "CA","CP","OR","RC","RT"],  "type": "string"  } 
            , "version_Type": {  "enum": [ "2013-1","2018-1","draft"],  "type": "string"  } 
            , "useProfile_Type": {  "type": "string"  } 
            , "msgN_Type": {  "maxLength": 35,  "type": "string"  } 
            , "msgID_Type": {  "maxLength": 35,  "type": "string"  } 
            , "sub_docID_Type": {  "maxLength": 80,  "type": "string"  } 
            , "sub_msgDate_Type": {  "pattern": "^(((19|20)[0-9][0-9])-(0[1-9]|1[012])-(0[1-9]|1[0-9]|2[0-9]|3[01])(:([0,1][0-9]|2[0-4])-([0-5][0-9])){0,1})|(((19|20)[0-9][0-9])-([0-4][0-9]|[5][0-2]))$",  "type": "string"  } 
            , "sub_inventoryDate_Type": {  "pattern": "^(((19|20)[0-9][0-9])-(0[1-9]|1[012])-(0[1-9]|1[0-9]|2[0-9]|3[01])(:([0,1][0-9]|2[0-4])-([0-5][0-9])){0,1})|(((19|20)[0-9][0-9])-([0-4][0-9]|[5][0-2]))$",  "type": "string"  } 
            , "sub_note_Type": {  "maxLength": 350,  "type": "string"  } 
            , "numberingOrg_Type": {  "enum": [ "CL","CO","EB","EN","ES","FO","GS","MF","ML","SP"],  "type": "string"  } 
            , "dateForm_Type": {  "enum": [ "D","M","W"],  "type": "string"  } 
            , "sub_docDate_Type": {  "pattern": "^(((19|20)[0-9][0-9])-(0[1-9]|1[012])-(0[1-9]|1[0-9]|2[0-9]|3[01])(:([0,1][0-9]|2[0-4])-([0-5][0-9])){0,1})|(((19|20)[0-9][0-9])-([0-4][0-9]|[5][0-2]))$",  "type": "string"  } 
            , "sub_season_Type": {  "maxLength": 15,  "type": "string"  } 
            , "itemID_Type": {  "maxLength": 40,  "type": "string"  } 
            , "docType_Type": {  "enum": [ "BOR","CAT","CEO","CER","COC","CRN","CTO","CTR","CXF","DAD","DDT","DEA","DER","DR","FOR","GSO","GSX","INV","KCC","KCI","M2M","MAS","MCI","OCH","OFF","ORD","ORP","OSR","OSS","OST","OUR","QR","RAI","RDC","RDH","RDR","REA","REQ","RET","RSC","RSH","RSR","SCL","TFC","TFX","TPC","TPX","TWI","VMI","WAC","WEC","YDC","YDH","YDR","YTC","YWI"],  "type": "string"  } 
            , "sub_id_Type": {  "maxLength": 15,  "type": "string"  } 
            , "sub_additionalIdentifier_Type": {  "maxLength": 15,  "type": "string"  } 
            , "legalName_Type": {  "maxLength": 250,  "type": "string"  } 
            , "dept_Type": {  "maxLength": 40,  "type": "string"  } 
            , "subDept_Type": {  "maxLength": 40,  "type": "string"  } 
            , "sub_person_Type": {  "maxLength": 40,  "type": "string"  } 
            , "street_Type": {  "maxLength": 80,  "type": "string"  } 
            , "city_Type": {  "maxLength": 40,  "type": "string"  } 
            , "subCountry_Type": {  "maxLength": 9,  "type": "string"  } 
            , "country_Type": {  "type": "string"  } 
            , "postCode_Type": {  "maxLength": 10,  "type": "string"  } 
            , "logo_Type": {  "maxLength": 255,  "type": "string"  } 
            , "sender_Type": {  "type": "boolean"  } 
            , "VAT_Type": {  "enum": [ "001","002","003","004","005","006","007","008","009","010","011","012","013","014","015","016","017","018","019","020","021","022","023","024","025","162","164","165","166","169","174","177","183","184","201","220","227","374","701","702","902","904","905","907","915","926","974"],  "type": "string"  } 
            , "role_Type": {  "enum": [ "AG","AU","CE","CO","DC","DF","DI","DM","DP","IM","OR","SC","SM","SP","TX"],  "type": "string"  } 
            , "codeList_Type": {  "maxLength": 255,  "type": "string"  } 
            , "noteLabel_Type": {  "maxLength": 35,  "type": "string"  } 
            , "sub_lineN_Type": {  "minimum": 1,  "maximum": 9999,  "type": "number"  } 
            , "sub_lotN_Type": {  "maxLength": 15,  "type": "string"  } 
            , "sub_dyeN_Type": {  "maxLength": 15,  "type": "string"  } 
            , "listName_Type": {  "maxLength": 40,  "type": "string"  } 
            , "listVersion_Type": {  "maxLength": 6,  "type": "string"  } 
            , "sub_fileName_Type": {  "maxLength": 255,  "type": "string"  } 
            , "sub_binaryObject_Type": {  "type": "string"  } 
            , "uid_Type": {  "type": "string"  } 
            , "idQualifier_Type": {  "type": "string"  } 
            , "email_Type": {  "maxLength": 250,  "type": "string"  } 
            , "phone_Type": {  "maxLength": 35,  "type": "string"  } 
            , "fax_Type": {  "maxLength": 35,  "type": "string"  } 
            , "sub_art_Type": {  "maxLength": 80,  "type": "string"  } 
            , "sub_color_Type": {  "maxLength": 15,  "type": "string"  } 
            , "sub_added_Type": {  "maxLength": 80,  "type": "string"  } 
            , "sub_description_Type": {  "maxLength": 250,  "type": "string"  } 
            , "sub_qty_Type": {  "minimum": 0,  "type": "number"  } 
            , "sub_location_Type": {  "maxLength": 40,  "type": "string"  } 
            , "sub_serialN_Type": {  "maxLength": 250,  "type": "string"  } 
            , "invType_Type": {  "enum": [ "ALL","DMG","FIW","PRW","WIP"],  "type": "string"  } 
            , "format_Type": {  "type": "string"  } 
            , "mime_Type": {  "type": "string"  } 
            , "encoding_Type": {  "type": "string"  } 
            , "characterSet_Type": {  "type": "string"  } 
            , "sub_uri_Type": {  "type": "string"  } 
            , "mimeCode_Type": {  "type": "string"  } 
            , "formatCode_Type": {  "type": "string"  } 
            , "encodingCode_Type": {  "type": "string"  } 
            , "characterSetCode_Type": {  "type": "string"  } 
            , "addType_Type": {  "enum": [ "CC","CL","CO","DY","LT","MDI","MS","PKG","PL","RGB","SE"],  "type": "string"  } 
            , "ln_Type": {  "enum": [ "af","ar","be","bg","bn","bo","bs","ca","cs","da","de","el","en","eo","es","et","eu","F","fa","fi","fr","ga","gd","gn","he","hr","ht","hu","hy","ia","id","is","it","ja","jv","ka","km","ko","ku","lb","lo","lt","lv","mg","mk","mn","mt","nl","no","pl","pt","ro","ru","se","sk","sl","sm","so","sq","sr","sv","sw","ta","th","tr","uk","ur","uz","vi","zh"],  "type": "string"  } 
            , "um_Type": {  "enum": [ "CMK","CMQ","CMT","CNE","CO2TON","COUPLES","DMQ","E37","GRM","HUR","INH","KGM","KMT","KWH","LBR","MIN","MMK","MTK","MTQ","MTR","NMB","ONZ","P1","PPM","PZ","RPM","YRD"],  "type": "string"  } 
            , "LRI_Type": {  "enum": [ "EN4","MD"],  "type": "string"  } 
            , "sub_qualityLevel_Type": {  "type": "string"  } 
            , "packageText_Type": {  "maxLength": 80,  "type": "string"  } 
            , "package_Type": {  "enum": [ "4A","4C","4G","4H","5H","5L","5M","AJ","BL","BN","BX","CI","CL","CN","CS","CT","EC","ED","EE","EF","EG","EH","FX","HN","NE","NF","NG","OA","OB","OC","OD","OE","PE","PX","QS","RJ","RL","SO","TU","XD","XK","ZZ "],  "type": "string"  } 
            , "sub_packageModelCode_Type": {  "type": "string"  } 
            , "sub_volume_Type": {  "minimum": 0,  "type": "number"  } 
            , "sub_netWeight_Type": {  "minimum": 0,  "type": "number"  } 
            , "sub_grossWeight_Type": {  "minimum": 0,  "type": "number"  } 
            , "sub_actualItemsPerPackage_Type": {  "type": "number"  } 
            , "packageLevel_Type": {  "minimum": 1,  "maximum": 9,  "type": "number"  } 
            , "sub_EPC_Type": {  "type": "string"  } 
            , "isURL_Type": {  "type": "boolean"  } 
            , "sub_packageN_Type": {  "maxLength": 40,  "type": "string"  } 
            , "sub_length_Type": {  "minimum": 0,  "type": "number"  } 
            , "sub_width_Type": {  "minimum": 0,  "type": "number"  } 
            , "sub_height_Type": {  "minimum": 0,  "type": "number"  } 
            , "TID_Type": {  "type": "string"  } 
            , "packageContainerN_Type": {  "maxLength": 40,  "type": "string"  } 
            
         },  "type":
        "object", "properties": { "YARNWorkInv":
            {"$ref":"#/definitions/YARNWorkInv_Type"}}, "required": [
            "YARNWorkInv" ] } 